"simulation_id","day","fund_value"
"103","2019-01-02","1000.0000000024229"
"103","2019-01-03","947.9597645022792"
"103","2019-01-04","960.3200038943941"
"103","2019-01-07","966.0181889703899"
"103","2019-01-08","992.2664004833372"
"103","2019-01-09","987.7834646161515"
"103","2019-01-10","997.3409813742671"
"103","2019-01-11","999.1468550874622"
"103","2019-01-14","999.2460437148693"
"103","2019-01-15","1002.0875103490876"
"103","2019-01-16","1017.2095216051475"
"103","2019-01-17","1037.4677078437248"
"103","2019-01-18","1045.0059700423608"
"103","2019-01-22","1026.1732191300562"
"103","2019-01-23","1037.8823890424787"
"103","2019-01-24","1041.98787498282"
"103","2019-01-25","1046.3560038185437"
"103","2019-01-28","1050.5459579657368"
"103","2019-01-29","1061.8730493228802"
"103","2019-01-30","1074.5322246138537"
"103","2019-01-31","1092.7692103374836"
