"simulation_id","day","fund_value"
"114","2019-01-02","1000.0000000024229"
"114","2019-01-03","947.9597645022792"
"114","2019-01-04","984.7454436438212"
"114","2019-01-07","1009.545296316026"
"114","2019-01-08","1045.845582450393"
"114","2019-01-09","1034.268717702478"
"114","2019-01-10","1043.0587304636226"
"114","2019-01-11","1041.0001830984793"
"114","2019-01-14","1036.5850577591136"
"114","2019-01-15","1056.135476145481"
"114","2019-01-16","1049.4930518388555"
"114","2019-01-17","1068.5350330706929"
"114","2019-01-18","1083.1888705096037"
"114","2019-01-22","1055.1158109353591"
"114","2019-01-23","1064.6298060268387"
"114","2019-01-24","1033.3707591264588"
"114","2019-01-25","1043.9358773131967"
"114","2019-01-28","1043.4383761067756"
"114","2019-01-29","1049.5696695418267"
"114","2019-01-30","1063.687311238197"
"114","2019-01-31","1057.8834787111607"
