"simulation_id","day","fund_value"
"118","2019-01-02","1000.0000000024229"
"118","2019-01-03","947.9597645022792"
"118","2019-01-04","974.7107504027223"
"118","2019-01-07","990.9829918659402"
"118","2019-01-08","1012.1433995918162"
"118","2019-01-09","1053.742818363679"
"118","2019-01-10","1058.986731201069"
"118","2019-01-11","1051.8325471421144"
"118","2019-01-14","1055.36125929426"
"118","2019-01-15","1071.4298278633682"
"118","2019-01-16","1075.0091240905308"
"118","2019-01-17","1086.4555378651544"
"118","2019-01-18","1108.3902417129168"
"118","2019-01-22","1088.0090439975384"
"118","2019-01-23","1080.8959217832228"
"118","2019-01-24","1092.3047311338212"
"118","2019-01-25","1103.7503417281578"
"118","2019-01-28","1111.3926942801872"
"118","2019-01-29","1113.7181447529376"
"118","2019-01-30","1147.729570380144"
"118","2019-01-31","1125.0106220183404"
