"simulation_id","day","fund_value"
"120","2019-01-02","1000.0000000024229"
"120","2019-01-03","947.9597645022792"
"120","2019-01-04","1001.7961210920786"
"120","2019-01-07","1011.6318297739375"
"120","2019-01-08","1016.259682521843"
"120","2019-01-09","1002.1638940327279"
"120","2019-01-10","1061.8523061522108"
"120","2019-01-11","1043.9800557811986"
"120","2019-01-14","1028.4665147953237"
"120","2019-01-15","1033.1872268263207"
"120","2019-01-16","1035.8857815844221"
"120","2019-01-17","1016.2027086331309"
"120","2019-01-18","1017.3056285901846"
"120","2019-01-22","1008.9236223150872"
"120","2019-01-23","1021.548911300085"
"120","2019-01-24","1024.8202799378782"
"120","2019-01-25","1026.5473564194158"
"120","2019-01-28","1023.3822531773278"
"120","2019-01-29","1019.5278605257263"
"120","2019-01-30","999.3933004762744"
"120","2019-01-31","985.8822972704659"
