"simulation_id","day","fund_value"
"122","2019-01-02","1000.0000000024229"
"122","2019-01-03","947.9597645022792"
"122","2019-01-04","992.0695665995495"
"122","2019-01-07","1000.655782668596"
"122","2019-01-08","1010.32779208874"
"122","2019-01-09","1013.1708241032173"
"122","2019-01-10","1011.3664845305437"
"122","2019-01-11","1013.4904415897372"
"122","2019-01-14","1013.9263879024654"
"122","2019-01-15","1026.7778044571974"
"122","2019-01-16","1034.308794605785"
"122","2019-01-17","1037.5443784180602"
"122","2019-01-18","1054.6796041570456"
"122","2019-01-22","1038.1584363465747"
"122","2019-01-23","1033.2369608778763"
"122","2019-01-24","1048.327224026775"
"122","2019-01-25","1042.7867830323578"
"122","2019-01-28","1051.5832973064037"
"122","2019-01-29","1054.9324697273003"
"122","2019-01-30","1049.5877667628931"
"122","2019-01-31","1051.6433728974296"
