"simulation_id","day","fund_value"
"125","2019-01-02","1000.0000000024229"
"125","2019-01-03","947.9597645022792"
"125","2019-01-04","994.3125430158135"
"125","2019-01-07","1009.5034585807402"
"125","2019-01-08","1010.297817077948"
"125","2019-01-09","1014.426539857732"
"125","2019-01-10","1018.1395381000773"
"125","2019-01-11","1015.3424140825987"
"125","2019-01-14","1007.6201749363076"
"125","2019-01-15","1019.5449084579573"
"125","2019-01-16","1013.1686867613237"
"125","2019-01-17","1032.647311163603"
"125","2019-01-18","1026.600967170615"
"125","2019-01-22","1023.0236219334986"
"125","2019-01-23","1033.464134239256"
"125","2019-01-24","1033.2162927182637"
"125","2019-01-25","1044.9760764199766"
"125","2019-01-28","1039.665984140174"
"125","2019-01-29","1045.1491617169454"
"125","2019-01-30","1053.471018521149"
"125","2019-01-31","1045.806613969236"
