"simulation_id","day","fund_value"
"129","2019-01-02","1000.0000000024229"
"129","2019-01-03","947.9597645022792"
"129","2019-01-04","972.5477298258855"
"129","2019-01-07","1006.6717303308538"
"129","2019-01-08","1030.231220670789"
"129","2019-01-09","1035.606018511141"
"129","2019-01-10","952.9464362938088"
"129","2019-01-11","963.5445064587449"
"129","2019-01-14","956.8835827671855"
"129","2019-01-15","958.0479709742947"
"129","2019-01-16","1010.9710783991255"
"129","2019-01-17","1027.0146798579294"
"129","2019-01-18","1039.8471322873704"
"129","2019-01-22","1022.3848142792707"
"129","2019-01-23","1018.597594779556"
"129","2019-01-24","1014.8080876381599"
"129","2019-01-25","1022.0470420872687"
"129","2019-01-28","1015.1378797367604"
"129","2019-01-29","1012.4415735402724"
"129","2019-01-30","1058.0582086927093"
"129","2019-01-31","1078.7884874036229"
