"simulation_id","day","fund_value"
"130","2019-01-02","1000.0000000024229"
"130","2019-01-03","947.9597645022792"
"130","2019-01-04","966.8393594193599"
"130","2019-01-07","978.4474172291103"
"130","2019-01-08","989.9187811793174"
"130","2019-01-09","1017.5100367077074"
"130","2019-01-10","1019.0742301226303"
"130","2019-01-11","1019.0604853509732"
"130","2019-01-14","1017.9764190280282"
"130","2019-01-15","1021.6817853643888"
"130","2019-01-16","1014.9236430987025"
"130","2019-01-17","1024.5528328053906"
"130","2019-01-18","1039.0938588175884"
"130","2019-01-22","1013.2395766098319"
"130","2019-01-23","984.3696086904416"
"130","2019-01-24","971.9222980727623"
"130","2019-01-25","958.6760418239583"
"130","2019-01-28","987.944769938754"
"130","2019-01-29","994.7771127530985"
"130","2019-01-30","1010.116592385581"
"130","2019-01-31","1025.1302419769527"
