"simulation_id","day","fund_value"
"132","2019-01-02","1000.0000000024229"
"132","2019-01-03","947.9597645022792"
"132","2019-01-04","969.0469606258811"
"132","2019-01-07","983.6665565102711"
"132","2019-01-08","984.5506034671158"
"132","2019-01-09","996.2360191974275"
"132","2019-01-10","999.7762214040227"
"132","2019-01-11","1006.5074389877885"
"132","2019-01-14","1011.0020191865103"
"132","2019-01-15","1024.7510251255792"
"132","2019-01-16","1025.8257599508531"
"132","2019-01-17","1037.9511351011272"
"132","2019-01-18","1049.9975624440021"
"132","2019-01-22","1037.6883716829361"
"132","2019-01-23","1031.5976091397465"
"132","2019-01-24","1038.3805108023894"
"132","2019-01-25","1057.2021091565202"
"132","2019-01-28","1055.3399349519655"
"132","2019-01-29","1061.8668577453125"
"132","2019-01-30","1060.3922048472734"
"132","2019-01-31","1073.003489812405"
