"simulation_id","day","fund_value"
"141","2019-01-02","1000.0000000024229"
"141","2019-01-03","947.9597645022792"
"141","2019-01-04","973.7094765743877"
"141","2019-01-07","982.8111544666851"
"141","2019-01-08","990.2784513737961"
"141","2019-01-09","1018.1187526104948"
"141","2019-01-10","1038.6204882110205"
"141","2019-01-11","1026.1419782520377"
"141","2019-01-14","1034.7440145512817"
"141","2019-01-15","1037.7133682757976"
"141","2019-01-16","1032.9533527036742"
"141","2019-01-17","1055.7318460523488"
"141","2019-01-18","1079.5330251242415"
"141","2019-01-22","1072.6433558487756"
"141","2019-01-23","1073.528390197754"
"141","2019-01-24","1067.161543354399"
"141","2019-01-25","1077.5381678150034"
"141","2019-01-28","1075.5019338422287"
"141","2019-01-29","1115.9072574699626"
"141","2019-01-30","1116.9571853772693"
"141","2019-01-31","1150.550177241356"
