"simulation_id","day","fund_value"
"146","2019-01-02","1000.0000000024229"
"146","2019-01-03","947.9597645022792"
"146","2019-01-04","956.2082760303974"
"146","2019-01-07","968.5555096769822"
"146","2019-01-08","979.7801182054222"
"146","2019-01-09","991.2560823789117"
"146","2019-01-10","1005.5050048337546"
"146","2019-01-11","1013.1665208695725"
"146","2019-01-14","1016.0377356760365"
"146","2019-01-15","1028.5660162578947"
"146","2019-01-16","1032.7567551076158"
"146","2019-01-17","1038.0144673779375"
"146","2019-01-18","1050.7005334539713"
"146","2019-01-22","1037.6394607900934"
"146","2019-01-23","1039.0685367817446"
"146","2019-01-24","1030.1425719537176"
"146","2019-01-25","1029.2997237194868"
"146","2019-01-28","1012.3061996595069"
"146","2019-01-29","1017.9745135409651"
"146","2019-01-30","1027.562858791663"
"146","2019-01-31","1025.2600464392156"
