"simulation_id","day","fund_value"
"148","2019-01-02","1000.0000000024229"
"148","2019-01-03","947.9597645022792"
"148","2019-01-04","971.4042966219079"
"148","2019-01-07","974.4495649853436"
"148","2019-01-08","965.4044020370187"
"148","2019-01-09","956.9545752313007"
"148","2019-01-10","953.8818763090254"
"148","2019-01-11","959.9922573078594"
"148","2019-01-14","960.346958849165"
"148","2019-01-15","981.205658111488"
"148","2019-01-16","975.3538223838464"
"148","2019-01-17","982.8295932194243"
"148","2019-01-18","998.4290763409746"
"148","2019-01-22","964.82411308929"
"148","2019-01-23","954.2915587316809"
"148","2019-01-24","951.7960212793021"
"148","2019-01-25","970.1161604023949"
"148","2019-01-28","956.2691892318355"
"148","2019-01-29","955.6495266611844"
"148","2019-01-30","961.6320590182445"
"148","2019-01-31","985.6435975024075"
