"simulation_id","day","fund_value"
"15","2019-01-02","1000.0000000024229"
"15","2019-01-03","947.9597645022792"
"15","2019-01-04","976.8876453291088"
"15","2019-01-07","998.2064594511629"
"15","2019-01-08","1027.8184015861984"
"15","2019-01-09","965.9455815923875"
"15","2019-01-10","969.1533346231649"
"15","2019-01-11","970.4848440777412"
"15","2019-01-14","981.3804133414602"
"15","2019-01-15","986.5994213194042"
"15","2019-01-16","976.6586439027567"
"15","2019-01-17","986.5483470544896"
"15","2019-01-18","996.5346831576476"
"15","2019-01-22","981.6207438255609"
"15","2019-01-23","1002.2516370933629"
"15","2019-01-24","996.5241568198256"
"15","2019-01-25","1007.1654512122574"
"15","2019-01-28","984.0234372229413"
"15","2019-01-29","998.8953367675267"
"15","2019-01-30","1004.5871747242115"
"15","2019-01-31","1008.4980806104933"
