"simulation_id","day","fund_value"
"151","2019-01-02","1000.0000000024229"
"151","2019-01-03","947.9597645022792"
"151","2019-01-04","976.2118755028141"
"151","2019-01-07","974.8530128931585"
"151","2019-01-08","994.5164905448252"
"151","2019-01-09","1007.1061474845184"
"151","2019-01-10","1009.7532890932584"
"151","2019-01-11","1016.6615327271099"
"151","2019-01-14","982.3815298985724"
"151","2019-01-15","993.316168323723"
"151","2019-01-16","995.7708265861929"
"151","2019-01-17","1004.6612980509933"
"151","2019-01-18","1011.4254468955479"
"151","2019-01-22","996.4197069923608"
"151","2019-01-23","987.5025453866018"
"151","2019-01-24","980.4297746247682"
"151","2019-01-25","988.5787669063405"
"151","2019-01-28","987.4663624827706"
"151","2019-01-29","983.2294591423816"
"151","2019-01-30","983.0951355295326"
"151","2019-01-31","988.1322710113747"
