"simulation_id","day","fund_value"
"155","2019-01-02","1000.0000000024229"
"155","2019-01-03","947.9597645022792"
"155","2019-01-04","976.5707552162606"
"155","2019-01-07","978.6453553862553"
"155","2019-01-08","977.789807922"
"155","2019-01-09","982.6760154867296"
"155","2019-01-10","985.4287491532307"
"155","2019-01-11","989.7713567674864"
"155","2019-01-14","981.7298927920635"
"155","2019-01-15","985.072359595232"
"155","2019-01-16","988.6971891006884"
"155","2019-01-17","996.0858493529621"
"155","2019-01-18","1014.9178540036878"
"155","2019-01-22","1008.5562643351299"
"155","2019-01-23","1004.5616095233985"
"155","2019-01-24","1029.685765565581"
"155","2019-01-25","1046.3184203211651"
"155","2019-01-28","1036.4738624577133"
"155","2019-01-29","1053.6179125962096"
"155","2019-01-30","1081.808982436486"
"155","2019-01-31","1103.1696437526286"
