"simulation_id","day","fund_value"
"157","2019-01-02","1000.0000000024229"
"157","2019-01-03","947.9597645022792"
"157","2019-01-04","979.019101987992"
"157","2019-01-07","1004.595699568497"
"157","2019-01-08","1024.3978833442593"
"157","2019-01-09","1025.7073426548695"
"157","2019-01-10","1035.1929153555257"
"157","2019-01-11","1037.5551927939264"
"157","2019-01-14","1023.643462971451"
"157","2019-01-15","1040.2316614839156"
"157","2019-01-16","1050.427447203779"
"157","2019-01-17","1050.875870267988"
"157","2019-01-18","1057.7410363900517"
"157","2019-01-22","1032.9739979977803"
"157","2019-01-23","1008.9551280561582"
"157","2019-01-24","1011.4230142034259"
"157","2019-01-25","1033.9214862914255"
"157","2019-01-28","1041.0111807312846"
"157","2019-01-29","1048.8415108625866"
"157","2019-01-30","1067.5182205166984"
"157","2019-01-31","1065.8021213834818"
