"simulation_id","day","fund_value"
"16","2019-01-02","1000.0000000024229"
"16","2019-01-03","947.9597645022792"
"16","2019-01-04","990.3593426781898"
"16","2019-01-07","998.6052647339941"
"16","2019-01-08","1003.0563254019139"
"16","2019-01-09","1021.017740000799"
"16","2019-01-10","1026.150081751505"
"16","2019-01-11","1036.5823073769516"
"16","2019-01-14","1024.5234788484447"
"16","2019-01-15","1025.4065150370175"
"16","2019-01-16","976.5886294698693"
"16","2019-01-17","997.5674714021927"
"16","2019-01-18","1009.0064341239128"
"16","2019-01-22","982.1300069754151"
"16","2019-01-23","998.8556461698395"
"16","2019-01-24","1001.020201530011"
"16","2019-01-25","1035.892120878012"
"16","2019-01-28","1040.5005581009923"
"16","2019-01-29","1034.8290944480966"
"16","2019-01-30","1043.6165014610874"
"16","2019-01-31","1057.1491334356797"
