"simulation_id","day","fund_value"
"169","2019-01-02","1000.0000000024229"
"169","2019-01-03","947.9597645022792"
"169","2019-01-04","992.5531032114804"
"169","2019-01-07","1008.7729028956653"
"169","2019-01-08","1013.866640942872"
"169","2019-01-09","1014.5419749514022"
"169","2019-01-10","1028.8503044417234"
"169","2019-01-11","1027.0418474358023"
"169","2019-01-14","1026.3984854494763"
"169","2019-01-15","1026.6240006624375"
"169","2019-01-16","1027.141839403682"
"169","2019-01-17","1035.882666069107"
"169","2019-01-18","1055.986199803835"
"169","2019-01-22","1049.7616284563437"
"169","2019-01-23","1058.8391148955827"
"169","2019-01-24","1056.882777662197"
"169","2019-01-25","1087.0223566131197"
"169","2019-01-28","1064.0893955031383"
"169","2019-01-29","1066.1763639119997"
"169","2019-01-30","1088.5776415475966"
"169","2019-01-31","1095.6613216025924"
