"simulation_id","day","fund_value"
"172","2019-01-02","1000.0000000024229"
"172","2019-01-03","947.9597645022792"
"172","2019-01-04","982.6619245799246"
"172","2019-01-07","984.7653247003012"
"172","2019-01-08","996.0895002892946"
"172","2019-01-09","1004.1525417295546"
"172","2019-01-10","1010.8557956669073"
"172","2019-01-11","1014.0888323223002"
"172","2019-01-14","1025.022746534811"
"172","2019-01-15","1027.7814062608097"
"172","2019-01-16","1025.1824983701085"
"172","2019-01-17","1034.2606710887974"
"172","2019-01-18","1047.4216804467603"
"172","2019-01-22","1049.069308155279"
"172","2019-01-23","1054.971968947912"
"172","2019-01-24","1078.6204181625747"
"172","2019-01-25","1083.691679426938"
"172","2019-01-28","1077.2451246857336"
"172","2019-01-29","1074.3940127544965"
"172","2019-01-30","1088.130642113901"
"172","2019-01-31","1110.8424931929035"
