"simulation_id","day","fund_value"
"177","2019-01-02","1000.0000000024229"
"177","2019-01-03","947.9597645022792"
"177","2019-01-04","981.3179412689186"
"177","2019-01-07","967.0895155241278"
"177","2019-01-08","1074.309161428769"
"177","2019-01-09","1086.2135898580868"
"177","2019-01-10","1108.6436643036336"
"177","2019-01-11","1096.3461941907888"
"177","2019-01-14","1102.3856271687482"
"177","2019-01-15","1125.2045883478436"
"177","2019-01-16","1125.6980697928777"
"177","2019-01-17","1138.0377787410885"
"177","2019-01-18","1157.5445079442288"
"177","2019-01-22","1096.733102881086"
"177","2019-01-23","1235.9383995003343"
"177","2019-01-24","1253.60445061791"
"177","2019-01-25","1268.7420507608995"
"177","2019-01-28","1231.295288921541"
"177","2019-01-29","1236.9721227079822"
"177","2019-01-30","1260.1989315350436"
"177","2019-01-31","1274.516446451391"
