"simulation_id","day","fund_value"
"178","2019-01-02","1000.0000000024229"
"178","2019-01-03","947.9597645022792"
"178","2019-01-04","982.8214304396068"
"178","2019-01-07","949.0179023655295"
"178","2019-01-08","975.1224032457044"
"178","2019-01-09","974.694755968889"
"178","2019-01-10","981.6453775313057"
"178","2019-01-11","976.4487736402449"
"178","2019-01-14","928.3936117663435"
"178","2019-01-15","937.1465074272298"
"178","2019-01-16","942.2261989414012"
"178","2019-01-17","954.0657658588511"
"178","2019-01-18","972.5726866718801"
"178","2019-01-22","957.3384125491868"
"178","2019-01-23","957.2621609830738"
"178","2019-01-24","966.3360973505253"
"178","2019-01-25","978.2401390447702"
"178","2019-01-28","973.113901244153"
"178","2019-01-29","956.4736721468473"
"178","2019-01-30","966.9717642868532"
"178","2019-01-31","957.4782330835524"
