"simulation_id","day","fund_value"
"180","2019-01-02","1000.0000000024229"
"180","2019-01-03","947.9597645022792"
"180","2019-01-04","982.9427828915069"
"180","2019-01-07","993.3454979331544"
"180","2019-01-08","1005.4555331150754"
"180","2019-01-09","1009.5998426172671"
"180","2019-01-10","1021.0724221657061"
"180","2019-01-11","1024.7144928968671"
"180","2019-01-14","1018.5431551456819"
"180","2019-01-15","1040.4529272885443"
"180","2019-01-16","1050.7345188225368"
"180","2019-01-17","1059.2938073304358"
"180","2019-01-18","1073.9040741733743"
"180","2019-01-22","1054.4118053058191"
"180","2019-01-23","1048.5919177315368"
"180","2019-01-24","1052.6308850650512"
"180","2019-01-25","1067.2797277831633"
"180","2019-01-28","1058.3920219507845"
"180","2019-01-29","1052.8379887137653"
"180","2019-01-30","1089.3233436739101"
"180","2019-01-31","1071.2489950337658"
