"simulation_id","day","fund_value"
"182","2019-01-02","1000.0000000024229"
"182","2019-01-03","947.9597645022792"
"182","2019-01-04","961.1476251247399"
"182","2019-01-07","958.3779989568357"
"182","2019-01-08","981.3652420540195"
"182","2019-01-09","987.228072833552"
"182","2019-01-10","997.5967165144203"
"182","2019-01-11","995.3281170633162"
"182","2019-01-14","994.1228093246763"
"182","2019-01-15","1006.1566943768737"
"182","2019-01-16","1014.0683329625467"
"182","2019-01-17","1023.2308921164639"
"182","2019-01-18","1027.2277731869444"
"182","2019-01-22","994.473321160222"
"182","2019-01-23","992.2312840841934"
"182","2019-01-24","987.0234991055858"
"182","2019-01-25","992.5405415920418"
"182","2019-01-28","975.4612158997147"
"182","2019-01-29","975.2342963700949"
"182","2019-01-30","980.0172427249837"
"182","2019-01-31","979.2261422729827"
