"simulation_id","day","fund_value"
"183","2019-01-02","1000.0000000024229"
"183","2019-01-03","947.9597645022792"
"183","2019-01-04","973.7733028527132"
"183","2019-01-07","986.4604331868009"
"183","2019-01-08","1003.7740183278997"
"183","2019-01-09","1015.3124499802924"
"183","2019-01-10","1036.752788906182"
"183","2019-01-11","1051.4472797413396"
"183","2019-01-14","1028.9463653678238"
"183","2019-01-15","1030.1023080280618"
"183","2019-01-16","1010.7965423979974"
"183","2019-01-17","1032.5766722725534"
"183","2019-01-18","1038.561628673306"
"183","2019-01-22","1034.082911057782"
"183","2019-01-23","1036.1974393969783"
"183","2019-01-24","1029.0640035498377"
"183","2019-01-25","1055.3681747029045"
"183","2019-01-28","1047.986267228392"
"183","2019-01-29","1031.814587355154"
"183","2019-01-30","1051.1876869901325"
"183","2019-01-31","1091.4414163213128"
