"simulation_id","day","fund_value"
"185","2019-01-02","1000.0000000024229"
"185","2019-01-03","947.9597645022792"
"185","2019-01-04","955.105126346375"
"185","2019-01-07","961.4144390182431"
"185","2019-01-08","965.0190819961548"
"185","2019-01-09","971.2131848989469"
"185","2019-01-10","960.9920109870853"
"185","2019-01-11","961.1895259117053"
"185","2019-01-14","945.6241544729455"
"185","2019-01-15","953.3519946510662"
"185","2019-01-16","968.6007730759561"
"185","2019-01-17","958.0368556368869"
"185","2019-01-18","968.0600852444546"
"185","2019-01-22","965.0354307029262"
"185","2019-01-23","968.1206534220514"
"185","2019-01-24","980.1263298645009"
"185","2019-01-25","985.9483473753728"
"185","2019-01-28","984.3263014430759"
"185","2019-01-29","979.2705508349982"
"185","2019-01-30","999.6236378927374"
"185","2019-01-31","1012.3115346636812"
