"simulation_id","day","fund_value"
"186","2019-01-02","1000.0000000024229"
"186","2019-01-03","947.9597645022792"
"186","2019-01-04","981.566127383063"
"186","2019-01-07","984.9144943051492"
"186","2019-01-08","1014.7668394275203"
"186","2019-01-09","1036.298450414154"
"186","2019-01-10","1056.2651234072084"
"186","2019-01-11","1062.1074532352072"
"186","2019-01-14","1055.6101862515018"
"186","2019-01-15","1072.6989936255113"
"186","2019-01-16","1080.6330579992664"
"186","2019-01-17","1083.5576068962982"
"186","2019-01-18","1091.6571235934093"
"186","2019-01-22","1065.123749442335"
"186","2019-01-23","1060.0520314641974"
"186","2019-01-24","1063.4290398311882"
"186","2019-01-25","1074.8764016051173"
"186","2019-01-28","1085.5471225239098"
"186","2019-01-29","1099.124302316378"
"186","2019-01-30","1108.9484894943732"
"186","2019-01-31","1127.4692666777269"
