"simulation_id","day","fund_value"
"191","2019-01-02","1000.0000000024229"
"191","2019-01-03","947.9597645022792"
"191","2019-01-04","981.8400799411331"
"191","2019-01-07","1008.1107713040542"
"191","2019-01-08","1023.2922970396162"
"191","2019-01-09","1040.6695631873597"
"191","2019-01-10","1059.4608631882645"
"191","2019-01-11","1049.8650608666715"
"191","2019-01-14","1048.1114336058408"
"191","2019-01-15","1050.7628670940942"
"191","2019-01-16","1057.6765378038642"
"191","2019-01-17","1081.9598828647559"
"191","2019-01-18","1095.382428714383"
"191","2019-01-22","1026.1788979029898"
"191","2019-01-23","1031.1777662627862"
"191","2019-01-24","1031.7807773753768"
"191","2019-01-25","1038.3080901682233"
"191","2019-01-28","1038.3152565897212"
"191","2019-01-29","1033.2177386834621"
"191","2019-01-30","1035.5769544108998"
"191","2019-01-31","1030.6413568262349"
