"simulation_id","day","fund_value"
"192","2019-01-02","1000.0000000024229"
"192","2019-01-03","947.9597645022792"
"192","2019-01-04","985.5725213405228"
"192","2019-01-07","997.3027729983551"
"192","2019-01-08","1008.7237294037451"
"192","2019-01-09","1026.4986868035755"
"192","2019-01-10","1024.1083812981751"
"192","2019-01-11","1027.8253636807208"
"192","2019-01-14","1027.0861451747044"
"192","2019-01-15","1045.0247102840738"
"192","2019-01-16","1042.4931193689376"
"192","2019-01-17","1052.089334487587"
"192","2019-01-18","1052.6575378791842"
"192","2019-01-22","1054.4755572848858"
"192","2019-01-23","1047.2692391529222"
"192","2019-01-24","1050.6918318094336"
"192","2019-01-25","1056.9379828265594"
"192","2019-01-28","1051.8502256378679"
"192","2019-01-29","1042.383510284038"
"192","2019-01-30","1041.629435786955"
"192","2019-01-31","1052.4028045709706"
