"simulation_id","day","fund_value"
"193","2019-01-02","1000.0000000024229"
"193","2019-01-03","947.9597645022792"
"193","2019-01-04","956.6888144457544"
"193","2019-01-07","950.3566877763853"
"193","2019-01-08","974.7698676210423"
"193","2019-01-09","968.9823421907323"
"193","2019-01-10","969.9361648517513"
"193","2019-01-11","972.5580653327895"
"193","2019-01-14","968.8437525681852"
"193","2019-01-15","982.6651499464746"
"193","2019-01-16","977.5190028026074"
"193","2019-01-17","981.6663002979261"
"193","2019-01-18","990.9698657852449"
"193","2019-01-22","970.703445663704"
"193","2019-01-23","973.8429486754796"
"193","2019-01-24","969.3998920228792"
"193","2019-01-25","971.8339050741787"
"193","2019-01-28","970.5222389123381"
"193","2019-01-29","967.0939513094079"
"193","2019-01-30","974.2005183328206"
"193","2019-01-31","972.5532569215285"
