"simulation_id","day","fund_value"
"194","2019-01-02","1000.0000000024229"
"194","2019-01-03","947.9597645022792"
"194","2019-01-04","982.3228574336996"
"194","2019-01-07","992.7451020241299"
"194","2019-01-08","1005.1098346612093"
"194","2019-01-09","1013.2038446896477"
"194","2019-01-10","1015.6871567730299"
"194","2019-01-11","1017.4183382339851"
"194","2019-01-14","1025.9421787017427"
"194","2019-01-15","1048.2030088699294"
"194","2019-01-16","1045.0214081936424"
"194","2019-01-17","1052.7684423807113"
"194","2019-01-18","1066.449794720204"
"194","2019-01-22","1066.1879093906805"
"194","2019-01-23","1123.5965247905465"
"194","2019-01-24","1119.958043231735"
"194","2019-01-25","1125.4428063823082"
"194","2019-01-28","1133.560470699766"
"194","2019-01-29","1143.2282972108253"
"194","2019-01-30","1124.4575433082239"
"194","2019-01-31","1139.75855347286"
