"simulation_id","day","fund_value"
"197","2019-01-02","1000.0000000024229"
"197","2019-01-03","947.9597645022792"
"197","2019-01-04","999.8940409793173"
"197","2019-01-07","1000.7220465998298"
"197","2019-01-08","1011.5539192649278"
"197","2019-01-09","1033.4092000010546"
"197","2019-01-10","1033.481645304534"
"197","2019-01-11","1043.0180761229299"
"197","2019-01-14","1040.7593723577702"
"197","2019-01-15","1051.2857103817455"
"197","2019-01-16","1068.7284258322893"
"197","2019-01-17","1073.8614355063378"
"197","2019-01-18","1082.979189306867"
"197","2019-01-22","1051.3928942708255"
"197","2019-01-23","1062.9240381170493"
"197","2019-01-24","1060.2846714579953"
"197","2019-01-25","1075.5565272410108"
"197","2019-01-28","1081.988600193431"
"197","2019-01-29","1069.7338110816795"
"197","2019-01-30","1080.5494741579619"
"197","2019-01-31","1088.8580107196992"
