"simulation_id","day","fund_value"
"198","2019-01-02","1000.0000000024229"
"198","2019-01-03","947.9597645022792"
"198","2019-01-04","973.9407370424522"
"198","2019-01-07","988.6212382445896"
"198","2019-01-08","1001.8732318850836"
"198","2019-01-09","1013.5752112576356"
"198","2019-01-10","1004.2622752509053"
"198","2019-01-11","1008.673634703051"
"198","2019-01-14","1000.5471469703233"
"198","2019-01-15","1013.8274384354331"
"198","2019-01-16","1002.4064132538556"
"198","2019-01-17","1018.5972846027157"
"198","2019-01-18","1037.3533717717958"
"198","2019-01-22","1032.342018943695"
"198","2019-01-23","1016.3426980340016"
"198","2019-01-24","1023.8347850655867"
"198","2019-01-25","1039.7818440187225"
"198","2019-01-28","1046.7751522643914"
"198","2019-01-29","1046.2461567510218"
"198","2019-01-30","1051.4530371041415"
"198","2019-01-31","1052.3151996168174"
