"simulation_id","day","fund_value"
"2","2019-01-02","1000.0000000024229"
"2","2019-01-03","947.9597645022792"
"2","2019-01-04","972.0457004242671"
"2","2019-01-07","987.901718763738"
"2","2019-01-08","1004.5178496147498"
"2","2019-01-09","1019.2064688268752"
"2","2019-01-10","1007.0404195983804"
"2","2019-01-11","998.9471932225508"
"2","2019-01-14","994.3698636838228"
"2","2019-01-15","1008.0520703128436"
"2","2019-01-16","1010.4037359068201"
"2","2019-01-17","1028.7536526927006"
"2","2019-01-18","1038.2635745869356"
"2","2019-01-22","1017.3506889769214"
"2","2019-01-23","1002.3337425652671"
"2","2019-01-24","1055.6968112467953"
"2","2019-01-25","1063.8010314581993"
"2","2019-01-28","1059.1175009591789"
"2","2019-01-29","1069.5825351692986"
"2","2019-01-30","1093.4689469154512"
"2","2019-01-31","1103.6934907463597"
