"simulation_id","day","fund_value"
"206","2019-01-02","1000.0000000024229"
"206","2019-01-03","947.9597645022792"
"206","2019-01-04","968.4863606831951"
"206","2019-01-07","975.1408883310278"
"206","2019-01-08","1000.3267982967438"
"206","2019-01-09","1005.6120182352128"
"206","2019-01-10","1017.3424022412793"
"206","2019-01-11","1013.4703386401959"
"206","2019-01-14","1004.3378066946602"
"206","2019-01-15","1005.5555653618453"
"206","2019-01-16","1009.3164887640368"
"206","2019-01-17","1025.0462171034517"
"206","2019-01-18","1047.2984646431944"
"206","2019-01-22","1040.3461879697156"
"206","2019-01-23","1048.3957791893545"
"206","2019-01-24","1052.9987510677647"
"206","2019-01-25","1049.1623068014085"
"206","2019-01-28","1033.1911838265628"
"206","2019-01-29","1037.0081104683577"
"206","2019-01-30","1040.1788816887827"
"206","2019-01-31","1055.2057239935111"
