"simulation_id","day","fund_value"
"21","2019-01-02","1000.0000000024229"
"21","2019-01-03","947.9597645022792"
"21","2019-01-04","967.2736288646621"
"21","2019-01-07","982.1755190274104"
"21","2019-01-08","989.2969292749586"
"21","2019-01-09","993.4421745266626"
"21","2019-01-10","992.2113630779962"
"21","2019-01-11","994.1690655639925"
"21","2019-01-14","980.563871753013"
"21","2019-01-15","983.7446225218896"
"21","2019-01-16","985.2924874813655"
"21","2019-01-17","1011.2889398901048"
"21","2019-01-18","1093.4251037666968"
"21","2019-01-22","1050.1773694460862"
"21","2019-01-23","1116.7058657642187"
"21","2019-01-24","1114.9970907719899"
"21","2019-01-25","1008.5036313975086"
"21","2019-01-28","1007.9317368858472"
"21","2019-01-29","999.4528895441349"
"21","2019-01-30","1016.586029737515"
"21","2019-01-31","1041.3728854676096"
