"simulation_id","day","fund_value"
"214","2019-01-02","1000.0000000024229"
"214","2019-01-03","947.9597645022792"
"214","2019-01-04","1021.7571754524074"
"214","2019-01-07","1034.0256640419316"
"214","2019-01-08","1015.7381249978598"
"214","2019-01-09","1010.4174349218198"
"214","2019-01-10","1038.9368753188917"
"214","2019-01-11","1039.922857548419"
"214","2019-01-14","1037.1674521777916"
"214","2019-01-15","1048.461145006623"
"214","2019-01-16","1049.056151779546"
"214","2019-01-17","1058.7845507935378"
"214","2019-01-18","1078.4925790057466"
"214","2019-01-22","1060.3562548069128"
"214","2019-01-23","1067.969641770163"
"214","2019-01-24","1070.5335244288824"
"214","2019-01-25","1084.048172897013"
"214","2019-01-28","1070.4156185073102"
"214","2019-01-29","1069.9977738124326"
"214","2019-01-30","1064.5767440899492"
"214","2019-01-31","1056.6036262801824"
