"simulation_id","day","fund_value"
"216","2019-01-02","1000.0000000024229"
"216","2019-01-03","947.9597645022792"
"216","2019-01-04","967.7903655281182"
"216","2019-01-07","966.356733796429"
"216","2019-01-08","996.0815444199562"
"216","2019-01-09","990.3818408558774"
"216","2019-01-10","978.2613237945412"
"216","2019-01-11","973.847190931984"
"216","2019-01-14","972.6314232110152"
"216","2019-01-15","972.7981325531093"
"216","2019-01-16","976.3868446225167"
"216","2019-01-17","982.5697633027992"
"216","2019-01-18","980.2096936534897"
"216","2019-01-22","963.79259339368"
"216","2019-01-23","952.6533140387736"
"216","2019-01-24","957.4116161174625"
"216","2019-01-25","965.2173485723396"
"216","2019-01-28","964.6293891541646"
"216","2019-01-29","965.4980486561124"
"216","2019-01-30","980.3895967378648"
"216","2019-01-31","977.1667674494058"
