"simulation_id","day","fund_value"
"218","2019-01-02","1000.0000000024229"
"218","2019-01-03","947.9597645022792"
"218","2019-01-04","985.6371664299409"
"218","2019-01-07","984.1092780909025"
"218","2019-01-08","984.1889853627065"
"218","2019-01-09","979.1188833606443"
"218","2019-01-10","984.906570767565"
"218","2019-01-11","996.0556138154042"
"218","2019-01-14","980.8942533365744"
"218","2019-01-15","982.1263194019596"
"218","2019-01-16","975.288466608394"
"218","2019-01-17","990.4193731423362"
"218","2019-01-18","989.8583548401277"
"218","2019-01-22","975.1666880510471"
"218","2019-01-23","985.7768674056284"
"218","2019-01-24","1011.3451632602688"
"218","2019-01-25","1015.0431837844005"
"218","2019-01-28","1029.9515066772287"
"218","2019-01-29","1031.758009425474"
"218","2019-01-30","1037.9190014679452"
"218","2019-01-31","1042.576231182753"
