"simulation_id","day","fund_value"
"22","2019-01-02","1000.0000000024229"
"22","2019-01-03","947.9597645022792"
"22","2019-01-04","998.1307820998533"
"22","2019-01-07","1012.9097530686422"
"22","2019-01-08","1035.5081532673564"
"22","2019-01-09","1039.4350816295316"
"22","2019-01-10","1060.8837244949932"
"22","2019-01-11","1071.2572534867797"
"22","2019-01-14","1068.1949953380104"
"22","2019-01-15","1084.00442583598"
"22","2019-01-16","1083.2938537942962"
"22","2019-01-17","1094.8309626888326"
"22","2019-01-18","1114.700314578084"
"22","2019-01-22","1092.662314807463"
"22","2019-01-23","1100.1438963886894"
"22","2019-01-24","1101.8823597914732"
"22","2019-01-25","1125.3915259394175"
"22","2019-01-28","1124.56116193638"
"22","2019-01-29","1128.314923588118"
"22","2019-01-30","1143.500082921566"
"22","2019-01-31","1143.075114944953"
