"simulation_id","day","fund_value"
"224","2019-01-02","1000.0000000024229"
"224","2019-01-03","947.9597645022792"
"224","2019-01-04","976.0497980846911"
"224","2019-01-07","986.506268584272"
"224","2019-01-08","1003.2468323120835"
"224","2019-01-09","1015.7894024273911"
"224","2019-01-10","1031.7062746186102"
"224","2019-01-11","1034.4707711256008"
"224","2019-01-14","1023.8398670597185"
"224","2019-01-15","1039.3506860754483"
"224","2019-01-16","1045.2060020916344"
"224","2019-01-17","1107.3928429688626"
"224","2019-01-18","1128.619758709668"
"224","2019-01-22","1127.503015456257"
"224","2019-01-23","1127.3800833602033"
"224","2019-01-24","1154.4356643309936"
"224","2019-01-25","1158.6107906531372"
"224","2019-01-28","1173.2169979154585"
"224","2019-01-29","1171.3762522664008"
"224","2019-01-30","1188.1511087814201"
"224","2019-01-31","1219.3359002231243"
