"simulation_id","day","fund_value"
"225","2019-01-02","1000.0000000024229"
"225","2019-01-03","947.9597645022792"
"225","2019-01-04","975.3256919132383"
"225","2019-01-07","977.6235351689309"
"225","2019-01-08","983.9238689530855"
"225","2019-01-09","985.5677947319217"
"225","2019-01-10","998.3123291422818"
"225","2019-01-11","971.60279149671"
"225","2019-01-14","964.2323031463062"
"225","2019-01-15","977.918010442658"
"225","2019-01-16","983.9384821391967"
"225","2019-01-17","993.9540580140296"
"225","2019-01-18","1004.882101694347"
"225","2019-01-22","989.3928269378307"
"225","2019-01-23","994.6290561878575"
"225","2019-01-24","993.4955132761328"
"225","2019-01-25","1006.0376171058609"
"225","2019-01-28","1006.1190896524384"
"225","2019-01-29","986.3785594025208"
"225","2019-01-30","996.0388337819468"
"225","2019-01-31","1001.8375466983099"
