"simulation_id","day","fund_value"
"231","2019-01-02","1000.0000000024229"
"231","2019-01-03","947.9597645022792"
"231","2019-01-04","987.9260603853126"
"231","2019-01-07","998.3821059061171"
"231","2019-01-08","1004.8154499169207"
"231","2019-01-09","1027.99178696815"
"231","2019-01-10","1042.1810234500915"
"231","2019-01-11","1042.0154070506142"
"231","2019-01-14","1050.8866452114034"
"231","2019-01-15","1051.2245935266483"
"231","2019-01-16","1045.3342357682695"
"231","2019-01-17","1063.120014632781"
"231","2019-01-18","1079.1185019103918"
"231","2019-01-22","1064.4678555825305"
"231","2019-01-23","1062.7348954163222"
"231","2019-01-24","1069.5537474318496"
"231","2019-01-25","1071.2240458215547"
"231","2019-01-28","1069.7635307211908"
"231","2019-01-29","1064.9946533386408"
"231","2019-01-30","1087.2066828919474"
"231","2019-01-31","1096.5539667010185"
