"simulation_id","day","fund_value"
"233","2019-01-02","1000.0000000024229"
"233","2019-01-03","947.9597645022792"
"233","2019-01-04","983.1314840145861"
"233","2019-01-07","987.4726238615278"
"233","2019-01-08","1017.3787772948228"
"233","2019-01-09","1012.547677084602"
"233","2019-01-10","1023.3797781563759"
"233","2019-01-11","1024.0791963130596"
"233","2019-01-14","1027.8745980105664"
"233","2019-01-15","1029.645109988248"
"233","2019-01-16","1030.4520507064758"
"233","2019-01-17","1043.4654696258501"
"233","2019-01-18","1053.769141687816"
"233","2019-01-22","1034.400400362272"
"233","2019-01-23","1011.6010921274279"
"233","2019-01-24","978.1082268753075"
"233","2019-01-25","988.6055885760977"
"233","2019-01-28","992.4155658201136"
"233","2019-01-29","998.9567542399583"
"233","2019-01-30","1018.1070794880599"
"233","2019-01-31","1047.3202179072123"
