"simulation_id","day","fund_value"
"234","2019-01-02","1000.0000000024229"
"234","2019-01-03","947.9597645022792"
"234","2019-01-04","980.7153689547165"
"234","2019-01-07","1008.519894513699"
"234","2019-01-08","1040.1191730629473"
"234","2019-01-09","1046.2818204626487"
"234","2019-01-10","1057.9172616001779"
"234","2019-01-11","1059.6682792561478"
"234","2019-01-14","1046.7329088305003"
"234","2019-01-15","1056.275380658537"
"234","2019-01-16","1061.1286193248936"
"234","2019-01-17","1059.2319459527498"
"234","2019-01-18","1072.8125678824713"
"234","2019-01-22","1057.2576640635564"
"234","2019-01-23","1061.5375266660944"
"234","2019-01-24","1055.4604408499936"
"234","2019-01-25","1079.1541205735975"
"234","2019-01-28","1071.5999830634164"
"234","2019-01-29","1068.9398970993407"
"234","2019-01-30","1072.0105824931086"
"234","2019-01-31","1080.9835819771956"
