"simulation_id","day","fund_value"
"235","2019-01-02","1000.0000000024229"
"235","2019-01-03","947.9597645022792"
"235","2019-01-04","982.0988098753834"
"235","2019-01-07","993.6569033722867"
"235","2019-01-08","983.0677250326014"
"235","2019-01-09","995.621962694044"
"235","2019-01-10","1004.9762385687441"
"235","2019-01-11","1006.8949672982169"
"235","2019-01-14","1006.9406089141498"
"235","2019-01-15","1012.2905022869198"
"235","2019-01-16","1017.3481488441969"
"235","2019-01-17","1026.3801833577884"
"235","2019-01-18","1036.7405650204246"
"235","2019-01-22","1025.4684961858225"
"235","2019-01-23","1022.2493924263262"
"235","2019-01-24","1025.5306921460983"
"235","2019-01-25","1042.0273316002122"
"235","2019-01-28","1019.9716945694465"
"235","2019-01-29","1036.7380791622518"
"235","2019-01-30","1045.1850958389464"
"235","2019-01-31","1046.0422491161528"
