"simulation_id","day","fund_value"
"237","2019-01-02","1000.0000000024229"
"237","2019-01-03","947.9597645022792"
"237","2019-01-04","985.4702441296834"
"237","2019-01-07","999.9525151443173"
"237","2019-01-08","1008.9578238340157"
"237","2019-01-09","1052.0217987742997"
"237","2019-01-10","1046.5681794734367"
"237","2019-01-11","1034.9736525275632"
"237","2019-01-14","1036.301652161879"
"237","2019-01-15","1051.1328202776904"
"237","2019-01-16","1049.6283423486152"
"237","2019-01-17","1058.6192486487196"
"237","2019-01-18","1076.9363222172378"
"237","2019-01-22","1078.7962729248918"
"237","2019-01-23","1079.4003877669222"
"237","2019-01-24","1092.7959535787547"
"237","2019-01-25","1094.5472249319882"
"237","2019-01-28","1053.244500373983"
"237","2019-01-29","1047.0360369381192"
"237","2019-01-30","1037.5831781797353"
"237","2019-01-31","1042.0790023684438"
