"simulation_id","day","fund_value"
"250","2019-01-02","1000.0000000024229"
"250","2019-01-03","947.9597645022792"
"250","2019-01-04","1014.6972800955509"
"250","2019-01-07","1038.1275597505592"
"250","2019-01-08","1063.0122831180242"
"250","2019-01-09","1055.2749701717544"
"250","2019-01-10","1057.9465967912263"
"250","2019-01-11","1051.6792175863034"
"250","2019-01-14","1059.0494881819307"
"250","2019-01-15","1069.892644221819"
"250","2019-01-16","1075.608506119045"
"250","2019-01-17","1085.068184503543"
"250","2019-01-18","1108.8402085540336"
"250","2019-01-22","1102.172800051405"
"250","2019-01-23","1098.8328748628664"
"250","2019-01-24","1101.7388436942638"
"250","2019-01-25","1107.7860246062687"
"250","2019-01-28","1115.5185912232414"
"250","2019-01-29","1124.9025541357398"
"250","2019-01-30","1139.606201784427"
"250","2019-01-31","1161.0750501822163"
