"simulation_id","day","fund_value"
"252","2019-01-02","1000.0000000024229"
"252","2019-01-03","947.9597645022792"
"252","2019-01-04","995.8491154934276"
"252","2019-01-07","1002.1048548185362"
"252","2019-01-08","1013.4133618978592"
"252","2019-01-09","1019.6082176239267"
"252","2019-01-10","1022.0028870512148"
"252","2019-01-11","1020.4815600064636"
"252","2019-01-14","1016.4777686481187"
"252","2019-01-15","1036.447573248469"
"252","2019-01-16","1068.3395913828472"
"252","2019-01-17","1089.2972524702955"
"252","2019-01-18","1105.0107490327434"
"252","2019-01-22","1090.4386774500595"
"252","2019-01-23","1096.5874237770818"
"252","2019-01-24","1089.3057254350201"
"252","2019-01-25","1098.0992391391942"
"252","2019-01-28","1089.4428490976366"
"252","2019-01-29","1097.2199661324178"
"252","2019-01-30","1103.5076679076997"
"252","2019-01-31","1126.037162821577"
