"simulation_id","day","fund_value"
"253","2019-01-02","1000.0000000024229"
"253","2019-01-03","947.9597645022792"
"253","2019-01-04","983.0590304541569"
"253","2019-01-07","1008.0608711204208"
"253","2019-01-08","1015.3997302595513"
"253","2019-01-09","1011.0716735886896"
"253","2019-01-10","1011.7589135442496"
"253","2019-01-11","1016.5766781811652"
"253","2019-01-14","1017.4536846984199"
"253","2019-01-15","1023.4005133519845"
"253","2019-01-16","1031.8791655198065"
"253","2019-01-17","1043.9553614821573"
"253","2019-01-18","1041.1791330989313"
"253","2019-01-22","1036.6244123698757"
"253","2019-01-23","1022.8513120189584"
"253","2019-01-24","1028.3413719868686"
"253","2019-01-25","1012.9356696227426"
"253","2019-01-28","993.1204937419225"
"253","2019-01-29","966.8802912926919"
"253","2019-01-30","984.9855285955135"
"253","2019-01-31","991.0349829483217"
