"simulation_id","day","fund_value"
"259","2019-01-02","1000.0000000024229"
"259","2019-01-03","947.9597645022792"
"259","2019-01-04","953.1427934113332"
"259","2019-01-07","962.2939314809512"
"259","2019-01-08","976.2112496162588"
"259","2019-01-09","978.6451741845439"
"259","2019-01-10","981.1618942688807"
"259","2019-01-11","980.3083461640987"
"259","2019-01-14","973.4509960661532"
"259","2019-01-15","981.3463101795779"
"259","2019-01-16","969.8311080406618"
"259","2019-01-17","978.879309525586"
"259","2019-01-18","1002.286023498627"
"259","2019-01-22","981.2445286769489"
"259","2019-01-23","973.5200329207798"
"259","2019-01-24","976.0969977138055"
"259","2019-01-25","978.0203637835183"
"259","2019-01-28","980.151880555215"
"259","2019-01-29","977.9223424441311"
"259","2019-01-30","980.2781810888362"
"259","2019-01-31","984.6975738904757"
