"simulation_id","day","fund_value"
"261","2019-01-02","1000.0000000024229"
"261","2019-01-03","947.9597645022792"
"261","2019-01-04","986.8642283636971"
"261","2019-01-07","989.751686504206"
"261","2019-01-08","997.5798170574515"
"261","2019-01-09","1011.2796996520333"
"261","2019-01-10","1011.2839920344619"
"261","2019-01-11","1016.3173476830191"
"261","2019-01-14","1015.0217696292948"
"261","2019-01-15","1018.7676396723951"
"261","2019-01-16","1015.5100224226027"
"261","2019-01-17","1027.1316616376407"
"261","2019-01-18","1043.3393703866066"
"261","2019-01-22","994.7608929877493"
"261","2019-01-23","1000.86064831648"
"261","2019-01-24","1005.560948876017"
"261","2019-01-25","1017.6820409369755"
"261","2019-01-28","1024.9373306379325"
"261","2019-01-29","1025.733921891091"
"261","2019-01-30","1036.71182573118"
"261","2019-01-31","1055.1813347468806"
