"simulation_id","day","fund_value"
"265","2019-01-02","1000.0000000024229"
"265","2019-01-03","947.9597645022792"
"265","2019-01-04","969.2395234511501"
"265","2019-01-07","980.4975650647501"
"265","2019-01-08","996.7717581807708"
"265","2019-01-09","1015.6455041601682"
"265","2019-01-10","1022.0609544606785"
"265","2019-01-11","1014.7789327994977"
"265","2019-01-14","1014.9042465955874"
"265","2019-01-15","1015.8170401375123"
"265","2019-01-16","1013.170832216347"
"265","2019-01-17","1018.0531724485135"
"265","2019-01-18","1027.122811159286"
"265","2019-01-22","1004.8370346251552"
"265","2019-01-23","991.3442127748974"
"265","2019-01-24","1006.3913146646635"
"265","2019-01-25","1006.5957399591219"
"265","2019-01-28","956.9972019292422"
"265","2019-01-29","947.0886551760633"
"265","2019-01-30","954.5317036430548"
"265","2019-01-31","972.4230613031364"
