"simulation_id","day","fund_value"
"277","2019-01-02","1000.0000000024229"
"277","2019-01-03","947.9597645022792"
"277","2019-01-04","968.2250345110959"
"277","2019-01-07","981.349422105648"
"277","2019-01-08","991.8648382267334"
"277","2019-01-09","982.4679583282824"
"277","2019-01-10","994.5171293430793"
"277","2019-01-11","991.9022590286213"
"277","2019-01-14","979.3752352324249"
"277","2019-01-15","987.5881778358581"
"277","2019-01-16","997.2606815639328"
"277","2019-01-17","1012.7834819348523"
"277","2019-01-18","1033.2975906147774"
"277","2019-01-22","1013.4259998326714"
"277","2019-01-23","1006.7474750338048"
"277","2019-01-24","1129.9795165212108"
"277","2019-01-25","1145.1986437059813"
"277","2019-01-28","1142.7402618371366"
"277","2019-01-29","1146.2994139426296"
"277","2019-01-30","1159.1817763061915"
"277","2019-01-31","1168.4950212360438"
