"simulation_id","day","fund_value"
"28","2019-01-02","1000.0000000024229"
"28","2019-01-03","947.9597645022792"
"28","2019-01-04","957.316499065419"
"28","2019-01-07","963.0640996278199"
"28","2019-01-08","966.0005302721464"
"28","2019-01-09","992.1763906927683"
"28","2019-01-10","996.0380176113754"
"28","2019-01-11","998.5083389046156"
"28","2019-01-14","997.1347295495088"
"28","2019-01-15","1009.338720358343"
"28","2019-01-16","1008.9543908337389"
"28","2019-01-17","1017.9788427121431"
"28","2019-01-18","1040.2021460870203"
"28","2019-01-22","1021.7388382238768"
"28","2019-01-23","1012.86320362051"
"28","2019-01-24","1038.4260306255387"
"28","2019-01-25","1048.0677065019192"
"28","2019-01-28","1056.4704679120084"
"28","2019-01-29","1066.5058250488023"
"28","2019-01-30","1078.0906422738415"
"28","2019-01-31","1074.7596335926955"
