"simulation_id","day","fund_value"
"286","2019-01-02","1000.0000000024229"
"286","2019-01-03","947.9597645022792"
"286","2019-01-04","1014.0856321957733"
"286","2019-01-07","1016.6989339945935"
"286","2019-01-08","1014.9140855709231"
"286","2019-01-09","1012.0744062819363"
"286","2019-01-10","1001.0505554462497"
"286","2019-01-11","1008.7649109434282"
"286","2019-01-14","992.9286223119946"
"286","2019-01-15","999.9550162839569"
"286","2019-01-16","995.0038321166699"
"286","2019-01-17","1007.1660244997049"
"286","2019-01-18","1038.271687742934"
"286","2019-01-22","1028.4074696063403"
"286","2019-01-23","1036.526955891909"
"286","2019-01-24","1020.5614976685847"
"286","2019-01-25","1043.8055207446766"
"286","2019-01-28","1045.5715251539298"
"286","2019-01-29","1027.1153665192442"
"286","2019-01-30","1031.9225571384777"
"286","2019-01-31","1031.717012117293"
