"simulation_id","day","fund_value"
"289","2019-01-02","1000.0000000024229"
"289","2019-01-03","947.9597645022792"
"289","2019-01-04","959.2294098919292"
"289","2019-01-07","966.7840651267081"
"289","2019-01-08","971.4260145354509"
"289","2019-01-09","985.7052427045405"
"289","2019-01-10","990.2064188419165"
"289","2019-01-11","980.4368560758307"
"289","2019-01-14","965.2663279943747"
"289","2019-01-15","972.7562704036425"
"289","2019-01-16","985.8910680017273"
"289","2019-01-17","993.9700732796123"
"289","2019-01-18","1016.7971443584249"
"289","2019-01-22","1008.4598849319518"
"289","2019-01-23","1011.0577053896957"
"289","2019-01-24","1009.5236740054463"
"289","2019-01-25","1026.54890019998"
"289","2019-01-28","1011.3049597117656"
"289","2019-01-29","1017.7597028475451"
"289","2019-01-30","1030.0485121766492"
"289","2019-01-31","1039.5876007736872"
