"simulation_id","day","fund_value"
"29","2019-01-02","1000.0000000024229"
"29","2019-01-03","947.9597645022792"
"29","2019-01-04","979.3709509700986"
"29","2019-01-07","976.549309218384"
"29","2019-01-08","985.8225344317513"
"29","2019-01-09","983.478215697857"
"29","2019-01-10","977.3849767447809"
"29","2019-01-11","978.9282809723279"
"29","2019-01-14","971.2030742322297"
"29","2019-01-15","983.1343565614043"
"29","2019-01-16","972.0777536781986"
"29","2019-01-17","979.372747763573"
"29","2019-01-18","990.6126075224644"
"29","2019-01-22","954.9634147064139"
"29","2019-01-23","956.5288507346942"
"29","2019-01-24","981.7188812821137"
"29","2019-01-25","972.0948281499075"
"29","2019-01-28","963.7097230970256"
"29","2019-01-29","970.0729072710183"
"29","2019-01-30","958.6708730744876"
"29","2019-01-31","966.527378531143"
