"simulation_id","day","fund_value"
"294","2019-01-02","1000.0000000024229"
"294","2019-01-03","947.9597645022792"
"294","2019-01-04","989.6725109914157"
"294","2019-01-07","981.5073740701796"
"294","2019-01-08","1000.2568139183483"
"294","2019-01-09","1008.8672862024607"
"294","2019-01-10","1028.4507505394586"
"294","2019-01-11","1037.0550830079333"
"294","2019-01-14","1024.478780560794"
"294","2019-01-15","1039.2271478400194"
"294","2019-01-16","1048.7571591460992"
"294","2019-01-17","1066.7898962921172"
"294","2019-01-18","1080.1739376627193"
"294","2019-01-22","1067.1771864419895"
"294","2019-01-23","1065.8807482686975"
"294","2019-01-24","1069.3472177422796"
"294","2019-01-25","1093.8304316250433"
"294","2019-01-28","1076.2224189705398"
"294","2019-01-29","1061.8889425637813"
"294","2019-01-30","1082.078057762006"
"294","2019-01-31","1133.2479868826194"
