"simulation_id","day","fund_value"
"297","2019-01-02","1000.0000000024229"
"297","2019-01-03","947.9597645022792"
"297","2019-01-04","985.6910608730605"
"297","2019-01-07","1011.3666401603482"
"297","2019-01-08","1039.1840840656341"
"297","2019-01-09","1043.588085772676"
"297","2019-01-10","1041.673915372537"
"297","2019-01-11","1042.2983542472418"
"297","2019-01-14","1038.4005542364112"
"297","2019-01-15","1050.7075817513005"
"297","2019-01-16","1065.5122452717396"
"297","2019-01-17","1088.8196754574606"
"297","2019-01-18","1108.9156771050257"
"297","2019-01-22","1100.3756224593244"
"297","2019-01-23","1092.0880811355373"
"297","2019-01-24","1103.6576083683644"
"297","2019-01-25","1105.4041279138617"
"297","2019-01-28","1092.8222423747047"
"297","2019-01-29","1087.1505289537981"
"297","2019-01-30","1104.4941916057023"
"297","2019-01-31","1118.7953826624532"
