"simulation_id","day","fund_value"
"298","2019-01-02","1000.0000000024229"
"298","2019-01-03","947.9597645022792"
"298","2019-01-04","982.4326088798232"
"298","2019-01-07","1029.12421994301"
"298","2019-01-08","1036.0368491269837"
"298","2019-01-09","907.3892504557929"
"298","2019-01-10","905.4435556202982"
"298","2019-01-11","903.298717538405"
"298","2019-01-14","902.6753921912658"
"298","2019-01-15","913.0021545656004"
"298","2019-01-16","926.3350128858665"
"298","2019-01-17","940.4446636281305"
"298","2019-01-18","947.8863843718642"
"298","2019-01-22","906.654537478722"
"298","2019-01-23","892.7857874145803"
"298","2019-01-24","900.8752448623692"
"298","2019-01-25","935.2933614671502"
"298","2019-01-28","921.6155441833562"
"298","2019-01-29","928.1232815945361"
"298","2019-01-30","928.8439181517065"
"298","2019-01-31","928.8772235019132"
