"simulation_id","day","fund_value"
"3","2019-01-02","1000.0000000024229"
"3","2019-01-03","947.9597645022792"
"3","2019-01-04","973.235863247001"
"3","2019-01-07","985.6408381748878"
"3","2019-01-08","1000.7061333943053"
"3","2019-01-09","990.6326501242835"
"3","2019-01-10","1008.3445822452726"
"3","2019-01-11","998.2545629890118"
"3","2019-01-14","991.4550038003769"
"3","2019-01-15","998.469027648741"
"3","2019-01-16","1000.7577589601372"
"3","2019-01-17","1009.471180808363"
"3","2019-01-18","1035.6368814263342"
"3","2019-01-22","1033.157494356902"
"3","2019-01-23","1047.1158473679216"
"3","2019-01-24","999.9749519256102"
"3","2019-01-25","990.7701031078637"
"3","2019-01-28","1008.5017009948444"
"3","2019-01-29","1012.7106985230907"
"3","2019-01-30","1036.139582294546"
"3","2019-01-31","1045.4511138155794"
