"simulation_id","day","fund_value"
"300","2019-01-02","1000.0000000024229"
"300","2019-01-03","947.9597645022792"
"300","2019-01-04","989.6353939327914"
"300","2019-01-07","1011.5762432019462"
"300","2019-01-08","1014.7396092676556"
"300","2019-01-09","1018.2789698709095"
"300","2019-01-10","1030.6143670452043"
"300","2019-01-11","1031.9962784203715"
"300","2019-01-14","1020.9367828205283"
"300","2019-01-15","1018.6979663609198"
"300","2019-01-16","1020.0513015270997"
"300","2019-01-17","1006.4480831260898"
"300","2019-01-18","1021.8772020891921"
"300","2019-01-22","1035.4958601483654"
"300","2019-01-23","1030.1454564517703"
"300","2019-01-24","1040.226996505213"
"300","2019-01-25","1038.6721108918855"
"300","2019-01-28","1026.012731026397"
"300","2019-01-29","1031.733187032925"
"300","2019-01-30","1023.0844257874257"
"300","2019-01-31","1052.722509878061"
