"simulation_id","day","fund_value"
"304","2019-01-02","1000.0000000024229"
"304","2019-01-03","947.9597645022792"
"304","2019-01-04","978.1608570903957"
"304","2019-01-07","978.3249646893503"
"304","2019-01-08","979.9676983314115"
"304","2019-01-09","963.0402535932507"
"304","2019-01-10","972.2277035729875"
"304","2019-01-11","977.199880633332"
"304","2019-01-14","962.6947071616707"
"304","2019-01-15","968.2898761555787"
"304","2019-01-16","967.5814563356828"
"304","2019-01-17","970.780977531348"
"304","2019-01-18","956.9312567213055"
"304","2019-01-22","927.5934183727712"
"304","2019-01-23","930.7843105452288"
"304","2019-01-24","923.3437039141769"
"304","2019-01-25","920.2115441018083"
"304","2019-01-28","916.331056112792"
"304","2019-01-29","924.7011663768808"
"304","2019-01-30","934.3872427048045"
"304","2019-01-31","943.9021866462975"
