"simulation_id","day","fund_value"
"322","2019-01-02","1000.0000000024229"
"322","2019-01-03","947.9597645022792"
"322","2019-01-04","976.1651478134"
"322","2019-01-07","1010.4160734753009"
"322","2019-01-08","1009.5758078925346"
"322","2019-01-09","1015.8034701704469"
"322","2019-01-10","1035.01379170751"
"322","2019-01-11","1022.9066962415758"
"322","2019-01-14","1014.8007042592072"
"322","2019-01-15","1015.8398259996194"
"322","2019-01-16","1020.5063849437104"
"322","2019-01-17","1032.0790191499664"
"322","2019-01-18","1037.0118482306984"
"322","2019-01-22","1029.9955343281204"
"322","2019-01-23","1013.8487282422475"
"322","2019-01-24","1012.9375780312058"
"322","2019-01-25","1023.3803043863312"
"322","2019-01-28","1021.1367480452607"
"322","2019-01-29","1006.020231137248"
"322","2019-01-30","1018.6375494621028"
"322","2019-01-31","1005.7014578555328"
