"simulation_id","day","fund_value"
"323","2019-01-02","1000.0000000024229"
"323","2019-01-03","947.9597645022792"
"323","2019-01-04","980.2854542200112"
"323","2019-01-07","994.9750043927369"
"323","2019-01-08","997.04855147812"
"323","2019-01-09","1014.5532830718861"
"323","2019-01-10","1024.2361345219"
"323","2019-01-11","1022.1506842724837"
"323","2019-01-14","1024.1629931990951"
"323","2019-01-15","1029.105045240875"
"323","2019-01-16","1033.83233796253"
"323","2019-01-17","1049.9558721174524"
"323","2019-01-18","1060.5684531813642"
"323","2019-01-22","1049.6139036992236"
"323","2019-01-23","1046.0838481516203"
"323","2019-01-24","1071.1884306022394"
"323","2019-01-25","1080.3829793683335"
"323","2019-01-28","1091.5030839127603"
"323","2019-01-29","1093.0986354443894"
"323","2019-01-30","1129.4648180431732"
"323","2019-01-31","1125.7029756298366"
