"simulation_id","day","fund_value"
"327","2019-01-02","1000.0000000024229"
"327","2019-01-03","947.9597645022792"
"327","2019-01-04","976.5105818733516"
"327","2019-01-07","981.1816616362266"
"327","2019-01-08","987.9044127319667"
"327","2019-01-09","992.1075717550045"
"327","2019-01-10","1003.8389308384405"
"327","2019-01-11","1002.1361392929282"
"327","2019-01-14","1005.7091330289134"
"327","2019-01-15","1002.1096891815064"
"327","2019-01-16","1009.5590832042188"
"327","2019-01-17","1032.6581626166467"
"327","2019-01-18","1039.5461535172844"
"327","2019-01-22","1018.25967098714"
"327","2019-01-23","1028.7175987634687"
"327","2019-01-24","1081.2349623458704"
"327","2019-01-25","1097.570782954106"
"327","2019-01-28","1071.564186687599"
"327","2019-01-29","1049.4128590421578"
"327","2019-01-30","1078.831949755388"
"327","2019-01-31","1091.3289500158232"
