"simulation_id","day","fund_value"
"329","2019-01-02","1000.0000000024229"
"329","2019-01-03","947.9597645022792"
"329","2019-01-04","999.6183596070518"
"329","2019-01-07","1011.8900891196224"
"329","2019-01-08","1025.7191302783913"
"329","2019-01-09","1055.405614800383"
"329","2019-01-10","1077.1509821368102"
"329","2019-01-11","1085.3584097308703"
"329","2019-01-14","1073.2833659492"
"329","2019-01-15","1080.3234781368164"
"329","2019-01-16","1070.9623059492333"
"329","2019-01-17","1066.501848252254"
"329","2019-01-18","1080.8034328272975"
"329","2019-01-22","1066.974971397184"
"329","2019-01-23","1069.3650796218772"
"329","2019-01-24","1096.6466096133488"
"329","2019-01-25","1122.9745668259754"
"329","2019-01-28","1109.99236379879"
"329","2019-01-29","1107.4151178396573"
"329","2019-01-30","1127.1387562957193"
"329","2019-01-31","1134.2669811064673"
