"simulation_id","day","fund_value"
"333","2019-01-02","1000.0000000024229"
"333","2019-01-03","947.9597645022792"
"333","2019-01-04","974.8017745488036"
"333","2019-01-07","977.0934232916954"
"333","2019-01-08","1008.8432405430808"
"333","2019-01-09","1012.1064924944477"
"333","2019-01-10","1015.1254165381715"
"333","2019-01-11","1010.9690831872317"
"333","2019-01-14","1015.3203929794859"
"333","2019-01-15","1022.0810592589582"
"333","2019-01-16","1008.6269011304371"
"333","2019-01-17","1022.3982278115312"
"333","2019-01-18","1037.6471611581783"
"333","2019-01-22","1016.1341916561256"
"333","2019-01-23","1017.8516718414053"
"333","2019-01-24","1026.5205926201788"
"333","2019-01-25","1044.8961626762032"
"333","2019-01-28","1046.945181535882"
"333","2019-01-29","1039.768746407221"
"333","2019-01-30","1043.4918587712314"
"333","2019-01-31","1058.0303874926126"
