"simulation_id","day","fund_value"
"34","2019-01-02","1000.0000000024229"
"34","2019-01-03","947.9597645022792"
"34","2019-01-04","975.4302882813445"
"34","2019-01-07","982.1883544309924"
"34","2019-01-08","1014.7517520056537"
"34","2019-01-09","1048.7582427522507"
"34","2019-01-10","1076.1495483829308"
"34","2019-01-11","1085.0831558056198"
"34","2019-01-14","1078.4136645676326"
"34","2019-01-15","1075.1122547932132"
"34","2019-01-16","1084.312130103489"
"34","2019-01-17","1079.7075016594254"
"34","2019-01-18","1090.3923030538147"
"34","2019-01-22","1075.2363784130514"
"34","2019-01-23","1084.8455690296482"
"34","2019-01-24","1091.205504349302"
"34","2019-01-25","1120.3645654937304"
"34","2019-01-28","1115.688110374886"
"34","2019-01-29","1108.7081210849258"
"34","2019-01-30","1117.864215138982"
"34","2019-01-31","1126.2589953441202"
