"simulation_id","day","fund_value"
"341","2019-01-02","1000.0000000024229"
"341","2019-01-03","947.9597645022792"
"341","2019-01-04","989.0272881736022"
"341","2019-01-07","1007.0668710210072"
"341","2019-01-08","1036.622874705115"
"341","2019-01-09","1031.839866636082"
"341","2019-01-10","1041.175996224883"
"341","2019-01-11","1044.912299987692"
"341","2019-01-14","1036.651377408012"
"341","2019-01-15","1049.6300192867348"
"341","2019-01-16","1086.9832863834904"
"341","2019-01-17","1095.663046246578"
"341","2019-01-18","1125.5484771775848"
"341","2019-01-22","1097.5519475906244"
"341","2019-01-23","1098.8150306716052"
"341","2019-01-24","1099.3826753239643"
"341","2019-01-25","1107.0195939567288"
"341","2019-01-28","1111.3268362396761"
"341","2019-01-29","1127.5654701459275"
"341","2019-01-30","1103.7254539150902"
"341","2019-01-31","1115.4316312757537"
