"simulation_id","day","fund_value"
"345","2019-01-02","1000.0000000024229"
"345","2019-01-03","947.9597645022792"
"345","2019-01-04","990.894825577219"
"345","2019-01-07","993.3104195589477"
"345","2019-01-08","1017.0809277931794"
"345","2019-01-09","1029.1070250820972"
"345","2019-01-10","1029.6731111179788"
"345","2019-01-11","1028.1657285741508"
"345","2019-01-14","1017.4884605539299"
"345","2019-01-15","1027.140034420141"
"345","2019-01-16","1025.1855408470992"
"345","2019-01-17","1035.2835366549475"
"345","2019-01-18","1085.6503773117515"
"345","2019-01-22","1077.9284968671748"
"345","2019-01-23","1071.7278710429327"
"345","2019-01-24","1055.659413824506"
"345","2019-01-25","1058.3882868235955"
"345","2019-01-28","1052.0654653466408"
"345","2019-01-29","1053.2475334628311"
"345","2019-01-30","1056.9532879757458"
"345","2019-01-31","1029.3411112920528"
