"simulation_id","day","fund_value"
"349","2019-01-02","1000.0000000024229"
"349","2019-01-03","947.9597645022792"
"349","2019-01-04","991.9509078666531"
"349","2019-01-07","985.0557259873913"
"349","2019-01-08","1003.8052943192655"
"349","2019-01-09","1025.0343120792566"
"349","2019-01-10","1029.8919431793643"
"349","2019-01-11","1031.9008644332705"
"349","2019-01-14","1021.4937568543244"
"349","2019-01-15","1027.572708654726"
"349","2019-01-16","1016.4445188787709"
"349","2019-01-17","1026.5992848156598"
"349","2019-01-18","1051.7997129724624"
"349","2019-01-22","1042.4859381437639"
"349","2019-01-23","1056.5976227653446"
"349","2019-01-24","1055.348862716119"
"349","2019-01-25","1073.9907976262348"
"349","2019-01-28","1066.797272945641"
"349","2019-01-29","1074.611264202482"
"349","2019-01-30","1084.238047156579"
"349","2019-01-31","1104.4052885783908"
