"simulation_id","day","fund_value"
"351","2019-01-02","1000.0000000024229"
"351","2019-01-03","947.9597645022792"
"351","2019-01-04","949.7170714511392"
"351","2019-01-07","955.0855084377142"
"351","2019-01-08","952.6243212801603"
"351","2019-01-09","951.1499102149583"
"351","2019-01-10","989.625366118983"
"351","2019-01-11","989.4795805864003"
"351","2019-01-14","996.3928079071811"
"351","2019-01-15","1003.7486571523567"
"351","2019-01-16","999.8659924163228"
"351","2019-01-17","1001.6830413001455"
"351","2019-01-18","1031.235312740386"
"351","2019-01-22","1012.6695542438408"
"351","2019-01-23","1015.1600312379138"
"351","2019-01-24","1006.7014090974855"
"351","2019-01-25","1017.177706490544"
"351","2019-01-28","1004.168392545626"
"351","2019-01-29","1006.2160245806583"
"351","2019-01-30","1015.2278495470464"
"351","2019-01-31","1024.2957529315158"
