"simulation_id","day","fund_value"
"356","2019-01-02","1000.0000000024229"
"356","2019-01-03","947.9597645022792"
"356","2019-01-04","991.0174131102891"
"356","2019-01-07","1009.3074614758644"
"356","2019-01-08","1005.2982683323576"
"356","2019-01-09","1025.3924505155028"
"356","2019-01-10","1039.278501497242"
"356","2019-01-11","1046.3548412679365"
"356","2019-01-14","1038.8066304036224"
"356","2019-01-15","1061.1404395064458"
"356","2019-01-16","1067.051238995534"
"356","2019-01-17","1071.5152048550015"
"356","2019-01-18","1087.0298839022312"
"356","2019-01-22","1085.016784497376"
"356","2019-01-23","1084.136654658459"
"356","2019-01-24","1102.206864425518"
"356","2019-01-25","1132.6418790652035"
"356","2019-01-28","1136.656111868634"
"356","2019-01-29","1127.0083700244177"
"356","2019-01-30","1156.7061585986962"
"356","2019-01-31","1155.8204367982646"
