"simulation_id","day","fund_value"
"357","2019-01-02","1000.0000000024229"
"357","2019-01-03","947.9597645022792"
"357","2019-01-04","1000.8777363456778"
"357","2019-01-07","1004.7144524196927"
"357","2019-01-08","1012.5462190211098"
"357","2019-01-09","1017.2725596820803"
"357","2019-01-10","1014.3464266420318"
"357","2019-01-11","1026.7818151568665"
"357","2019-01-14","1026.6609694229292"
"357","2019-01-15","1034.8737398555504"
"357","2019-01-16","1058.7211418862644"
"357","2019-01-17","1067.6942392105364"
"357","2019-01-18","1073.2160347105607"
"357","2019-01-22","1064.7832637314773"
"357","2019-01-23","1089.6307471943594"
"357","2019-01-24","1084.439922378769"
"357","2019-01-25","1113.7808368945439"
"357","2019-01-28","1110.3607579426507"
"357","2019-01-29","1138.6720144018902"
"357","2019-01-30","1152.085037983544"
"357","2019-01-31","1170.0382838618816"
