"simulation_id","day","fund_value"
"364","2019-01-02","1000.0000000024229"
"364","2019-01-03","947.9597645022792"
"364","2019-01-04","988.8740601978571"
"364","2019-01-07","1010.8786723301563"
"364","2019-01-08","1042.6514543448836"
"364","2019-01-09","1053.2345208088727"
"364","2019-01-10","1085.3502536782466"
"364","2019-01-11","1091.6727010806064"
"364","2019-01-14","1078.7259524928563"
"364","2019-01-15","1088.2224192509327"
"364","2019-01-16","1088.342886910767"
"364","2019-01-17","1103.8606260689967"
"364","2019-01-18","1105.8203628661445"
"364","2019-01-22","1094.0434759676264"
"364","2019-01-23","1091.007782255495"
"364","2019-01-24","1097.73683912187"
"364","2019-01-25","1079.5803565243257"
"364","2019-01-28","1090.019082098028"
"364","2019-01-29","1099.03500541186"
"364","2019-01-30","1108.7238876643928"
"364","2019-01-31","1102.1722150922099"
