"simulation_id","day","fund_value"
"365","2019-01-02","1000.0000000024229"
"365","2019-01-03","947.9597645022792"
"365","2019-01-04","974.3104910553267"
"365","2019-01-07","982.78220706059"
"365","2019-01-08","986.1458603838564"
"365","2019-01-09","1004.5810741207822"
"365","2019-01-10","1005.1746833418296"
"365","2019-01-11","1012.7728813712353"
"365","2019-01-14","998.2626693109041"
"365","2019-01-15","1013.6362317452782"
"365","2019-01-16","1014.9603630349889"
"365","2019-01-17","1014.5179689405002"
"365","2019-01-18","1012.0161540613238"
"365","2019-01-22","1009.2899172370288"
"365","2019-01-23","1005.8196871137703"
"365","2019-01-24","1008.5122000357231"
"365","2019-01-25","1020.3060497869957"
"365","2019-01-28","998.1543789038427"
"365","2019-01-29","1002.9594890472688"
"365","2019-01-30","1011.7439901460937"
"365","2019-01-31","1034.417299498211"
