"simulation_id","day","fund_value"
"370","2019-01-02","1000.0000000024229"
"370","2019-01-03","947.9597645022792"
"370","2019-01-04","976.9873414168948"
"370","2019-01-07","995.5129859308945"
"370","2019-01-08","1004.1148800284907"
"370","2019-01-09","1009.2682478677785"
"370","2019-01-10","1016.6567257904112"
"370","2019-01-11","1027.6861297472253"
"370","2019-01-14","1028.010866981785"
"370","2019-01-15","1042.165079205001"
"370","2019-01-16","1052.962979212401"
"370","2019-01-17","1057.7848054460242"
"370","2019-01-18","1087.4209390463866"
"370","2019-01-22","1075.1837575054667"
"370","2019-01-23","1069.2492179272028"
"370","2019-01-24","1080.1989418562805"
"370","2019-01-25","1088.2058951332715"
"370","2019-01-28","1087.8793720547771"
"370","2019-01-29","1095.3234982827726"
"370","2019-01-30","1116.092431737969"
"370","2019-01-31","1128.2208719430566"
