"simulation_id","day","fund_value"
"371","2019-01-02","1000.0000000024229"
"371","2019-01-03","947.9597645022792"
"371","2019-01-04","986.7913668227714"
"371","2019-01-07","1031.167182107781"
"371","2019-01-08","1028.3284193479788"
"371","2019-01-09","1017.3221897797184"
"371","2019-01-10","1030.365908106368"
"371","2019-01-11","1027.6180090107073"
"371","2019-01-14","1026.4401783287205"
"371","2019-01-15","1038.1701638898398"
"371","2019-01-16","1042.2590025797936"
"371","2019-01-17","1052.456355888054"
"371","2019-01-18","1067.675689397282"
"371","2019-01-22","1051.5434497364809"
"371","2019-01-23","1051.6147652446657"
"371","2019-01-24","1053.6887640670602"
"371","2019-01-25","1085.671997866328"
"371","2019-01-28","1091.6516273089203"
"371","2019-01-29","1104.4834985031355"
"371","2019-01-30","1114.8503647810653"
"371","2019-01-31","1127.8124921069266"
