"simulation_id","day","fund_value"
"38","2019-01-02","1000.0000000024229"
"38","2019-01-03","947.9597645022792"
"38","2019-01-04","978.7974418748157"
"38","2019-01-07","984.5662815614361"
"38","2019-01-08","991.5769826184984"
"38","2019-01-09","998.14569803214"
"38","2019-01-10","1006.5566941861512"
"38","2019-01-11","1013.3221527240446"
"38","2019-01-14","1019.2469637402867"
"38","2019-01-15","1029.8433461646873"
"38","2019-01-16","1023.9079461493683"
"38","2019-01-17","1027.399288940317"
"38","2019-01-18","1028.880857781261"
"38","2019-01-22","1021.9018064950517"
"38","2019-01-23","1017.2192734188791"
"38","2019-01-24","1017.4744909264043"
"38","2019-01-25","1016.9033942525363"
"38","2019-01-28","1016.4147921419568"
"38","2019-01-29","1039.6002341230023"
"38","2019-01-30","1062.960531019263"
"38","2019-01-31","1072.6085961667438"
