"simulation_id","day","fund_value"
"41","2019-01-02","1000.0000000024229"
"41","2019-01-03","947.9597645022792"
"41","2019-01-04","973.5178041320708"
"41","2019-01-07","984.673517559542"
"41","2019-01-08","1004.1385381754699"
"41","2019-01-09","999.5791386439062"
"41","2019-01-10","1002.9349553015002"
"41","2019-01-11","1019.3639791420037"
"41","2019-01-14","1016.0334186423195"
"41","2019-01-15","1016.8549244187005"
"41","2019-01-16","1031.4610634788623"
"41","2019-01-17","1037.0642478114082"
"41","2019-01-18","1037.2688830508127"
"41","2019-01-22","1036.24570685379"
"41","2019-01-23","1046.0661102305214"
"41","2019-01-24","1056.6637125899326"
"41","2019-01-25","1070.67340874918"
"41","2019-01-28","1054.8874032207095"
"41","2019-01-29","1050.1721218168248"
"41","2019-01-30","1040.095223283647"
"41","2019-01-31","1050.2123053258492"
