"simulation_id","day","fund_value"
"413","2019-01-02","1000.0000000024229"
"413","2019-01-03","947.9597645022792"
"413","2019-01-04","963.0774750537801"
"413","2019-01-07","955.748130094835"
"413","2019-01-08","974.4795515278265"
"413","2019-01-09","983.8854871136841"
"413","2019-01-10","989.3113130206867"
"413","2019-01-11","990.275098527618"
"413","2019-01-14","989.0491824349615"
"413","2019-01-15","994.6331046528339"
"413","2019-01-16","988.8434759724641"
"413","2019-01-17","992.6466257701004"
"413","2019-01-18","1024.3004181260624"
"413","2019-01-22","1012.6131459389671"
"413","2019-01-23","1028.5136536597502"
"413","2019-01-24","1032.655488857143"
"413","2019-01-25","1052.3717037596361"
"413","2019-01-28","1059.8109494497166"
"413","2019-01-29","1059.3584839214695"
"413","2019-01-30","1056.4221711704492"
"413","2019-01-31","1055.730676639872"
