"simulation_id","day","fund_value"
"418","2019-01-02","1000.0000000024229"
"418","2019-01-03","947.9597645022792"
"418","2019-01-04","987.0630627476003"
"418","2019-01-07","999.2377416292427"
"418","2019-01-08","1010.0194874635961"
"418","2019-01-09","1015.576037871373"
"418","2019-01-10","1025.2624663590168"
"418","2019-01-11","1034.2192599897005"
"418","2019-01-14","1044.744196650512"
"418","2019-01-15","1061.6743337106138"
"418","2019-01-16","1054.2370023668238"
"418","2019-01-17","1058.1357770241937"
"418","2019-01-18","1075.3094638481807"
"418","2019-01-22","1055.6108157566148"
"418","2019-01-23","1059.7916093848344"
"418","2019-01-24","1068.4428687119857"
"418","2019-01-25","1104.1331660231497"
"418","2019-01-28","1110.9830856250455"
"418","2019-01-29","1054.8414751046766"
"418","2019-01-30","1063.3388374505512"
"418","2019-01-31","1062.8051397206305"
