"simulation_id","day","fund_value"
"42","2019-01-02","1000.0000000024229"
"42","2019-01-03","947.9597645022792"
"42","2019-01-04","986.7624181269397"
"42","2019-01-07","999.1399072245433"
"42","2019-01-08","1009.4853427221569"
"42","2019-01-09","1023.6283173356567"
"42","2019-01-10","1038.4228129734843"
"42","2019-01-11","1040.2662914772213"
"42","2019-01-14","1030.7988277969391"
"42","2019-01-15","1033.9758292092445"
"42","2019-01-16","1036.560391799961"
"42","2019-01-17","1049.7952196168926"
"42","2019-01-18","1058.634712931652"
"42","2019-01-22","1055.327062568731"
"42","2019-01-23","1070.648816845172"
"42","2019-01-24","1099.6646193634715"
"42","2019-01-25","1116.8408785722604"
"42","2019-01-28","1119.8523101624473"
"42","2019-01-29","1128.2917332754303"
"42","2019-01-30","1141.2820532420997"
"42","2019-01-31","1128.311328123898"
