"simulation_id","day","fund_value"
"426","2019-01-02","1000.0000000024229"
"426","2019-01-03","947.9597645022792"
"426","2019-01-04","959.6269016550821"
"426","2019-01-07","976.0613467638141"
"426","2019-01-08","999.7037299589645"
"426","2019-01-09","1005.1517125254504"
"426","2019-01-10","1016.7740614731499"
"426","2019-01-11","1017.6024676982241"
"426","2019-01-14","1024.0884940312826"
"426","2019-01-15","1026.628401418291"
"426","2019-01-16","1019.961947382006"
"426","2019-01-17","1031.8517759197175"
"426","2019-01-18","1052.6565070035228"
"426","2019-01-22","1039.1440563527403"
"426","2019-01-23","1048.6681406227176"
"426","2019-01-24","1042.386180540786"
"426","2019-01-25","1049.929600115469"
"426","2019-01-28","1046.2411121177179"
"426","2019-01-29","1051.8337029114432"
"426","2019-01-30","1057.6735352126054"
"426","2019-01-31","1056.3115676783846"
