"simulation_id","day","fund_value"
"427","2019-01-02","1000.0000000024229"
"427","2019-01-03","947.9597645022792"
"427","2019-01-04","985.5348345204908"
"427","2019-01-07","993.6295605329099"
"427","2019-01-08","1011.3099940576592"
"427","2019-01-09","1026.0830094089904"
"427","2019-01-10","1039.8443832925466"
"427","2019-01-11","1034.4032331186688"
"427","2019-01-14","1030.1433885752958"
"427","2019-01-15","1034.1808159467446"
"427","2019-01-16","1046.7344288993118"
"427","2019-01-17","1052.6530890963256"
"427","2019-01-18","1068.8506948690201"
"427","2019-01-22","1044.0340110429606"
"427","2019-01-23","1043.503715893854"
"427","2019-01-24","1051.070165238866"
"427","2019-01-25","1063.5634782833577"
"427","2019-01-28","1062.723399018584"
"427","2019-01-29","1065.1790265013037"
"427","2019-01-30","1072.9425543112347"
"427","2019-01-31","1082.0347169217687"
