"simulation_id","day","fund_value"
"428","2019-01-02","1000.0000000024229"
"428","2019-01-03","947.9597645022792"
"428","2019-01-04","977.4680130669711"
"428","2019-01-07","978.7045055124455"
"428","2019-01-08","991.0237083313547"
"428","2019-01-09","1029.0995083426747"
"428","2019-01-10","1031.166809454798"
"428","2019-01-11","1030.505336959383"
"428","2019-01-14","1001.0387350243695"
"428","2019-01-15","1016.1344072209865"
"428","2019-01-16","1017.8669655194216"
"428","2019-01-17","1000.4757345120676"
"428","2019-01-18","1000.0077913558083"
"428","2019-01-22","1000.1247771448731"
"428","2019-01-23","1006.1995959028062"
"428","2019-01-24","1012.8105432607875"
"428","2019-01-25","1003.414298911764"
"428","2019-01-28","1011.4590567999436"
"428","2019-01-29","1006.9138153151897"
"428","2019-01-30","1020.8072323322398"
"428","2019-01-31","1016.3658164844744"
