"simulation_id","day","fund_value"
"433","2019-01-02","1000.0000000024229"
"433","2019-01-03","947.9597645022792"
"433","2019-01-04","979.4995170382284"
"433","2019-01-07","947.1757025135419"
"433","2019-01-08","958.8896473125235"
"433","2019-01-09","970.5833801978795"
"433","2019-01-10","987.8903670033058"
"433","2019-01-11","981.8662587861185"
"433","2019-01-14","971.5904080371286"
"433","2019-01-15","971.4109519000917"
"433","2019-01-16","971.6273906329025"
"433","2019-01-17","988.1148118817619"
"433","2019-01-18","989.858031191168"
"433","2019-01-22","950.4415661932042"
"433","2019-01-23","942.1820184821353"
"433","2019-01-24","942.7489003252522"
"433","2019-01-25","957.7517671718473"
"433","2019-01-28","931.5917799214888"
"433","2019-01-29","932.1730131061659"
"433","2019-01-30","952.1017659686325"
"433","2019-01-31","967.8887670217454"
