"simulation_id","day","fund_value"
"441","2019-01-02","1000.0000000024229"
"441","2019-01-03","947.9597645022792"
"441","2019-01-04","966.7319251282659"
"441","2019-01-07","972.6973281824152"
"441","2019-01-08","995.3320839384445"
"441","2019-01-09","1015.2270592481766"
"441","2019-01-10","1021.0302218482844"
"441","2019-01-11","1018.4493969054319"
"441","2019-01-14","1019.4710928100095"
"441","2019-01-15","1018.4224344643706"
"441","2019-01-16","1022.2641230394629"
"441","2019-01-17","1032.5640032605072"
"441","2019-01-18","1051.0400102693334"
"441","2019-01-22","1027.167318819226"
"441","2019-01-23","1024.2378266954838"
"441","2019-01-24","1034.9764413862536"
"441","2019-01-25","1046.3345768298145"
"441","2019-01-28","1043.2440660954576"
"441","2019-01-29","1064.1870194906294"
"441","2019-01-30","1077.4997476161325"
"441","2019-01-31","1112.4396846001591"
