"simulation_id","day","fund_value"
"445","2019-01-02","1000.0000000024229"
"445","2019-01-03","947.9597645022792"
"445","2019-01-04","958.0233795338212"
"445","2019-01-07","966.0973774487172"
"445","2019-01-08","975.121445219095"
"445","2019-01-09","983.8102265695693"
"445","2019-01-10","989.5701354144994"
"445","2019-01-11","994.3235924676022"
"445","2019-01-14","1013.8889193626711"
"445","2019-01-15","1031.3887703747432"
"445","2019-01-16","1039.3145233749763"
"445","2019-01-17","1046.6183558589446"
"445","2019-01-18","1055.8787152301934"
"445","2019-01-22","1029.9151438729998"
"445","2019-01-23","1002.0249332583282"
"445","2019-01-24","996.7358838426334"
"445","2019-01-25","1002.9007007081954"
"445","2019-01-28","1010.0779415400774"
"445","2019-01-29","1009.0959328942156"
"445","2019-01-30","1026.1875614773194"
"445","2019-01-31","1044.2460796785151"
