"simulation_id","day","fund_value"
"453","2019-01-02","1000.0000000024229"
"453","2019-01-03","947.9597645022792"
"453","2019-01-04","967.30807656283"
"453","2019-01-07","969.8935143909695"
"453","2019-01-08","993.4036239803968"
"453","2019-01-09","994.5209098609645"
"453","2019-01-10","991.7977112090921"
"453","2019-01-11","992.9048905396182"
"453","2019-01-14","991.2475008735703"
"453","2019-01-15","993.9846953487674"
"453","2019-01-16","992.4730026837276"
"453","2019-01-17","998.6655401499903"
"453","2019-01-18","1009.5686002056434"
"453","2019-01-22","1012.260314298357"
"453","2019-01-23","1001.7332314466429"
"453","2019-01-24","999.4147561867591"
"453","2019-01-25","977.4087776609874"
"453","2019-01-28","979.027708707227"
"453","2019-01-29","977.8616349462145"
"453","2019-01-30","998.9149190284314"
"453","2019-01-31","1027.4941831471406"
