"simulation_id","day","fund_value"
"458","2019-01-02","1000.0000000024229"
"458","2019-01-03","947.9597645022792"
"458","2019-01-04","971.6221453635825"
"458","2019-01-07","982.7358749674432"
"458","2019-01-08","1002.1530926145792"
"458","2019-01-09","1004.5673826365406"
"458","2019-01-10","1032.3475926656413"
"458","2019-01-11","1052.6666510469922"
"458","2019-01-14","1047.768203102953"
"458","2019-01-15","1060.641595958648"
"458","2019-01-16","1063.2584167124037"
"458","2019-01-17","1075.7720278067754"
"458","2019-01-18","1084.0236602065042"
"458","2019-01-22","1049.053161003499"
"458","2019-01-23","1040.4629203265813"
"458","2019-01-24","1078.1602702547073"
"458","2019-01-25","1090.8830083961707"
"458","2019-01-28","1080.863100027163"
"458","2019-01-29","1089.5807527743598"
"458","2019-01-30","1093.24516453504"
"458","2019-01-31","1097.899666809838"
