"simulation_id","day","fund_value"
"46","2019-01-02","1000.0000000024229"
"46","2019-01-03","947.9597645022792"
"46","2019-01-04","992.3185549033575"
"46","2019-01-07","1000.9465513410545"
"46","2019-01-08","1006.6353641142704"
"46","2019-01-09","1011.468690019734"
"46","2019-01-10","1023.3405685251485"
"46","2019-01-11","1012.6366093307611"
"46","2019-01-14","957.4259401396242"
"46","2019-01-15","966.459523639632"
"46","2019-01-16","965.6805046802797"
"46","2019-01-17","973.3896506817692"
"46","2019-01-18","980.9085675611512"
"46","2019-01-22","952.3234953270636"
"46","2019-01-23","959.1828648676429"
"46","2019-01-24","964.7783862772429"
"46","2019-01-25","979.865593406276"
"46","2019-01-28","991.6980927959992"
"46","2019-01-29","998.7929560915236"
"46","2019-01-30","989.0975675023391"
"46","2019-01-31","1000.0503279072063"
