"simulation_id","day","fund_value"
"463","2019-01-02","1000.0000000024229"
"463","2019-01-03","947.9597645022792"
"463","2019-01-04","975.937169510721"
"463","2019-01-07","981.1507142532948"
"463","2019-01-08","992.4087978724722"
"463","2019-01-09","1013.3967963562752"
"463","2019-01-10","1014.5669722929125"
"463","2019-01-11","1013.2176046815233"
"463","2019-01-14","1011.1487553457515"
"463","2019-01-15","1009.9893216828758"
"463","2019-01-16","1017.2768372308983"
"463","2019-01-17","1017.522477317425"
"463","2019-01-18","1038.2045906507012"
"463","2019-01-22","1019.6342094945992"
"463","2019-01-23","1033.600287857617"
"463","2019-01-24","1020.5593915399003"
"463","2019-01-25","1032.0590626731982"
"463","2019-01-28","1040.1280695095143"
"463","2019-01-29","1021.4072781174729"
"463","2019-01-30","1032.5675875341415"
"463","2019-01-31","1046.029740952032"
