"simulation_id","day","fund_value"
"465","2019-01-02","1000.0000000024229"
"465","2019-01-03","947.9597645022792"
"465","2019-01-04","947.2460001986328"
"465","2019-01-07","952.4394256645808"
"465","2019-01-08","967.5891014454229"
"465","2019-01-09","979.4079455223474"
"465","2019-01-10","990.8671679632894"
"465","2019-01-11","986.6378814191444"
"465","2019-01-14","991.3825626948927"
"465","2019-01-15","1000.9423512083797"
"465","2019-01-16","1010.1407165163257"
"465","2019-01-17","1027.8773873385398"
"465","2019-01-18","1048.6858019136075"
"465","2019-01-22","1033.1785899423587"
"465","2019-01-23","1020.0400938054935"
"465","2019-01-24","1022.4889116420865"
"465","2019-01-25","1030.6609078277268"
"465","2019-01-28","1008.2844245881167"
"465","2019-01-29","1009.6147091149157"
"465","2019-01-30","1021.3846473663132"
"465","2019-01-31","1015.8005477612447"
