"simulation_id","day","fund_value"
"475","2019-01-02","1000.0000000024229"
"475","2019-01-03","947.9597645022792"
"475","2019-01-04","978.893266547292"
"475","2019-01-07","974.4479244067196"
"475","2019-01-08","973.2097548466265"
"475","2019-01-09","992.3897221846104"
"475","2019-01-10","987.4660811894773"
"475","2019-01-11","983.0081495692807"
"475","2019-01-14","981.1874527391964"
"475","2019-01-15","981.9777634707066"
"475","2019-01-16","976.442213234036"
"475","2019-01-17","976.9171134456948"
"475","2019-01-18","1010.9870132430035"
"475","2019-01-22","997.0815149964934"
"475","2019-01-23","998.1626367392321"
"475","2019-01-24","1008.2267148262185"
"475","2019-01-25","1028.0413000636352"
"475","2019-01-28","1013.9041672288005"
"475","2019-01-29","1008.4122343318347"
"475","2019-01-30","1041.9631147526984"
"475","2019-01-31","1040.9734769657086"
