"simulation_id","day","fund_value"
"488","2019-01-02","1000.0000000024229"
"488","2019-01-03","947.9597645022792"
"488","2019-01-04","972.0233969901255"
"488","2019-01-07","970.9416733021012"
"488","2019-01-08","973.5836878469405"
"488","2019-01-09","977.7625448679702"
"488","2019-01-10","986.0817980777542"
"488","2019-01-11","994.715826514099"
"488","2019-01-14","987.4684767964657"
"488","2019-01-15","998.8839544655914"
"488","2019-01-16","1002.7604375146682"
"488","2019-01-17","1030.1350040503294"
"488","2019-01-18","1053.7698515555203"
"488","2019-01-22","1049.8416867111257"
"488","2019-01-23","1059.5571954366633"
"488","2019-01-24","1064.0714803673625"
"488","2019-01-25","1069.2421998323816"
"488","2019-01-28","1064.2163442937272"
"488","2019-01-29","1027.750004625695"
"488","2019-01-30","1025.4258033402039"
"488","2019-01-31","1031.0128704708527"
