"simulation_id","day","fund_value"
"493","2019-01-02","1000.0000000024229"
"493","2019-01-03","947.9597645022792"
"493","2019-01-04","970.9832270307877"
"493","2019-01-07","976.032774550075"
"493","2019-01-08","986.5093864680714"
"493","2019-01-09","984.3361299838422"
"493","2019-01-10","992.3392872941097"
"493","2019-01-11","998.2205070463336"
"493","2019-01-14","991.8806488668112"
"493","2019-01-15","995.7204259076719"
"493","2019-01-16","1001.6943215520878"
"493","2019-01-17","1017.9103492906286"
"493","2019-01-18","1010.3749001804604"
"493","2019-01-22","995.9074207495544"
"493","2019-01-23","998.4504876781809"
"493","2019-01-24","1004.8035083894428"
"493","2019-01-25","1009.8082642016716"
"493","2019-01-28","1003.6869263206379"
"493","2019-01-29","992.2021702779842"
"493","2019-01-30","1004.0455346232828"
"493","2019-01-31","1024.7352973999045"
