"simulation_id","day","fund_value"
"495","2019-01-02","1000.0000000024229"
"495","2019-01-03","947.9597645022792"
"495","2019-01-04","997.2939403931368"
"495","2019-01-07","1033.4258102030763"
"495","2019-01-08","1032.40854918086"
"495","2019-01-09","1023.3722599170927"
"495","2019-01-10","1025.0168571376312"
"495","2019-01-11","1026.5063513003379"
"495","2019-01-14","1023.33982504187"
"495","2019-01-15","1038.1422735673011"
"495","2019-01-16","1039.552818053922"
"495","2019-01-17","1018.7774923087165"
"495","2019-01-18","1025.8304490133182"
"495","2019-01-22","1019.7916169181433"
"495","2019-01-23","1027.9660149679687"
"495","2019-01-24","1001.4053148600159"
"495","2019-01-25","1014.5102669008677"
"495","2019-01-28","1005.7703755652703"
"495","2019-01-29","994.5547447522761"
"495","2019-01-30","1005.3606078896257"
"495","2019-01-31","1026.4726123242167"
