"simulation_id","day","fund_value"
"500","2019-01-02","1000.0000000024229"
"500","2019-01-03","947.9597645022792"
"500","2019-01-04","962.321076878401"
"500","2019-01-07","973.5549570358689"
"500","2019-01-08","984.3502083501337"
"500","2019-01-09","983.2932264042255"
"500","2019-01-10","973.3465185726434"
"500","2019-01-11","976.2813439821698"
"500","2019-01-14","974.1637674791132"
"500","2019-01-15","983.9461441088118"
"500","2019-01-16","986.6956523186723"
"500","2019-01-17","1000.2418745309728"
"500","2019-01-18","1025.9891567758505"
"500","2019-01-22","1014.4758922979787"
"500","2019-01-23","1011.9787773189287"
"500","2019-01-24","1027.301837622309"
"500","2019-01-25","1025.3855291525063"
"500","2019-01-28","1009.8810858046077"
"500","2019-01-29","1014.4976891830523"
"500","2019-01-30","1001.6167481326231"
"500","2019-01-31","1003.5981304285579"
