"simulation_id","day","fund_value"
"505","2019-01-02","1000.0000000024229"
"505","2019-01-03","947.9597645022792"
"505","2019-01-04","995.3273223971015"
"505","2019-01-07","993.7622654310208"
"505","2019-01-08","1006.7680301587561"
"505","2019-01-09","1018.9998583660198"
"505","2019-01-10","1025.344946249816"
"505","2019-01-11","1026.606958806778"
"505","2019-01-14","1013.2595144135857"
"505","2019-01-15","1033.4607229118699"
"505","2019-01-16","1024.4763498681405"
"505","2019-01-17","1040.2701281292882"
"505","2019-01-18","1058.5981159590806"
"505","2019-01-22","1038.5110613468569"
"505","2019-01-23","1034.9693288977508"
"505","2019-01-24","1034.5577491733147"
"505","2019-01-25","1055.767763147022"
"505","2019-01-28","1066.6538834528706"
"505","2019-01-29","1035.5973625171803"
"505","2019-01-30","1025.8466974897897"
"505","2019-01-31","1005.4309566567892"
