"simulation_id","day","fund_value"
"509","2019-01-02","1000.0000000024229"
"509","2019-01-03","947.9597645022792"
"509","2019-01-04","994.2665526238916"
"509","2019-01-07","1034.5323637943961"
"509","2019-01-08","1043.1480261113816"
"509","2019-01-09","1050.4130890603938"
"509","2019-01-10","1058.4665635068757"
"509","2019-01-11","1062.9301547140901"
"509","2019-01-14","1065.908949437474"
"509","2019-01-15","1073.3529576835701"
"509","2019-01-16","1066.6507182360674"
"509","2019-01-17","1075.1047721294121"
"509","2019-01-18","1094.4989436804676"
"509","2019-01-22","1080.1294905746608"
"509","2019-01-23","1078.8783890186146"
"509","2019-01-24","1079.6097384594748"
"509","2019-01-25","1123.4829373232287"
"509","2019-01-28","1111.3962771312615"
"509","2019-01-29","1115.2285596061029"
"509","2019-01-30","1127.1405168021377"
"509","2019-01-31","1149.9879084546722"
