"simulation_id","day","fund_value"
"512","2019-01-02","1000.0000000024229"
"512","2019-01-03","947.9597645022792"
"512","2019-01-04","952.4733751277026"
"512","2019-01-07","958.7249864043638"
"512","2019-01-08","971.0552954383019"
"512","2019-01-09","939.1097073719069"
"512","2019-01-10","969.6246975680854"
"512","2019-01-11","974.9826703671914"
"512","2019-01-14","969.0755878622944"
"512","2019-01-15","985.7449403566786"
"512","2019-01-16","1002.3625827524567"
"512","2019-01-17","1009.4813481326095"
"512","2019-01-18","1025.1352706439866"
"512","2019-01-22","1002.5218350820626"
"512","2019-01-23","1008.4744060799297"
"512","2019-01-24","1008.4597531684401"
"512","2019-01-25","1013.6216377299569"
"512","2019-01-28","1010.1817696686436"
"512","2019-01-29","999.4862699691573"
"512","2019-01-30","1014.3617694989886"
"512","2019-01-31","1026.8849330095522"
