"simulation_id","day","fund_value"
"518","2019-01-02","1000.0000000024229"
"518","2019-01-03","947.9597645022792"
"518","2019-01-04","990.5595912115465"
"518","2019-01-07","1003.5509814518683"
"518","2019-01-08","1009.0012280764671"
"518","2019-01-09","1015.7724699541118"
"518","2019-01-10","1023.3432209525382"
"518","2019-01-11","1025.1489951446429"
"518","2019-01-14","1020.5745316651644"
"518","2019-01-15","1035.164974728688"
"518","2019-01-16","1057.5501451976502"
"518","2019-01-17","1069.7391508940755"
"518","2019-01-18","1094.7168148878936"
"518","2019-01-22","1058.7804664653745"
"518","2019-01-23","1060.6731715632923"
"518","2019-01-24","1074.2137684980087"
"518","2019-01-25","1071.9009355230967"
"518","2019-01-28","1069.9786357108078"
"518","2019-01-29","1065.8506304997527"
"518","2019-01-30","1077.7242464663414"
"518","2019-01-31","1078.5226984567605"
