"simulation_id","day","fund_value"
"521","2019-01-02","1000.0000000024229"
"521","2019-01-03","947.9597645022792"
"521","2019-01-04","988.778421013003"
"521","2019-01-07","984.6080662641895"
"521","2019-01-08","1014.7411601532647"
"521","2019-01-09","1024.1844766986464"
"521","2019-01-10","1031.9850748091287"
"521","2019-01-11","1029.8025695555627"
"521","2019-01-14","1026.6207026092864"
"521","2019-01-15","1016.8792416775414"
"521","2019-01-16","1012.0718652384032"
"521","2019-01-17","1025.1286004328526"
"521","2019-01-18","1045.2320124488474"
"521","2019-01-22","1038.315727418275"
"521","2019-01-23","1052.873161534583"
"521","2019-01-24","1046.1485057945374"
"521","2019-01-25","1054.3347776356054"
"521","2019-01-28","1048.6732209154602"
"521","2019-01-29","1052.1304755954352"
"521","2019-01-30","1066.6396137711736"
"521","2019-01-31","1063.6126076537569"
