"simulation_id","day","fund_value"
"522","2019-01-02","1000.0000000024229"
"522","2019-01-03","947.9597645022792"
"522","2019-01-04","947.7833058920033"
"522","2019-01-07","965.0344229324722"
"522","2019-01-08","953.1129887855626"
"522","2019-01-09","948.065752115577"
"522","2019-01-10","958.3242978567118"
"522","2019-01-11","967.9084430988771"
"522","2019-01-14","973.449464383393"
"522","2019-01-15","982.9143776120502"
"522","2019-01-16","985.9928481670538"
"522","2019-01-17","1009.0776610784503"
"522","2019-01-18","1023.8437638446055"
"522","2019-01-22","1016.346297660679"
"522","2019-01-23","1026.6620656953833"
"522","2019-01-24","1031.4527248236889"
"522","2019-01-25","1046.8383882003081"
"522","2019-01-28","1061.5441827121972"
"522","2019-01-29","1067.2727923887246"
"522","2019-01-30","1082.6636347008744"
"522","2019-01-31","1094.477243500336"
