"simulation_id","day","fund_value"
"524","2019-01-02","1000.0000000024229"
"524","2019-01-03","947.9597645022792"
"524","2019-01-04","981.7216072559326"
"524","2019-01-07","981.579824404294"
"524","2019-01-08","975.7238712095425"
"524","2019-01-09","977.9908805448059"
"524","2019-01-10","989.062805888901"
"524","2019-01-11","990.2962926279587"
"524","2019-01-14","962.1449032695064"
"524","2019-01-15","972.8362852693217"
"524","2019-01-16","964.73422656402"
"524","2019-01-17","974.5946458654279"
"524","2019-01-18","990.0384331785101"
"524","2019-01-22","985.9481009792831"
"524","2019-01-23","996.548922404689"
"524","2019-01-24","1005.847358972897"
"524","2019-01-25","1020.5880761544084"
"524","2019-01-28","1024.5748195330934"
"524","2019-01-29","1020.7600009843691"
"524","2019-01-30","1007.7923344421062"
"524","2019-01-31","993.9684135708789"
