"simulation_id","day","fund_value"
"525","2019-01-02","1000.0000000024229"
"525","2019-01-03","947.9597645022792"
"525","2019-01-04","992.536415557216"
"525","2019-01-07","1000.1772650792461"
"525","2019-01-08","1007.3173893950202"
"525","2019-01-09","1025.6415056245405"
"525","2019-01-10","1013.6983926816441"
"525","2019-01-11","1034.8250396188696"
"525","2019-01-14","1027.0971596381594"
"525","2019-01-15","1030.0390659677987"
"525","2019-01-16","1014.847344092624"
"525","2019-01-17","1022.4054870164756"
"525","2019-01-18","1039.3872076056011"
"525","2019-01-22","1028.92270409381"
"525","2019-01-23","1036.9446593594091"
"525","2019-01-24","1035.963427625191"
"525","2019-01-25","1040.4181275641074"
"525","2019-01-28","1020.4773920419069"
"525","2019-01-29","1022.0195628020431"
"525","2019-01-30","1047.3748541406067"
"525","2019-01-31","1068.7471094029117"
