"simulation_id","day","fund_value"
"527","2019-01-02","1000.0000000024229"
"527","2019-01-03","947.9597645022792"
"527","2019-01-04","959.0462829327042"
"527","2019-01-07","974.2268036515675"
"527","2019-01-08","996.5323970834938"
"527","2019-01-09","998.6048133267554"
"527","2019-01-10","1013.2382470405217"
"527","2019-01-11","1018.7089542345717"
"527","2019-01-14","1012.5750326302503"
"527","2019-01-15","1011.3159790642645"
"527","2019-01-16","1021.0716444332361"
"527","2019-01-17","1023.8233217337863"
"527","2019-01-18","1037.7888126068742"
"527","2019-01-22","1025.8375755316724"
"527","2019-01-23","1027.2826712350068"
"527","2019-01-24","1022.2920982393518"
"527","2019-01-25","1047.064109257055"
"527","2019-01-28","1041.655304910778"
"527","2019-01-29","1058.412962783508"
"527","2019-01-30","1072.8297718482804"
"527","2019-01-31","1094.2253922765483"
