"simulation_id","day","fund_value"
"538","2019-01-02","1000.0000000024229"
"538","2019-01-03","947.9597645022792"
"538","2019-01-04","987.5884803259829"
"538","2019-01-07","991.2776269865028"
"538","2019-01-08","1004.2952576733398"
"538","2019-01-09","1011.8548685677065"
"538","2019-01-10","1024.0083230919981"
"538","2019-01-11","1023.51298081896"
"538","2019-01-14","1013.1927152251329"
"538","2019-01-15","1003.5786705963733"
"538","2019-01-16","1008.203752068674"
"538","2019-01-17","1019.9189888120966"
"538","2019-01-18","1035.7798003150467"
"538","2019-01-22","1026.2391579705463"
"538","2019-01-23","1018.7498696657726"
"538","2019-01-24","993.0048073849941"
"538","2019-01-25","989.182123357123"
"538","2019-01-28","976.8714217365549"
"538","2019-01-29","955.3919205051943"
"538","2019-01-30","968.0078485280011"
"538","2019-01-31","982.1709006573665"
