"simulation_id","day","fund_value"
"55","2019-01-02","1000.0000000024229"
"55","2019-01-03","947.9597645022792"
"55","2019-01-04","967.0982073287873"
"55","2019-01-07","992.0304664052335"
"55","2019-01-08","1012.4906737623039"
"55","2019-01-09","1018.4565633985769"
"55","2019-01-10","1022.2202121807252"
"55","2019-01-11","1030.3489263238184"
"55","2019-01-14","1019.3821237426038"
"55","2019-01-15","1014.5302144918423"
"55","2019-01-16","1006.8053372104758"
"55","2019-01-17","1011.6723647663707"
"55","2019-01-18","1008.2070903796814"
"55","2019-01-22","1001.302080648532"
"55","2019-01-23","1002.8491168780645"
"55","2019-01-24","1010.0739869696872"
"55","2019-01-25","998.9205098339212"
"55","2019-01-28","987.3127556907791"
"55","2019-01-29","1001.4654516333735"
"55","2019-01-30","1007.8035581806805"
"55","2019-01-31","1010.673739387161"
