"simulation_id","day","fund_value"
"584","2019-01-02","1000.0000000024229"
"584","2019-01-03","947.9597645022792"
"584","2019-01-04","979.9395724856419"
"584","2019-01-07","995.019135524697"
"584","2019-01-08","1013.1280359689226"
"584","2019-01-09","1024.1466113009067"
"584","2019-01-10","1023.7330755906249"
"584","2019-01-11","1017.8277856478014"
"584","2019-01-14","998.3615989846871"
"584","2019-01-15","1003.7922093520223"
"584","2019-01-16","995.3899308139194"
"584","2019-01-17","995.5717607200984"
"584","2019-01-18","1006.9203726037651"
"584","2019-01-22","995.8332237264613"
"584","2019-01-23","999.2691342012239"
"584","2019-01-24","960.331426458413"
"584","2019-01-25","948.2016860320537"
"584","2019-01-28","940.921011790485"
"584","2019-01-29","933.8641042020564"
"584","2019-01-30","943.5687252218968"
"584","2019-01-31","943.8389545177936"
