"simulation_id","day","fund_value"
"590","2019-01-02","1000.0000000024229"
"590","2019-01-03","947.9597645022792"
"590","2019-01-04","956.8015471965696"
"590","2019-01-07","972.9360473818705"
"590","2019-01-08","985.4302766810117"
"590","2019-01-09","995.1094372687055"
"590","2019-01-10","1001.1290833133884"
"590","2019-01-11","996.2079926180046"
"590","2019-01-14","993.2119587232482"
"590","2019-01-15","1002.5121801713508"
"590","2019-01-16","1005.8116277434763"
"590","2019-01-17","1011.4341559837644"
"590","2019-01-18","1027.2124632351943"
"590","2019-01-22","1022.221791097785"
"590","2019-01-23","1028.0957596821795"
"590","2019-01-24","1044.8364315151232"
"590","2019-01-25","1078.7363658810305"
"590","2019-01-28","1077.2965356228835"
"590","2019-01-29","1181.4253093450984"
"590","2019-01-30","1309.7497738237212"
"590","2019-01-31","1327.0558314192317"
