"simulation_id","day","fund_value"
"603","2019-01-02","1000.0000000024229"
"603","2019-01-03","947.9597645022792"
"603","2019-01-04","972.5085658017925"
"603","2019-01-07","1012.0309704734216"
"603","2019-01-08","1000.3695707694625"
"603","2019-01-09","1003.6976257309587"
"603","2019-01-10","1017.5192205104603"
"603","2019-01-11","996.0989760924889"
"603","2019-01-14","990.7452406807661"
"603","2019-01-15","996.8989378278516"
"603","2019-01-16","994.4425539263806"
"603","2019-01-17","1005.0394136036734"
"603","2019-01-18","1005.9646160338962"
"603","2019-01-22","1007.1227906811714"
"603","2019-01-23","1015.4302488590212"
"603","2019-01-24","1013.1502429976857"
"603","2019-01-25","1021.0046569473619"
"603","2019-01-28","1026.430565076472"
"603","2019-01-29","1011.9431422878761"
"603","2019-01-30","1033.258026500549"
"603","2019-01-31","1040.1127017270612"
