"simulation_id","day","fund_value"
"61","2019-01-02","1000.0000000024229"
"61","2019-01-03","947.9597645022792"
"61","2019-01-04","990.9396920866986"
"61","2019-01-07","992.7782270585353"
"61","2019-01-08","980.0143544125026"
"61","2019-01-09","991.8354998701735"
"61","2019-01-10","981.0887475908587"
"61","2019-01-11","981.1018965055596"
"61","2019-01-14","973.8743139451777"
"61","2019-01-15","979.0546244539426"
"61","2019-01-16","979.492479863034"
"61","2019-01-17","987.7053435297853"
"61","2019-01-18","996.5659164152189"
"61","2019-01-22","980.9617005454714"
"61","2019-01-23","982.138392207322"
"61","2019-01-24","951.9512388405891"
"61","2019-01-25","956.6345274556741"
"61","2019-01-28","954.45869101819"
"61","2019-01-29","976.9147507467088"
"61","2019-01-30","984.4317456625262"
"61","2019-01-31","988.4393414434682"
