"simulation_id","day","fund_value"
"625","2019-01-02","1000.0000000024229"
"625","2019-01-03","947.9597645022792"
"625","2019-01-04","954.9542367958134"
"625","2019-01-07","972.9516108322872"
"625","2019-01-08","984.5270509896427"
"625","2019-01-09","985.9961571335615"
"625","2019-01-10","999.7742689500668"
"625","2019-01-11","998.6598698195904"
"625","2019-01-14","994.5453980910486"
"625","2019-01-15","998.6716493153879"
"625","2019-01-16","997.5559237045472"
"625","2019-01-17","1009.2962745712003"
"625","2019-01-18","1014.5489607948022"
"625","2019-01-22","1012.7235758347539"
"625","2019-01-23","983.3086623023667"
"625","2019-01-24","995.2700830291908"
"625","2019-01-25","1002.2448720611283"
"625","2019-01-28","1003.9942840227952"
"625","2019-01-29","1007.6923663236397"
"625","2019-01-30","1012.0314790586934"
"625","2019-01-31","1009.4154887409003"
