"simulation_id","day","fund_value"
"629","2019-01-02","1000.0000000024229"
"629","2019-01-03","947.9597645022792"
"629","2019-01-04","976.6493450502263"
"629","2019-01-07","989.831499965872"
"629","2019-01-08","997.4538074978296"
"629","2019-01-09","996.4522426277719"
"629","2019-01-10","996.3448517785786"
"629","2019-01-11","993.2002625445185"
"629","2019-01-14","990.7479741508887"
"629","2019-01-15","993.8163518941184"
"629","2019-01-16","996.4916051623819"
"629","2019-01-17","1000.1818730801847"
"629","2019-01-18","1010.5426139400978"
"629","2019-01-22","998.1711898900608"
"629","2019-01-23","997.0426486315387"
"629","2019-01-24","999.0834493474515"
"629","2019-01-25","1014.0125888285613"
"629","2019-01-28","1001.9623984929515"
"629","2019-01-29","991.4097131453187"
"629","2019-01-30","999.3806591169644"
"629","2019-01-31","1021.3831827688836"
