"simulation_id","day","fund_value"
"63","2019-01-02","1000.0000000024229"
"63","2019-01-03","947.9597645022792"
"63","2019-01-04","990.6771192500304"
"63","2019-01-07","991.5406778100593"
"63","2019-01-08","1004.7527892185053"
"63","2019-01-09","1003.6738992570912"
"63","2019-01-10","993.5210264760974"
"63","2019-01-11","996.99212096668"
"63","2019-01-14","973.9380598267923"
"63","2019-01-15","982.6237503055479"
"63","2019-01-16","976.3493207131037"
"63","2019-01-17","984.3671983690074"
"63","2019-01-18","998.9332894235507"
"63","2019-01-22","985.6162763410664"
"63","2019-01-23","988.7522615681817"
"63","2019-01-24","988.8046054705453"
"63","2019-01-25","998.6864739327405"
"63","2019-01-28","1004.6117724308322"
"63","2019-01-29","1003.982706655356"
"63","2019-01-30","1013.4571763577954"
"63","2019-01-31","1000.5868724114869"
