"simulation_id","day","fund_value"
"636","2019-01-02","1000.0000000024229"
"636","2019-01-03","947.9597645022792"
"636","2019-01-04","981.3101623847617"
"636","2019-01-07","987.4809394821789"
"636","2019-01-08","1002.3408330056061"
"636","2019-01-09","1009.2751280555598"
"636","2019-01-10","1018.188265614517"
"636","2019-01-11","1028.022233069693"
"636","2019-01-14","1029.516322438518"
"636","2019-01-15","1033.9365622838022"
"636","2019-01-16","1031.468837647783"
"636","2019-01-17","1049.2276635195096"
"636","2019-01-18","1061.7065136966476"
"636","2019-01-22","1032.0252244471415"
"636","2019-01-23","1021.8164938026847"
"636","2019-01-24","1024.3056339650789"
"636","2019-01-25","1039.4327440317188"
"636","2019-01-28","1029.4214036730266"
"636","2019-01-29","1038.2899385735184"
"636","2019-01-30","1051.4606367882627"
"636","2019-01-31","1063.1393212721052"
