"simulation_id","day","fund_value"
"638","2019-01-02","1000.0000000024229"
"638","2019-01-03","947.9597645022792"
"638","2019-01-04","979.0927225613515"
"638","2019-01-07","984.1952428227546"
"638","2019-01-08","991.3960166835687"
"638","2019-01-09","989.1019670195731"
"638","2019-01-10","988.8140523758577"
"638","2019-01-11","975.2532726568668"
"638","2019-01-14","969.8891483767835"
"638","2019-01-15","971.6981746517706"
"638","2019-01-16","972.133458507921"
"638","2019-01-17","985.3307391801328"
"638","2019-01-18","989.7647288756621"
"638","2019-01-22","1015.0278016444795"
"638","2019-01-23","1012.136482062912"
"638","2019-01-24","1021.8269968181067"
"638","2019-01-25","1025.698085116044"
"638","2019-01-28","1015.6239974465673"
"638","2019-01-29","1009.7937437817043"
"638","2019-01-30","1020.1474342792737"
"638","2019-01-31","1019.1239630499517"
