"simulation_id","day","fund_value"
"64","2019-01-02","1000.0000000024229"
"64","2019-01-03","947.9597645022792"
"64","2019-01-04","985.8120993872176"
"64","2019-01-07","989.9481237479122"
"64","2019-01-08","997.2588349080418"
"64","2019-01-09","999.1818046293185"
"64","2019-01-10","1007.06419115439"
"64","2019-01-11","1005.0769598192852"
"64","2019-01-14","993.8051291326552"
"64","2019-01-15","988.0574165410541"
"64","2019-01-16","994.6878077118184"
"64","2019-01-17","1000.3210213877178"
"64","2019-01-18","1012.6267115794283"
"64","2019-01-22","999.5175514136918"
"64","2019-01-23","988.749576110435"
"64","2019-01-24","1009.5189984252569"
"64","2019-01-25","1023.5326536136193"
"64","2019-01-28","1028.7738932101938"
"64","2019-01-29","1024.2329278291263"
"64","2019-01-30","1033.9419905315726"
"64","2019-01-31","1043.8342425996973"
