"simulation_id","day","fund_value"
"650","2019-01-02","1000.0000000024229"
"650","2019-01-03","947.9597645022792"
"650","2019-01-04","990.0572548326455"
"650","2019-01-07","1002.1041808782704"
"650","2019-01-08","1006.8884968335664"
"650","2019-01-09","1011.5146949039643"
"650","2019-01-10","1025.4800055077744"
"650","2019-01-11","1025.4701586701103"
"650","2019-01-14","1019.5585728382007"
"650","2019-01-15","1029.844628516551"
"650","2019-01-16","1022.9579103462029"
"650","2019-01-17","1028.198025997255"
"650","2019-01-18","1040.7641206972621"
"650","2019-01-22","1015.640351704318"
"650","2019-01-23","1005.8331858236832"
"650","2019-01-24","997.0963511384973"
"650","2019-01-25","1016.7185218769708"
"650","2019-01-28","1003.4215034586334"
"650","2019-01-29","984.8196614117597"
"650","2019-01-30","1001.9275956019626"
"650","2019-01-31","1010.9688262635568"
