"simulation_id","day","fund_value"
"655","2019-01-02","1000.0000000024229"
"655","2019-01-03","947.9597645022792"
"655","2019-01-04","981.4793733148243"
"655","2019-01-07","999.3602300985411"
"655","2019-01-08","1023.404963397526"
"655","2019-01-09","1067.6670605012293"
"655","2019-01-10","1102.9819570203995"
"655","2019-01-11","1101.7939753792025"
"655","2019-01-14","1106.4144999114426"
"655","2019-01-15","1121.346956663604"
"655","2019-01-16","1126.846652594006"
"655","2019-01-17","1141.0088403566756"
"655","2019-01-18","1147.2780861631556"
"655","2019-01-22","1131.4334416011798"
"655","2019-01-23","1125.9879303206203"
"655","2019-01-24","1105.3502662583487"
"655","2019-01-25","1129.7956061669618"
"655","2019-01-28","1122.268102641714"
"655","2019-01-29","1116.6802761194167"
"655","2019-01-30","1094.4631735444727"
"655","2019-01-31","1091.0090043178589"
