"simulation_id","day","fund_value"
"66","2019-01-02","1000.0000000024229"
"66","2019-01-03","947.9597645022792"
"66","2019-01-04","972.4816889233817"
"66","2019-01-07","985.8781468500912"
"66","2019-01-08","1002.4141822117855"
"66","2019-01-09","1011.2120923991633"
"66","2019-01-10","1013.184914207077"
"66","2019-01-11","1015.3578160412684"
"66","2019-01-14","1012.9513633153599"
"66","2019-01-15","1013.7743351224206"
"66","2019-01-16","1016.8664618108963"
"66","2019-01-17","1064.6660318926486"
"66","2019-01-18","1078.8918537631876"
"66","2019-01-22","1075.1848869218443"
"66","2019-01-23","1078.6497926987154"
"66","2019-01-24","1086.6908215800954"
"66","2019-01-25","1102.2669387153494"
"66","2019-01-28","1105.27288411252"
"66","2019-01-29","1098.5687344700846"
"66","2019-01-30","1108.1483741751538"
"66","2019-01-31","1113.4672651418637"
