"simulation_id","day","fund_value"
"660","2019-01-02","1000.0000000024229"
"660","2019-01-03","947.9597645022792"
"660","2019-01-04","992.1931579700329"
"660","2019-01-07","1003.165028222694"
"660","2019-01-08","1028.0493621727492"
"660","2019-01-09","1012.5077720238901"
"660","2019-01-10","1031.121885708605"
"660","2019-01-11","1037.7368731595939"
"660","2019-01-14","1029.1907975377749"
"660","2019-01-15","1042.2581128603638"
"660","2019-01-16","1042.7698933924084"
"660","2019-01-17","1057.850359736663"
"660","2019-01-18","1074.5806283027055"
"660","2019-01-22","1058.707553173285"
"660","2019-01-23","1048.9611241994457"
"660","2019-01-24","1036.2807866084072"
"660","2019-01-25","1054.3643174085614"
"660","2019-01-28","1061.8765703531385"
"660","2019-01-29","1064.9243070208415"
"660","2019-01-30","1084.4275893475058"
"660","2019-01-31","1076.2184631791642"
