"simulation_id","day","fund_value"
"664","2019-01-02","1000.0000000024229"
"664","2019-01-03","947.9597645022792"
"664","2019-01-04","994.0032606902597"
"664","2019-01-07","998.9333298106244"
"664","2019-01-08","1009.8506262137912"
"664","2019-01-09","1018.693849271449"
"664","2019-01-10","1024.8057807821428"
"664","2019-01-11","1027.1335197964509"
"664","2019-01-14","1020.4446185724165"
"664","2019-01-15","1023.9081417969157"
"664","2019-01-16","1023.900237782184"
"664","2019-01-17","1033.3225583046037"
"664","2019-01-18","1041.587794931288"
"664","2019-01-22","1037.2010358565904"
"664","2019-01-23","1032.7704022652463"
"664","2019-01-24","1041.5194119040304"
"664","2019-01-25","1041.6173840750428"
"664","2019-01-28","1037.8722719497998"
"664","2019-01-29","1044.3724642259783"
"664","2019-01-30","1045.9785248033493"
"664","2019-01-31","1080.5485035641523"
