"simulation_id","day","fund_value"
"67","2019-01-02","1000.0000000024229"
"67","2019-01-03","947.9597645022792"
"67","2019-01-04","992.8702331906012"
"67","2019-01-07","1027.1779784266123"
"67","2019-01-08","1047.4486089933935"
"67","2019-01-09","1057.2505374203351"
"67","2019-01-10","1064.963633293145"
"67","2019-01-11","1062.2717592925314"
"67","2019-01-14","1073.7343929826802"
"67","2019-01-15","1053.3068314755053"
"67","2019-01-16","1081.3866541678233"
"67","2019-01-17","1086.7103924980208"
"67","2019-01-18","1106.6289284959264"
"67","2019-01-22","1092.1840771238262"
"67","2019-01-23","1083.2210743423534"
"67","2019-01-24","1093.4580464123128"
"67","2019-01-25","1098.1179432824965"
"67","2019-01-28","1101.0741078502651"
"67","2019-01-29","1106.9593150692149"
"67","2019-01-30","1143.9510163686798"
"67","2019-01-31","1137.3258599098822"
