"simulation_id","day","fund_value"
"670","2019-01-02","1000.0000000024229"
"670","2019-01-03","947.9597645022792"
"670","2019-01-04","978.306475551481"
"670","2019-01-07","976.3661825715228"
"670","2019-01-08","984.5245604301228"
"670","2019-01-09","1009.4472714126532"
"670","2019-01-10","1015.8300651733432"
"670","2019-01-11","1015.2335277586593"
"670","2019-01-14","1006.5423695126079"
"670","2019-01-15","1018.1611217949817"
"670","2019-01-16","1028.2577838846107"
"670","2019-01-17","1032.6849952118287"
"670","2019-01-18","1034.9784519756333"
"670","2019-01-22","1036.6050327476976"
"670","2019-01-23","1034.3959066661396"
"670","2019-01-24","1033.4153160582684"
"670","2019-01-25","1050.5203219521156"
"670","2019-01-28","1045.0511355224826"
"670","2019-01-29","1042.1857304284204"
"670","2019-01-30","1058.610715751533"
"670","2019-01-31","1049.999614185654"
