"simulation_id","day","fund_value"
"675","2019-01-02","1000.0000000024229"
"675","2019-01-03","947.9597645022792"
"675","2019-01-04","983.7033675115184"
"675","2019-01-07","985.2106817017909"
"675","2019-01-08","994.5546428210068"
"675","2019-01-09","1000.2922841542697"
"675","2019-01-10","1013.0726430954369"
"675","2019-01-11","1015.6060932160271"
"675","2019-01-14","1001.7229895255382"
"675","2019-01-15","1011.378508325234"
"675","2019-01-16","1023.5961582282183"
"675","2019-01-17","1031.813770677878"
"675","2019-01-18","1035.883618864767"
"675","2019-01-22","1027.700041741556"
"675","2019-01-23","1020.7999687991241"
"675","2019-01-24","1026.649102595673"
"675","2019-01-25","1044.5471773766121"
"675","2019-01-28","1044.763067607751"
"675","2019-01-29","1042.7652437942884"
"675","2019-01-30","1046.3634013388341"
"675","2019-01-31","1042.228010865469"
