"simulation_id","day","fund_value"
"676","2019-01-02","1000.0000000024229"
"676","2019-01-03","947.9597645022792"
"676","2019-01-04","983.647998968541"
"676","2019-01-07","994.5015205895235"
"676","2019-01-08","1000.0509655981962"
"676","2019-01-09","1018.3626969104732"
"676","2019-01-10","1031.2119115090554"
"676","2019-01-11","1032.3552785253592"
"676","2019-01-14","1019.8434673904301"
"676","2019-01-15","1031.483244221642"
"676","2019-01-16","1039.6134580864746"
"676","2019-01-17","1048.2018076065467"
"676","2019-01-18","1064.8458710822274"
"676","2019-01-22","1026.9771260036423"
"676","2019-01-23","1031.8954570440048"
"676","2019-01-24","1037.8866641838772"
"676","2019-01-25","1044.5475423216537"
"676","2019-01-28","1042.154159350358"
"676","2019-01-29","1037.2023356418094"
"676","2019-01-30","1039.2387136273278"
"676","2019-01-31","1028.8183642493666"
