"simulation_id","day","fund_value"
"677","2019-01-02","1000.0000000024229"
"677","2019-01-03","947.9597645022792"
"677","2019-01-04","989.9838949650735"
"677","2019-01-07","987.3358764454937"
"677","2019-01-08","986.1839835974849"
"677","2019-01-09","950.3517819159488"
"677","2019-01-10","947.8111496157294"
"677","2019-01-11","944.6788935253285"
"677","2019-01-14","948.1800249700386"
"677","2019-01-15","950.8661839248601"
"677","2019-01-16","980.5379980679282"
"677","2019-01-17","984.6951095904035"
"677","2019-01-18","990.5126641510276"
"677","2019-01-22","982.9284097825766"
"677","2019-01-23","987.3494453255759"
"677","2019-01-24","1002.0733501517736"
"677","2019-01-25","1010.8472104223958"
"677","2019-01-28","1003.43312358813"
"677","2019-01-29","1022.6190426901925"
"677","2019-01-30","1034.0851523457513"
"677","2019-01-31","1065.7180256187362"
