"simulation_id","day","fund_value"
"68","2019-01-02","1000.0000000024229"
"68","2019-01-03","947.9597645022792"
"68","2019-01-04","966.3678787022775"
"68","2019-01-07","982.9068317369372"
"68","2019-01-08","989.0135005782528"
"68","2019-01-09","1001.3496386566209"
"68","2019-01-10","1014.4604066868056"
"68","2019-01-11","1003.0456092724364"
"68","2019-01-14","963.5159424601611"
"68","2019-01-15","912.1503923292736"
"68","2019-01-16","908.3781669312735"
"68","2019-01-17","904.4949215266852"
"68","2019-01-18","914.5238478087908"
"68","2019-01-22","907.970056383162"
"68","2019-01-23","915.3018155729673"
"68","2019-01-24","932.9376962663475"
"68","2019-01-25","936.9992485484543"
"68","2019-01-28","939.7743132442365"
"68","2019-01-29","938.7144824789723"
"68","2019-01-30","956.0086787065583"
"68","2019-01-31","967.2435469648019"
