"simulation_id","day","fund_value"
"680","2019-01-02","1000.0000000024229"
"680","2019-01-03","947.9597645022792"
"680","2019-01-04","967.8341205157373"
"680","2019-01-07","974.0329547637085"
"680","2019-01-08","971.5774366503956"
"680","2019-01-09","973.6253393896868"
"680","2019-01-10","994.8241403343976"
"680","2019-01-11","995.8447197801432"
"680","2019-01-14","958.3357692355091"
"680","2019-01-15","962.6467572107881"
"680","2019-01-16","964.0625366370842"
"680","2019-01-17","967.0349473915745"
"680","2019-01-18","986.7126135408945"
"680","2019-01-22","960.4875142080916"
"680","2019-01-23","930.2764965281958"
"680","2019-01-24","943.2251554180722"
"680","2019-01-25","947.9099902701596"
"680","2019-01-28","937.4488280162554"
"680","2019-01-29","936.2117183359728"
"680","2019-01-30","940.2064450063567"
"680","2019-01-31","914.8766817870472"
