"simulation_id","day","fund_value"
"681","2019-01-02","1000.0000000024229"
"681","2019-01-03","947.9597645022792"
"681","2019-01-04","985.8161523099939"
"681","2019-01-07","994.7000163917928"
"681","2019-01-08","1000.9559508371219"
"681","2019-01-09","996.529414336761"
"681","2019-01-10","989.7486069285321"
"681","2019-01-11","977.630944716999"
"681","2019-01-14","967.1119027051104"
"681","2019-01-15","966.4454138354115"
"681","2019-01-16","965.2414429871765"
"681","2019-01-17","967.2453723344572"
"681","2019-01-18","982.2144150404495"
"681","2019-01-22","968.8940133659227"
"681","2019-01-23","971.9534465745445"
"681","2019-01-24","984.8757092111232"
"681","2019-01-25","998.7608495563364"
"681","2019-01-28","997.1242357602812"
"681","2019-01-29","984.7439433113226"
"681","2019-01-30","992.8142839132767"
"681","2019-01-31","1010.3774912443034"
