"simulation_id","day","fund_value"
"684","2019-01-02","1000.0000000024229"
"684","2019-01-03","947.9597645022792"
"684","2019-01-04","973.9994546322056"
"684","2019-01-07","969.5041802961467"
"684","2019-01-08","989.0597681953658"
"684","2019-01-09","991.8757523610192"
"684","2019-01-10","1004.9282173312657"
"684","2019-01-11","1035.8051193844635"
"684","2019-01-14","1016.2831515765823"
"684","2019-01-15","1028.2846989785094"
"684","2019-01-16","1034.3953944505192"
"684","2019-01-17","1034.3821266636166"
"684","2019-01-18","1045.1699084480276"
"684","2019-01-22","1038.3944879951732"
"684","2019-01-23","1040.3271151363224"
"684","2019-01-24","1041.8142880778166"
"684","2019-01-25","1048.4105870005362"
"684","2019-01-28","1047.7954593922118"
"684","2019-01-29","1050.3482501259336"
"684","2019-01-30","1054.130903544089"
"684","2019-01-31","1062.5352551634928"
