"simulation_id","day","fund_value"
"685","2019-01-02","1000.0000000024229"
"685","2019-01-03","947.9597645022792"
"685","2019-01-04","987.4379657624916"
"685","2019-01-07","991.7302940275752"
"685","2019-01-08","1008.1448042300102"
"685","2019-01-09","1019.7415146470835"
"685","2019-01-10","1034.338016710019"
"685","2019-01-11","1026.7301534936491"
"685","2019-01-14","1004.3314743529729"
"685","2019-01-15","1011.4797026679246"
"685","2019-01-16","1018.1588885286225"
"685","2019-01-17","1021.1206676283178"
"685","2019-01-18","1038.9107178898853"
"685","2019-01-22","1028.116508437006"
"685","2019-01-23","1025.8364870108887"
"685","2019-01-24","1025.5026200575605"
"685","2019-01-25","1047.3683106796707"
"685","2019-01-28","1046.2232477567188"
"685","2019-01-29","1048.7722080412261"
"685","2019-01-30","1074.8158275817073"
"685","2019-01-31","1072.358263096554"
