"simulation_id","day","fund_value"
"687","2019-01-02","1000.0000000024229"
"687","2019-01-03","947.9597645022792"
"687","2019-01-04","976.819241866547"
"687","2019-01-07","987.1480176630092"
"687","2019-01-08","998.4875352677437"
"687","2019-01-09","1016.7706389229097"
"687","2019-01-10","1029.0386427705969"
"687","2019-01-11","1023.8016522722553"
"687","2019-01-14","1017.8749062915008"
"687","2019-01-15","1028.1312108004531"
"687","2019-01-16","1011.0060694939644"
"687","2019-01-17","1018.2050593667109"
"687","2019-01-18","1032.5662598004653"
"687","2019-01-22","1012.4314447714612"
"687","2019-01-23","1004.835611797593"
"687","2019-01-24","1028.9502929584426"
"687","2019-01-25","1044.7722981417955"
"687","2019-01-28","1047.0694411608454"
"687","2019-01-29","1047.6070559383384"
"687","2019-01-30","1052.976076126285"
"687","2019-01-31","1072.4580643589047"
