"simulation_id","day","fund_value"
"688","2019-01-02","1000.0000000024229"
"688","2019-01-03","947.9597645022792"
"688","2019-01-04","969.7927649485532"
"688","2019-01-07","987.7392518567585"
"688","2019-01-08","1008.6375770571394"
"688","2019-01-09","1018.0440079491822"
"688","2019-01-10","1029.8099966459158"
"688","2019-01-11","1037.5898424830773"
"688","2019-01-14","1040.0823295472242"
"688","2019-01-15","1051.918076381553"
"688","2019-01-16","1057.6485041629342"
"688","2019-01-17","1063.066322847283"
"688","2019-01-18","1078.367511460036"
"688","2019-01-22","1057.472241973066"
"688","2019-01-23","1068.1942982886176"
"688","2019-01-24","1067.4253998994395"
"688","2019-01-25","1075.9557549015535"
"688","2019-01-28","1046.048488713844"
"688","2019-01-29","1040.55922957984"
"688","2019-01-30","1044.0540341292024"
"688","2019-01-31","1027.3453898099642"
