"simulation_id","day","fund_value"
"7","2019-01-02","1000.0000000024229"
"7","2019-01-03","947.9597645022792"
"7","2019-01-04","990.4359118430266"
"7","2019-01-07","1001.9583110783285"
"7","2019-01-08","1009.2861425597793"
"7","2019-01-09","1018.4378933935689"
"7","2019-01-10","1041.2737512252943"
"7","2019-01-11","1040.6622722261684"
"7","2019-01-14","1031.7534249104372"
"7","2019-01-15","1033.3983088082616"
"7","2019-01-16","1037.4229644467391"
"7","2019-01-17","1049.2747988486835"
"7","2019-01-18","1073.442897041208"
"7","2019-01-22","1048.6073538532185"
"7","2019-01-23","1057.593779933341"
"7","2019-01-24","1068.2489222012425"
"7","2019-01-25","1042.5630112225838"
"7","2019-01-28","1041.9393995235812"
"7","2019-01-29","1042.2956208825797"
"7","2019-01-30","1063.127840761344"
"7","2019-01-31","1081.9501462144144"
