"simulation_id","day","fund_value"
"701","2019-01-02","1000.0000000024229"
"701","2019-01-03","947.9597645022792"
"701","2019-01-04","976.0348291463449"
"701","2019-01-07","977.7494678748885"
"701","2019-01-08","1000.5191262364227"
"701","2019-01-09","1017.0594926586675"
"701","2019-01-10","1025.9816667733974"
"701","2019-01-11","1040.3896558859055"
"701","2019-01-14","1041.1916491074358"
"701","2019-01-15","1040.8618670018489"
"701","2019-01-16","1041.7021511921532"
"701","2019-01-17","1041.768708190904"
"701","2019-01-18","1054.8190077231855"
"701","2019-01-22","947.604919973979"
"701","2019-01-23","935.5662914582678"
"701","2019-01-24","961.9023157685206"
"701","2019-01-25","958.0738344306865"
"701","2019-01-28","950.0575287776604"
"701","2019-01-29","942.0655264846893"
"701","2019-01-30","936.4765022018165"
"701","2019-01-31","947.4711932427778"
