"simulation_id","day","fund_value"
"709","2019-01-02","1000.0000000024229"
"709","2019-01-03","947.9597645022792"
"709","2019-01-04","962.7765704819625"
"709","2019-01-07","971.1048101354879"
"709","2019-01-08","958.0776382878354"
"709","2019-01-09","963.5745220698846"
"709","2019-01-10","974.0685466068942"
"709","2019-01-11","977.4682217788676"
"709","2019-01-14","973.8258129212423"
"709","2019-01-15","976.7652372263511"
"709","2019-01-16","986.3385682402399"
"709","2019-01-17","992.302778359228"
"709","2019-01-18","1015.2894735991671"
"709","2019-01-22","1005.5980939548331"
"709","2019-01-23","1003.0164766975765"
"709","2019-01-24","1002.8056757093789"
"709","2019-01-25","1017.3914502472279"
"709","2019-01-28","1021.7179193013369"
"709","2019-01-29","1020.6105440705953"
"709","2019-01-30","1020.6105440705953"
"709","2019-01-31","1043.6271062088945"
