"simulation_id","day","fund_value"
"71","2019-01-02","1000.0000000024229"
"71","2019-01-03","947.9597645022792"
"71","2019-01-04","1013.1744421775852"
"71","2019-01-07","1019.1252931379584"
"71","2019-01-08","1031.447533757736"
"71","2019-01-09","1025.2349388840669"
"71","2019-01-10","965.8013526690289"
"71","2019-01-11","965.0686791166287"
"71","2019-01-14","970.2885351399359"
"71","2019-01-15","1004.697266547192"
"71","2019-01-16","987.6091939352482"
"71","2019-01-17","997.0348584148073"
"71","2019-01-18","1010.8697932201763"
"71","2019-01-22","996.7282270798053"
"71","2019-01-23","1003.6634043957363"
"71","2019-01-24","1019.0234689742135"
"71","2019-01-25","1035.5419961087955"
"71","2019-01-28","1030.6401603839545"
"71","2019-01-29","1031.457954085145"
"71","2019-01-30","1052.4935721029053"
"71","2019-01-31","1060.7360046136437"
