"simulation_id","day","fund_value"
"711","2019-01-02","1000.0000000024229"
"711","2019-01-03","947.9597645022792"
"711","2019-01-04","986.6626863936823"
"711","2019-01-07","980.4412022024625"
"711","2019-01-08","993.2356029171217"
"711","2019-01-09","1004.2406783700285"
"711","2019-01-10","1014.4020739690077"
"711","2019-01-11","1018.8427075167439"
"711","2019-01-14","1010.7490079151296"
"711","2019-01-15","1015.659198946468"
"711","2019-01-16","1020.7034293991112"
"711","2019-01-17","1035.031715070314"
"711","2019-01-18","1050.3753758058388"
"711","2019-01-22","1034.2178443840935"
"711","2019-01-23","1049.7687272155235"
"711","2019-01-24","1048.1116673391666"
"711","2019-01-25","1055.5912593147527"
"711","2019-01-28","1057.300580182965"
"711","2019-01-29","1067.9598094468195"
"711","2019-01-30","1069.614987352782"
"711","2019-01-31","1078.265011303524"
