"simulation_id","day","fund_value"
"714","2019-01-02","1000.0000000024229"
"714","2019-01-03","947.9597645022792"
"714","2019-01-04","967.4345277683566"
"714","2019-01-07","1003.0318371567807"
"714","2019-01-08","1011.8011007592836"
"714","2019-01-09","1034.4056858848876"
"714","2019-01-10","1037.1109079608143"
"714","2019-01-11","1029.2798044250278"
"714","2019-01-14","1011.8583929221717"
"714","2019-01-15","1005.2941144726713"
"714","2019-01-16","1005.6751850016607"
"714","2019-01-17","1018.8099976878981"
"714","2019-01-18","1030.5127562095895"
"714","2019-01-22","1038.1081589906103"
"714","2019-01-23","1032.3327042874084"
"714","2019-01-24","1033.8816843562865"
"714","2019-01-25","1057.305342875767"
"714","2019-01-28","1066.1453043057113"
"714","2019-01-29","1077.2475870109015"
"714","2019-01-30","1086.6052059085227"
"714","2019-01-31","1102.5796587628697"
