"simulation_id","day","fund_value"
"731","2019-01-02","1000.0000000024229"
"731","2019-01-03","947.9597645022792"
"731","2019-01-04","992.5863152801685"
"731","2019-01-07","1014.4043956464559"
"731","2019-01-08","1038.6336751701988"
"731","2019-01-09","1004.5427952799811"
"731","2019-01-10","1022.6817566732961"
"731","2019-01-11","1017.6856505949447"
"731","2019-01-14","1020.2540312471758"
"731","2019-01-15","1015.8891697575998"
"731","2019-01-16","1011.773575373472"
"731","2019-01-17","1018.4588429993071"
"731","2019-01-18","1032.5488864699666"
"731","2019-01-22","1028.3937750335767"
"731","2019-01-23","1006.8108305206699"
"731","2019-01-24","1004.8526263514791"
"731","2019-01-25","1007.5103676560863"
"731","2019-01-28","1003.7399141823587"
"731","2019-01-29","994.0253665720625"
"731","2019-01-30","1001.7460846094219"
"731","2019-01-31","1021.2966671570836"
