"simulation_id","day","fund_value"
"733","2019-01-02","1000.0000000024229"
"733","2019-01-03","947.9597645022792"
"733","2019-01-04","980.1725305658654"
"733","2019-01-07","985.0355904469209"
"733","2019-01-08","1001.3068958797955"
"733","2019-01-09","997.7940494924933"
"733","2019-01-10","995.475196856185"
"733","2019-01-11","998.7083455880322"
"733","2019-01-14","984.9085627713459"
"733","2019-01-15","1001.8656953438729"
"733","2019-01-16","1003.1818120106003"
"733","2019-01-17","1020.6682512964845"
"733","2019-01-18","1042.719514109955"
"733","2019-01-22","1017.5537313803435"
"733","2019-01-23","1013.4112015721225"
"733","2019-01-24","1010.1346121087563"
"733","2019-01-25","1015.0763210182151"
"733","2019-01-28","1008.7849552382232"
"733","2019-01-29","1005.6258432323143"
"733","2019-01-30","1005.3639869238676"
"733","2019-01-31","1018.0278749750873"
