"simulation_id","day","fund_value"
"740","2019-01-02","1000.0000000024229"
"740","2019-01-03","947.9597645022792"
"740","2019-01-04","970.4176548666325"
"740","2019-01-07","981.8829813832664"
"740","2019-01-08","986.2399881059825"
"740","2019-01-09","993.6658524484263"
"740","2019-01-10","1007.3115499094681"
"740","2019-01-11","1007.6584367486746"
"740","2019-01-14","1004.3125408070531"
"740","2019-01-15","1009.2909340877387"
"740","2019-01-16","1015.4311949341428"
"740","2019-01-17","1022.3146696076095"
"740","2019-01-18","1031.6535430777376"
"740","2019-01-22","1013.0556079155004"
"740","2019-01-23","1012.7653668637721"
"740","2019-01-24","1017.2728983489451"
"740","2019-01-25","1046.3441181147527"
"740","2019-01-28","1053.9714242469595"
"740","2019-01-29","1053.5557593223075"
"740","2019-01-30","1042.3960262669534"
"740","2019-01-31","1043.2961314947902"
