"simulation_id","day","fund_value"
"743","2019-01-02","1000.0000000024229"
"743","2019-01-03","947.9597645022792"
"743","2019-01-04","960.9778959381698"
"743","2019-01-07","983.7835605030389"
"743","2019-01-08","998.3646252789827"
"743","2019-01-09","1008.7896781920904"
"743","2019-01-10","1012.3366910650954"
"743","2019-01-11","1018.0458362352484"
"743","2019-01-14","1016.4024095630401"
"743","2019-01-15","1013.839880386258"
"743","2019-01-16","1029.180345828772"
"743","2019-01-17","1036.1621502076457"
"743","2019-01-18","1051.7230155070072"
"743","2019-01-22","1044.015450541629"
"743","2019-01-23","1092.2786357639995"
"743","2019-01-24","1102.3254375311237"
"743","2019-01-25","1100.0572046448065"
"743","2019-01-28","1103.094596735612"
"743","2019-01-29","1106.7937920298061"
"743","2019-01-30","1122.2631517118193"
"743","2019-01-31","1122.0860362525952"
