"simulation_id","day","fund_value"
"746","2019-01-02","1000.0000000024229"
"746","2019-01-03","947.9597645022792"
"746","2019-01-04","979.9783759606339"
"746","2019-01-07","990.3667427686422"
"746","2019-01-08","1020.2748667781277"
"746","2019-01-09","1024.4802589471237"
"746","2019-01-10","1033.3516353210061"
"746","2019-01-11","1039.339595885518"
"746","2019-01-14","1046.4635759839925"
"746","2019-01-15","1063.9241147571997"
"746","2019-01-16","1062.0382412526408"
"746","2019-01-17","1072.5815159939393"
"746","2019-01-18","1090.183505146835"
"746","2019-01-22","1081.7233510003516"
"746","2019-01-23","1071.7412909520826"
"746","2019-01-24","1083.8773487763385"
"746","2019-01-25","1101.4549875087962"
"746","2019-01-28","1108.7874514414743"
"746","2019-01-29","1120.0359054977544"
"746","2019-01-30","1129.795767559516"
"746","2019-01-31","1132.1280271633832"
