"simulation_id","day","fund_value"
"75","2019-01-02","1000.0000000024229"
"75","2019-01-03","947.9597645022792"
"75","2019-01-04","982.4341326699813"
"75","2019-01-07","997.0917191941318"
"75","2019-01-08","1011.4985549781329"
"75","2019-01-09","1008.96751283036"
"75","2019-01-10","1013.2673212826658"
"75","2019-01-11","1015.2957299403233"
"75","2019-01-14","1002.105233579178"
"75","2019-01-15","1008.1249232916191"
"75","2019-01-16","1010.418334722061"
"75","2019-01-17","1019.4510365526165"
"75","2019-01-18","1034.0210270311277"
"75","2019-01-22","1036.3198006515088"
"75","2019-01-23","1033.4574334225492"
"75","2019-01-24","1035.0182135784291"
"75","2019-01-25","1031.4722499302898"
"75","2019-01-28","1026.5728857081194"
"75","2019-01-29","1031.068452637298"
"75","2019-01-30","1045.9882220037057"
"75","2019-01-31","1035.382391908088"
