"simulation_id","day","fund_value"
"753","2019-01-02","1000.0000000024229"
"753","2019-01-03","947.9597645022792"
"753","2019-01-04","992.7132297792107"
"753","2019-01-07","1010.4430046567797"
"753","2019-01-08","1032.0189410126977"
"753","2019-01-09","1051.5600878988719"
"753","2019-01-10","1051.779597641702"
"753","2019-01-11","1055.5819072720067"
"753","2019-01-14","1058.4264729210927"
"753","2019-01-15","1070.5159540746688"
"753","2019-01-16","1075.9892108939896"
"753","2019-01-17","1098.3746125515768"
"753","2019-01-18","1115.0749270325605"
"753","2019-01-22","1107.3383166838128"
"753","2019-01-23","1112.8667952869991"
"753","2019-01-24","1097.462301490923"
"753","2019-01-25","1116.7298214119012"
"753","2019-01-28","1119.8697998584257"
"753","2019-01-29","1118.7192100276443"
"753","2019-01-30","1142.1211900392752"
"753","2019-01-31","1127.076311736161"
