"simulation_id","day","fund_value"
"755","2019-01-02","1000.0000000024229"
"755","2019-01-03","947.9597645022792"
"755","2019-01-04","988.7904889891556"
"755","2019-01-07","1002.6970559496738"
"755","2019-01-08","1014.2198671409302"
"755","2019-01-09","1043.4261107308203"
"755","2019-01-10","1057.1751688608556"
"755","2019-01-11","1060.8722122904744"
"755","2019-01-14","1049.1892183058355"
"755","2019-01-15","1061.970466622045"
"755","2019-01-16","1049.34024135865"
"755","2019-01-17","1069.6353567110982"
"755","2019-01-18","1075.7956917779372"
"755","2019-01-22","1065.963851026067"
"755","2019-01-23","1049.3610733325197"
"755","2019-01-24","1053.821901960734"
"755","2019-01-25","1067.9606182026316"
"755","2019-01-28","1069.198808615462"
"755","2019-01-29","1067.0754535622698"
"755","2019-01-30","1053.3684426859097"
"755","2019-01-31","1064.2563718213705"
