"simulation_id","day","fund_value"
"758","2019-01-02","1000.0000000024229"
"758","2019-01-03","947.9597645022792"
"758","2019-01-04","967.6139791991185"
"758","2019-01-07","1022.8277075867553"
"758","2019-01-08","1030.9174425552765"
"758","2019-01-09","1047.9970573054545"
"758","2019-01-10","1047.8809945779974"
"758","2019-01-11","1080.0776413384167"
"758","2019-01-14","1077.0000117473874"
"758","2019-01-15","1083.5888646919602"
"758","2019-01-16","1089.0863352663523"
"758","2019-01-17","1098.9878767577952"
"758","2019-01-18","1107.3734366209042"
"758","2019-01-22","1097.3362362192506"
"758","2019-01-23","1100.5136948586135"
"758","2019-01-24","1131.0469679410767"
"758","2019-01-25","1140.209549697739"
"758","2019-01-28","1145.02111470568"
"758","2019-01-29","1141.5629011809037"
"758","2019-01-30","1153.5996277719591"
"758","2019-01-31","1202.7271789345327"
