"simulation_id","day","fund_value"
"764","2019-01-02","1000.0000000024229"
"764","2019-01-03","947.9597645022792"
"764","2019-01-04","984.4187512624698"
"764","2019-01-07","1001.4093788365441"
"764","2019-01-08","1006.3990471757769"
"764","2019-01-09","1005.1491011484243"
"764","2019-01-10","1017.9962846557889"
"764","2019-01-11","1028.681794600123"
"764","2019-01-14","1026.6518354593236"
"764","2019-01-15","1022.4552605847271"
"764","2019-01-16","1025.644653655708"
"764","2019-01-17","1035.8494276809095"
"764","2019-01-18","1063.1704690144031"
"764","2019-01-22","1058.379818982876"
"764","2019-01-23","1064.9536868344433"
"764","2019-01-24","1070.4795403948146"
"764","2019-01-25","1076.2059972119064"
"764","2019-01-28","1072.3852617001828"
"764","2019-01-29","1077.4514642438166"
"764","2019-01-30","1090.0482847225073"
"764","2019-01-31","1094.4527044009078"
