"simulation_id","day","fund_value"
"771","2019-01-02","1000.0000000024229"
"771","2019-01-03","947.9597645022792"
"771","2019-01-04","984.1092261640181"
"771","2019-01-07","985.9984715785597"
"771","2019-01-08","995.7872018575717"
"771","2019-01-09","1000.6264236984562"
"771","2019-01-10","1008.026036541472"
"771","2019-01-11","1004.5022177172232"
"771","2019-01-14","1003.9944513669902"
"771","2019-01-15","1016.2297179269494"
"771","2019-01-16","1002.3448138732475"
"771","2019-01-17","1014.1125613236612"
"771","2019-01-18","1031.026893934078"
"771","2019-01-22","974.1879932173503"
"771","2019-01-23","967.9856972644831"
"771","2019-01-24","975.5144749098735"
"771","2019-01-25","978.6789927102441"
"771","2019-01-28","961.5065348023545"
"771","2019-01-29","965.1696595036047"
"771","2019-01-30","968.0448278573808"
"771","2019-01-31","978.1303144664171"
