"simulation_id","day","fund_value"
"772","2019-01-02","1000.0000000024229"
"772","2019-01-03","947.9597645022792"
"772","2019-01-04","924.442522873564"
"772","2019-01-07","941.2414228974778"
"772","2019-01-08","955.0633228044261"
"772","2019-01-09","957.758781573175"
"772","2019-01-10","967.8484665404733"
"772","2019-01-11","976.1071883437025"
"772","2019-01-14","983.3554247943198"
"772","2019-01-15","982.7790011458013"
"772","2019-01-16","992.6842004835806"
"772","2019-01-17","1005.213884832661"
"772","2019-01-18","1013.0094858442392"
"772","2019-01-22","1000.2640498507219"
"772","2019-01-23","994.6805594226441"
"772","2019-01-24","1008.6122939744703"
"772","2019-01-25","1010.8011879234217"
"772","2019-01-28","1007.930205402234"
"772","2019-01-29","995.2477881093437"
"772","2019-01-30","1034.1336372362148"
"772","2019-01-31","1052.6006018151488"
