"simulation_id","day","fund_value"
"780","2019-01-02","1000.0000000024229"
"780","2019-01-03","947.9597645022792"
"780","2019-01-04","984.4244098194298"
"780","2019-01-07","996.2252685520857"
"780","2019-01-08","1004.0664025144785"
"780","2019-01-09","1014.0126348449315"
"780","2019-01-10","1018.5289620653058"
"780","2019-01-11","1018.5289620653058"
"780","2019-01-14","1018.5289620653058"
"780","2019-01-15","1001.3999292879715"
"780","2019-01-16","995.9769364326141"
"780","2019-01-17","1004.4912790133852"
"780","2019-01-18","1016.7143496599845"
"780","2019-01-22","1017.533895146166"
"780","2019-01-23","1019.3662352695497"
"780","2019-01-24","1012.743634291315"
"780","2019-01-25","1023.4979297597166"
"780","2019-01-28","1024.3946715957084"
"780","2019-01-29","1047.5157675086277"
"780","2019-01-30","1073.6218359535096"
"780","2019-01-31","1089.1364898830261"
