"simulation_id","day","fund_value"
"787","2019-01-02","1000.0000000024229"
"787","2019-01-03","947.9597645022792"
"787","2019-01-04","977.884699142575"
"787","2019-01-07","986.2072877732559"
"787","2019-01-08","993.1874068912123"
"787","2019-01-09","1008.4543571259029"
"787","2019-01-10","1021.2518844700168"
"787","2019-01-11","1018.8598878414296"
"787","2019-01-14","1018.6142846235449"
"787","2019-01-15","1021.2958707779993"
"787","2019-01-16","1018.7588941032616"
"787","2019-01-17","1023.5684143302431"
"787","2019-01-18","1048.1674622233115"
"787","2019-01-22","1040.249407859518"
"787","2019-01-23","1063.784497421243"
"787","2019-01-24","1066.3552446117262"
"787","2019-01-25","1080.08536997983"
"787","2019-01-28","1070.9231603708722"
"787","2019-01-29","1075.6601760203712"
"787","2019-01-30","1078.5531482782226"
"787","2019-01-31","1093.5804920814062"
