"simulation_id","day","fund_value"
"795","2019-01-02","1000.0000000024229"
"795","2019-01-03","947.9597645022792"
"795","2019-01-04","980.1779682593104"
"795","2019-01-07","1004.17342297189"
"795","2019-01-08","1025.6164835143918"
"795","2019-01-09","1020.102139485603"
"795","2019-01-10","1009.9678600905647"
"795","2019-01-11","1011.7559050840568"
"795","2019-01-14","1003.4130897147281"
"795","2019-01-15","1003.1539641547528"
"795","2019-01-16","1000.1786239686403"
"795","2019-01-17","1007.1523470990516"
"795","2019-01-18","1033.6546358862902"
"795","2019-01-22","1019.7113910381308"
"795","2019-01-23","1029.9944143010684"
"795","2019-01-24","1010.8939057038572"
"795","2019-01-25","1023.3468433877031"
"795","2019-01-28","1020.8349463554688"
"795","2019-01-29","1015.668014173364"
"795","2019-01-30","1036.285944996359"
"795","2019-01-31","1056.9898852694107"
