"simulation_id","day","fund_value"
"80","2019-01-02","1000.0000000024229"
"80","2019-01-03","947.9597645022792"
"80","2019-01-04","979.941283534025"
"80","2019-01-07","1006.2704091664552"
"80","2019-01-08","1022.5529881532834"
"80","2019-01-09","1018.2303977747528"
"80","2019-01-10","1026.7134139228388"
"80","2019-01-11","1021.8546022672897"
"80","2019-01-14","1017.7453345228989"
"80","2019-01-15","1028.6925225963025"
"80","2019-01-16","1029.1332093238752"
"80","2019-01-17","1049.1232898792896"
"80","2019-01-18","1062.2212652490866"
"80","2019-01-22","1030.3987557715227"
"80","2019-01-23","1026.1340333228559"
"80","2019-01-24","1036.2910103291242"
"80","2019-01-25","1033.9252957093595"
"80","2019-01-28","1029.080390638578"
"80","2019-01-29","1025.364559982213"
"80","2019-01-30","1034.657642944724"
"80","2019-01-31","1046.3341813804811"
