"simulation_id","day","fund_value"
"800","2019-01-02","1000.0000000024229"
"800","2019-01-03","947.9597645022792"
"800","2019-01-04","977.181922491246"
"800","2019-01-07","980.3294461154658"
"800","2019-01-08","997.3505230152181"
"800","2019-01-09","998.2618446241502"
"800","2019-01-10","1006.1615072342332"
"800","2019-01-11","1011.1870131744898"
"800","2019-01-14","1002.4881258955199"
"800","2019-01-15","1011.1343336137006"
"800","2019-01-16","1006.9625869769169"
"800","2019-01-17","1015.2195414926291"
"800","2019-01-18","1031.4518535618088"
"800","2019-01-22","1020.9724045934713"
"800","2019-01-23","1022.6837942067981"
"800","2019-01-24","1016.8345959068603"
"800","2019-01-25","1026.1218841118782"
"800","2019-01-28","1015.0673411378173"
"800","2019-01-29","1007.4992027767419"
"800","2019-01-30","1023.6902494332194"
"800","2019-01-31","1029.9733223978742"
