"simulation_id","day","fund_value"
"801","2019-01-02","1000.0000000024229"
"801","2019-01-03","947.9597645022792"
"801","2019-01-04","959.6231597315891"
"801","2019-01-07","966.1062431244981"
"801","2019-01-08","987.4133173830866"
"801","2019-01-09","989.2052269868067"
"801","2019-01-10","1008.0844308488071"
"801","2019-01-11","1021.092627697746"
"801","2019-01-14","1011.451511506684"
"801","2019-01-15","1019.1627261460058"
"801","2019-01-16","1011.8100440911279"
"801","2019-01-17","1019.688698312622"
"801","2019-01-18","1025.9220533007995"
"801","2019-01-22","1033.3070659555951"
"801","2019-01-23","1025.8551891840225"
"801","2019-01-24","1030.5547442628683"
"801","2019-01-25","1044.8570135856396"
"801","2019-01-28","1038.214532696348"
"801","2019-01-29","1066.1958802577276"
"801","2019-01-30","1045.0938211591083"
"801","2019-01-31","1045.0596266356238"
