"simulation_id","day","fund_value"
"808","2019-01-02","1000.0000000024229"
"808","2019-01-03","947.9597645022792"
"808","2019-01-04","973.2002343313283"
"808","2019-01-07","1016.3447817423383"
"808","2019-01-08","1037.3048936021696"
"808","2019-01-09","1039.5147300368742"
"808","2019-01-10","1047.0265899440758"
"808","2019-01-11","1045.966518058041"
"808","2019-01-14","1047.8712106002415"
"808","2019-01-15","1051.353751728448"
"808","2019-01-16","1057.2052449833627"
"808","2019-01-17","1062.609952387444"
"808","2019-01-18","1073.4842861644618"
"808","2019-01-22","1058.8579171672936"
"808","2019-01-23","1062.6508220964552"
"808","2019-01-24","1059.7722904167242"
"808","2019-01-25","1074.962058724561"
"808","2019-01-28","1069.383425869724"
"808","2019-01-29","1060.5154781912324"
"808","2019-01-30","1082.1965029211656"
"808","2019-01-31","1078.6636198756164"
