"simulation_id","day","fund_value"
"819","2019-01-02","1000.0000000024229"
"819","2019-01-03","947.9597645022792"
"819","2019-01-04","980.2854542200112"
"819","2019-01-07","995.7351388232826"
"819","2019-01-08","992.6839255560394"
"819","2019-01-09","982.8512150915146"
"819","2019-01-10","980.9558999282089"
"819","2019-01-11","972.846514676322"
"819","2019-01-14","967.7619751559254"
"819","2019-01-15","972.0956105331239"
"819","2019-01-16","969.7065622525273"
"819","2019-01-17","972.0844072390389"
"819","2019-01-18","999.6572484490903"
"819","2019-01-22","982.0074668623697"
"819","2019-01-23","984.6789828998067"
"819","2019-01-24","982.5295574805923"
"819","2019-01-25","1025.2375642828122"
"819","2019-01-28","1021.6452139003111"
"819","2019-01-29","1025.5643622542186"
"819","2019-01-30","1015.3721660680942"
"819","2019-01-31","1029.5544371645867"
