"simulation_id","day","fund_value"
"823","2019-01-02","1000.0000000024229"
"823","2019-01-03","947.9597645022792"
"823","2019-01-04","986.1893390583402"
"823","2019-01-07","981.666815358079"
"823","2019-01-08","984.8692251233053"
"823","2019-01-09","1004.870462861262"
"823","2019-01-10","1019.6018111891196"
"823","2019-01-11","1021.8267629905067"
"823","2019-01-14","1013.3128804966772"
"823","2019-01-15","1025.303729223886"
"823","2019-01-16","1016.5129528644572"
"823","2019-01-17","1025.9680829785532"
"823","2019-01-18","1034.3369058215176"
"823","2019-01-22","1019.3138570804642"
"823","2019-01-23","1020.2803901257412"
"823","2019-01-24","1027.2566466980252"
"823","2019-01-25","1037.329432202478"
"823","2019-01-28","1047.4411021755943"
"823","2019-01-29","1032.3868940518773"
"823","2019-01-30","1044.6217813636413"
"823","2019-01-31","1033.7970240676882"
