"simulation_id","day","fund_value"
"832","2019-01-02","1000.0000000024229"
"832","2019-01-03","947.9597645022792"
"832","2019-01-04","969.2506360117318"
"832","2019-01-07","979.3954881415027"
"832","2019-01-08","969.7038713500335"
"832","2019-01-09","971.5589827114318"
"832","2019-01-10","989.0144801053027"
"832","2019-01-11","988.9775467041661"
"832","2019-01-14","986.1535026559295"
"832","2019-01-15","995.268161680416"
"832","2019-01-16","996.7557498427096"
"832","2019-01-17","1006.1283577130764"
"832","2019-01-18","1061.1976154100532"
"832","2019-01-22","1051.1485266741472"
"832","2019-01-23","1042.7465285838916"
"832","2019-01-24","1033.2538911920324"
"832","2019-01-25","1061.5289632189135"
"832","2019-01-28","1062.2555637572837"
"832","2019-01-29","1063.238291848852"
"832","2019-01-30","1060.4854449202169"
"832","2019-01-31","1054.4651439087274"
