"simulation_id","day","fund_value"
"833","2019-01-02","1000.0000000024229"
"833","2019-01-03","947.9597645022792"
"833","2019-01-04","979.6370824367964"
"833","2019-01-07","985.5625857401114"
"833","2019-01-08","994.2189602245005"
"833","2019-01-09","996.9946749747628"
"833","2019-01-10","993.4443916367521"
"833","2019-01-11","990.9069101867868"
"833","2019-01-14","976.1589284028436"
"833","2019-01-15","977.6447106378554"
"833","2019-01-16","988.4992225674641"
"833","2019-01-17","998.4584770133947"
"833","2019-01-18","1016.7328688865663"
"833","2019-01-22","996.9659016330334"
"833","2019-01-23","988.9698886953128"
"833","2019-01-24","992.8457037609752"
"833","2019-01-25","1005.3351050148923"
"833","2019-01-28","1003.092729550653"
"833","2019-01-29","1007.0305640461509"
"833","2019-01-30","1031.9593586220515"
"833","2019-01-31","1040.543091849097"
