"simulation_id","day","fund_value"
"834","2019-01-02","1000.0000000024229"
"834","2019-01-03","947.9597645022792"
"834","2019-01-04","980.322717536471"
"834","2019-01-07","983.7278521977717"
"834","2019-01-08","990.8220893220717"
"834","2019-01-09","997.2445239335458"
"834","2019-01-10","1011.8200230363268"
"834","2019-01-11","1012.6867597904827"
"834","2019-01-14","1006.280931865293"
"834","2019-01-15","1030.051205595114"
"834","2019-01-16","1029.2723423497882"
"834","2019-01-17","1032.5216624513816"
"834","2019-01-18","1051.5239085567214"
"834","2019-01-22","1038.7151735070572"
"834","2019-01-23","1054.345073315942"
"834","2019-01-24","1061.5722767035834"
"834","2019-01-25","1077.0608808023562"
"834","2019-01-28","1075.2925241297844"
"834","2019-01-29","1073.1863261990939"
"834","2019-01-30","1081.438081643311"
"834","2019-01-31","1081.6061027472308"
