"simulation_id","day","fund_value"
"836","2019-01-02","1000.0000000024229"
"836","2019-01-03","947.9597645022792"
"836","2019-01-04","1012.8814124934985"
"836","2019-01-07","1021.6315154533361"
"836","2019-01-08","1045.081204886595"
"836","2019-01-09","1044.6228766502288"
"836","2019-01-10","1052.072160896989"
"836","2019-01-11","1053.5175916447204"
"836","2019-01-14","1065.3453640827536"
"836","2019-01-15","1081.035359719651"
"836","2019-01-16","1083.14519591681"
"836","2019-01-17","1082.672137197621"
"836","2019-01-18","1092.294167393789"
"836","2019-01-22","1079.3679559234192"
"836","2019-01-23","1059.2109290216322"
"836","2019-01-24","1056.4010625911055"
"836","2019-01-25","1043.1781767866896"
"836","2019-01-28","1052.6880871890558"
"836","2019-01-29","1050.4017940180818"
"836","2019-01-30","1047.9491136593974"
"836","2019-01-31","1056.8294807495745"
