"simulation_id","day","fund_value"
"838","2019-01-02","1000.0000000024229"
"838","2019-01-03","947.9597645022792"
"838","2019-01-04","986.8642283636971"
"838","2019-01-07","998.0620959505461"
"838","2019-01-08","1002.9196954782292"
"838","2019-01-09","1016.7909224478487"
"838","2019-01-10","1030.4276749492574"
"838","2019-01-11","1030.4732059941393"
"838","2019-01-14","1027.467490198006"
"838","2019-01-15","1028.7425801091626"
"838","2019-01-16","1029.340322130695"
"838","2019-01-17","1038.813411130643"
"838","2019-01-18","1061.3145708316526"
"838","2019-01-22","1046.587448049759"
"838","2019-01-23","1059.4222844372966"
"838","2019-01-24","1054.4610873979805"
"838","2019-01-25","1058.5771511157998"
"838","2019-01-28","1051.4762847199995"
"838","2019-01-29","1045.1133988072463"
"838","2019-01-30","1056.5073846222163"
"838","2019-01-31","1072.136063201181"
