"simulation_id","day","fund_value"
"839","2019-01-02","1000.0000000024229"
"839","2019-01-03","947.9597645022792"
"839","2019-01-04","981.6245918593687"
"839","2019-01-07","992.3104967234084"
"839","2019-01-08","1001.9649727449785"
"839","2019-01-09","1003.357268849144"
"839","2019-01-10","1007.9448412619655"
"839","2019-01-11","1013.9333691334658"
"839","2019-01-14","1008.2737851714988"
"839","2019-01-15","1021.0100232664662"
"839","2019-01-16","1017.8154659632382"
"839","2019-01-17","1040.497394077956"
"839","2019-01-18","1051.763939142063"
"839","2019-01-22","1028.6815479261645"
"839","2019-01-23","1021.0140988380767"
"839","2019-01-24","1030.9037162160446"
"839","2019-01-25","1058.1435400187156"
"839","2019-01-28","1054.2165027166752"
"839","2019-01-29","1134.4804384784316"
"839","2019-01-30","1144.9662029325"
"839","2019-01-31","1145.0558026836406"
