"simulation_id","day","fund_value"
"844","2019-01-02","1000.0000000024229"
"844","2019-01-03","947.9597645022792"
"844","2019-01-04","988.2991776016904"
"844","2019-01-07","1004.4203228092631"
"844","2019-01-08","1019.8168901581986"
"844","2019-01-09","1031.9805659686872"
"844","2019-01-10","1036.5178096678774"
"844","2019-01-11","1042.329974433581"
"844","2019-01-14","1037.3196898698802"
"844","2019-01-15","1043.299726166787"
"844","2019-01-16","1047.3874282001445"
"844","2019-01-17","1060.3090849873765"
"844","2019-01-18","1069.1701259962979"
"844","2019-01-22","1053.5983123943379"
"844","2019-01-23","1048.6831007390183"
"844","2019-01-24","1044.7877465009863"
"844","2019-01-25","1061.0114449143562"
"844","2019-01-28","1070.8390730056767"
"844","2019-01-29","1065.6070448497653"
"844","2019-01-30","1079.1227989367069"
"844","2019-01-31","1066.2710832177252"
