"simulation_id","day","fund_value"
"847","2019-01-02","1000.0000000024229"
"847","2019-01-03","947.9597645022792"
"847","2019-01-04","989.6605780823651"
"847","2019-01-07","1013.7149623380697"
"847","2019-01-08","1023.8550670589248"
"847","2019-01-09","1039.1185409748305"
"847","2019-01-10","1052.3024722085056"
"847","2019-01-11","1063.3394914013975"
"847","2019-01-14","1030.0345096737647"
"847","2019-01-15","1030.0725486246006"
"847","2019-01-16","1033.3651984948335"
"847","2019-01-17","1030.2165987960054"
"847","2019-01-18","1032.1628328927056"
"847","2019-01-22","1011.0634755138498"
"847","2019-01-23","1009.4522421085572"
"847","2019-01-24","1014.7383216060651"
"847","2019-01-25","1037.8573998665727"
"847","2019-01-28","1035.2349479753066"
"847","2019-01-29","1041.5144917131627"
"847","2019-01-30","1051.763827023969"
"847","2019-01-31","1062.8867703771946"
