"simulation_id","day","fund_value"
"860","2019-01-02","1000.0000000024229"
"860","2019-01-03","947.9597645022792"
"860","2019-01-04","974.165180794104"
"860","2019-01-07","982.4208507485597"
"860","2019-01-08","998.2622233858632"
"860","2019-01-09","1017.211448396686"
"860","2019-01-10","1025.850390654779"
"860","2019-01-11","1023.9971514796549"
"860","2019-01-14","1022.5793248150794"
"860","2019-01-15","1044.5390169826062"
"860","2019-01-16","1042.6096392723973"
"860","2019-01-17","1058.1170325907885"
"860","2019-01-18","1068.741790219511"
"860","2019-01-22","1063.8364727163669"
"860","2019-01-23","1058.7141781393173"
"860","2019-01-24","1048.1032949816363"
"860","2019-01-25","1044.1254793277453"
"860","2019-01-28","1036.7435538859665"
"860","2019-01-29","1047.808607257978"
"860","2019-01-30","1078.545799601354"
"860","2019-01-31","1091.009157131361"
