"simulation_id","day","fund_value"
"866","2019-01-02","1000.0000000024229"
"866","2019-01-03","947.9597645022792"
"866","2019-01-04","995.3273223971015"
"866","2019-01-07","1031.3879418138313"
"866","2019-01-08","1051.2434011224022"
"866","2019-01-09","1054.589588156031"
"866","2019-01-10","1046.3412801700415"
"866","2019-01-11","1053.899884296513"
"866","2019-01-14","1035.7802576377321"
"866","2019-01-15","1038.5922552468708"
"866","2019-01-16","1045.3773398319754"
"866","2019-01-17","1079.5248759680258"
"866","2019-01-18","1078.4597707372845"
"866","2019-01-22","1080.74191532727"
"866","2019-01-23","1092.7650737848726"
"866","2019-01-24","1115.0665665652075"
"866","2019-01-25","1111.9983423640756"
"866","2019-01-28","1115.211858101313"
"866","2019-01-29","1115.0685319560016"
"866","2019-01-30","1078.5894681811287"
"866","2019-01-31","1096.6819944757733"
