"simulation_id","day","fund_value"
"881","2019-01-02","1000.0000000024229"
"881","2019-01-03","947.9597645022792"
"881","2019-01-04","992.8408772971036"
"881","2019-01-07","1003.3758768550256"
"881","2019-01-08","1016.4576650234015"
"881","2019-01-09","1021.8468578054603"
"881","2019-01-10","1028.952549282435"
"881","2019-01-11","1032.816916062237"
"881","2019-01-14","1003.4593966671835"
"881","2019-01-15","1008.6509040061298"
"881","2019-01-16","1024.980488594216"
"881","2019-01-17","1040.6893611647265"
"881","2019-01-18","1053.297598930098"
"881","2019-01-22","1047.4410382915635"
"881","2019-01-23","1056.9385553176658"
"881","2019-01-24","1057.9018734402148"
"881","2019-01-25","1045.7142516869603"
"881","2019-01-28","1040.998331609679"
"881","2019-01-29","1031.6085696657838"
"881","2019-01-30","1028.8613485321648"
"881","2019-01-31","1040.2669825267467"
