"simulation_id","day","fund_value"
"890","2019-01-02","1000.0000000024229"
"890","2019-01-03","947.9597645022792"
"890","2019-01-04","1000.545887333106"
"890","2019-01-07","1004.8298353574611"
"890","2019-01-08","1012.5868710526926"
"890","2019-01-09","1011.7295008324941"
"890","2019-01-10","1007.8778630412469"
"890","2019-01-11","1011.0071010743208"
"890","2019-01-14","1012.5991568395996"
"890","2019-01-15","1017.6188905949189"
"890","2019-01-16","1013.3900459109271"
"890","2019-01-17","997.395695899339"
"890","2019-01-18","1012.7397737866287"
"890","2019-01-22","996.0821419813199"
"890","2019-01-23","1001.4701909793691"
"890","2019-01-24","1007.7741315546248"
"890","2019-01-25","1017.8080395886504"
"890","2019-01-28","1001.6003138523656"
"890","2019-01-29","992.9826984854334"
"890","2019-01-30","1006.2272406065441"
"890","2019-01-31","1022.2051598982785"
