"simulation_id","day","fund_value"
"898","2019-01-02","1000.0000000024229"
"898","2019-01-03","947.9597645022792"
"898","2019-01-04","979.9395724856419"
"898","2019-01-07","976.3654511465463"
"898","2019-01-08","988.7340170466907"
"898","2019-01-09","978.351587709858"
"898","2019-01-10","933.2602874653921"
"898","2019-01-11","934.4031025161719"
"898","2019-01-14","921.278086697947"
"898","2019-01-15","924.174557018166"
"898","2019-01-16","929.0440665432966"
"898","2019-01-17","934.543997327862"
"898","2019-01-18","950.7592558429709"
"898","2019-01-22","940.7323613896776"
"898","2019-01-23","941.5101426710255"
"898","2019-01-24","945.2035547377764"
"898","2019-01-25","960.5035931145148"
"898","2019-01-28","959.5516411076062"
"898","2019-01-29","964.8444479937721"
"898","2019-01-30","982.8764822437624"
"898","2019-01-31","1009.0027630300931"
