"simulation_id","day","fund_value"
"9","2019-01-02","1000.0000000024229"
"9","2019-01-03","947.9597645022792"
"9","2019-01-04","977.9839882621283"
"9","2019-01-07","984.6026034150691"
"9","2019-01-08","997.915187454109"
"9","2019-01-09","1015.2857092215004"
"9","2019-01-10","1025.0816276399419"
"9","2019-01-11","1019.2025715262434"
"9","2019-01-14","1000.5470011250984"
"9","2019-01-15","986.0895675741401"
"9","2019-01-16","997.5507894099136"
"9","2019-01-17","1010.5899789782196"
"9","2019-01-18","1024.2719958622642"
"9","2019-01-22","1021.9010035752004"
"9","2019-01-23","1021.1376410045924"
"9","2019-01-24","1023.3927995714148"
"9","2019-01-25","1025.2640403644998"
"9","2019-01-28","1019.6716889257422"
"9","2019-01-29","1020.8710884045735"
"9","2019-01-30","1042.8468668179685"
"9","2019-01-31","1045.509430075628"
