"simulation_id","day","fund_value"
"904","2019-01-02","1000.0000000024229"
"904","2019-01-03","947.9597645022792"
"904","2019-01-04","994.2779571947957"
"904","2019-01-07","998.7376061201144"
"904","2019-01-08","1012.740634153613"
"904","2019-01-09","999.4654797533302"
"904","2019-01-10","1021.8759298666041"
"904","2019-01-11","1025.042517564721"
"904","2019-01-14","1014.1207701028773"
"904","2019-01-15","1010.10973777673"
"904","2019-01-16","1016.6772708652985"
"904","2019-01-17","1031.3979474296711"
"904","2019-01-18","1049.56703026072"
"904","2019-01-22","1038.578239372292"
"904","2019-01-23","1029.9057819782922"
"904","2019-01-24","1032.2306710387963"
"904","2019-01-25","1045.6278032816424"
"904","2019-01-28","1042.0056585060295"
"904","2019-01-29","1066.0684892869547"
"904","2019-01-30","1074.0379964712424"
"904","2019-01-31","1077.3929654767458"
