"simulation_id","day","fund_value"
"908","2019-01-02","1000.0000000024229"
"908","2019-01-03","947.9597645022792"
"908","2019-01-04","975.5606727234893"
"908","2019-01-07","982.2977432273909"
"908","2019-01-08","1000.5245752472925"
"908","2019-01-09","1021.4709278142705"
"908","2019-01-10","1020.9629622913919"
"908","2019-01-11","1092.9874348790918"
"908","2019-01-14","1090.8812351832944"
"908","2019-01-15","1099.5693077649053"
"908","2019-01-16","1108.006223462328"
"908","2019-01-17","1117.0123249034673"
"908","2019-01-18","1113.8907275755314"
"908","2019-01-22","1086.4976106541228"
"908","2019-01-23","1065.594310875696"
"908","2019-01-24","1061.8019862544093"
"908","2019-01-25","1076.0231901572174"
"908","2019-01-28","1074.6761054250092"
"908","2019-01-29","1084.4990414663816"
"908","2019-01-30","1170.9300699565456"
"908","2019-01-31","1182.375248567142"
