"simulation_id","day","fund_value"
"916","2019-01-02","1000.0000000024229"
"916","2019-01-03","947.9597645022792"
"916","2019-01-04","980.6736186107299"
"916","2019-01-07","991.2915854173532"
"916","2019-01-08","1000.4133622778475"
"916","2019-01-09","1015.9225552424919"
"916","2019-01-10","1023.5276507993615"
"916","2019-01-11","1024.5740298635765"
"916","2019-01-14","1024.5195348634309"
"916","2019-01-15","1039.2354228826375"
"916","2019-01-16","1051.5454641410215"
"916","2019-01-17","1058.8974897592302"
"916","2019-01-18","1074.309215012841"
"916","2019-01-22","1076.7909230236464"
"916","2019-01-23","1087.2207519608637"
"916","2019-01-24","1096.0655951235917"
"916","2019-01-25","1101.449073484312"
"916","2019-01-28","1103.321136775525"
"916","2019-01-29","1107.809954171003"
"916","2019-01-30","1087.2985137086605"
"916","2019-01-31","1090.7063271538213"
