"simulation_id","day","fund_value"
"925","2019-01-02","1000.0000000024229"
"925","2019-01-03","947.9597645022792"
"925","2019-01-04","979.4343266713931"
"925","2019-01-07","985.446639112229"
"925","2019-01-08","993.3473736567194"
"925","2019-01-09","1005.9538218186069"
"925","2019-01-10","1015.4358244181834"
"925","2019-01-11","1021.3080249688284"
"925","2019-01-14","1014.1278504400823"
"925","2019-01-15","1010.0864111291138"
"925","2019-01-16","1074.2741682895353"
"925","2019-01-17","1079.1416970885116"
"925","2019-01-18","1094.2664738535443"
"925","2019-01-22","1078.1730518145878"
"925","2019-01-23","1070.8047842819656"
"925","2019-01-24","1076.1971088632636"
"925","2019-01-25","1069.0730374742134"
"925","2019-01-28","1065.7506848769972"
"925","2019-01-29","1066.3289196725184"
"925","2019-01-30","1055.4357444494115"
"925","2019-01-31","1062.7075824260344"
