"simulation_id","day","fund_value"
"929","2019-01-02","1000.0000000024229"
"929","2019-01-03","947.9597645022792"
"929","2019-01-04","993.0354445318549"
"929","2019-01-07","1007.4706561085427"
"929","2019-01-08","1022.5517186776855"
"929","2019-01-09","1026.648998205363"
"929","2019-01-10","1037.3877728253528"
"929","2019-01-11","1039.2679228681661"
"929","2019-01-14","1037.8611304175831"
"929","2019-01-15","1032.2339606152514"
"929","2019-01-16","1035.1555222640166"
"929","2019-01-17","1043.4531782588508"
"929","2019-01-18","1095.1365473728015"
"929","2019-01-22","1099.2212906422396"
"929","2019-01-23","1099.131866626989"
"929","2019-01-24","1092.1725932901247"
"929","2019-01-25","1089.4019940853484"
"929","2019-01-28","1090.739022895753"
"929","2019-01-29","1093.2823494394531"
"929","2019-01-30","1126.6504822538445"
"929","2019-01-31","1124.9666394196602"
