"simulation_id","day","fund_value"
"939","2019-01-02","1000.0000000024229"
"939","2019-01-03","947.9597645022792"
"939","2019-01-04","982.1153824599015"
"939","2019-01-07","994.1684350516973"
"939","2019-01-08","1003.7605348688509"
"939","2019-01-09","1016.408930926818"
"939","2019-01-10","1036.4019155616343"
"939","2019-01-11","1034.5910188137302"
"939","2019-01-14","1041.2847893255275"
"939","2019-01-15","1068.9811583433748"
"939","2019-01-16","1067.2853332676132"
"939","2019-01-17","1089.1183104981556"
"939","2019-01-18","1083.484284481899"
"939","2019-01-22","1048.3752832461355"
"939","2019-01-23","1049.731835349975"
"939","2019-01-24","1048.121760034087"
"939","2019-01-25","1070.8804382589806"
"939","2019-01-28","1084.7451912364368"
"939","2019-01-29","1092.7514253825502"
"939","2019-01-30","1153.0104739555059"
"939","2019-01-31","1151.223427309918"
