"simulation_id","day","fund_value"
"94","2019-01-02","1000.0000000024229"
"94","2019-01-03","947.9597645022792"
"94","2019-01-04","989.4447010330002"
"94","2019-01-07","1010.5845689414909"
"94","2019-01-08","1026.0311233917744"
"94","2019-01-09","1035.977358847594"
"94","2019-01-10","1043.355131716316"
"94","2019-01-11","1063.7947508703992"
"94","2019-01-14","1049.5666066131218"
"94","2019-01-15","1059.5495583059023"
"94","2019-01-16","1039.0844326005324"
"94","2019-01-17","1043.9036972993742"
"94","2019-01-18","1030.1638253626083"
"94","2019-01-22","1011.2559602440356"
"94","2019-01-23","1019.0804682708049"
"94","2019-01-24","1009.5582638339911"
"94","2019-01-25","1033.5355578362783"
"94","2019-01-28","1033.0208544684942"
"94","2019-01-29","1031.8126525963683"
"94","2019-01-30","1043.535605251562"
"94","2019-01-31","1049.303960311181"
