"simulation_id","day","fund_value"
"940","2019-01-02","1000.0000000024229"
"940","2019-01-03","947.9597645022792"
"940","2019-01-04","993.8820499796221"
"940","2019-01-07","982.8568235048169"
"940","2019-01-08","993.3401267905647"
"940","2019-01-09","987.6993098377116"
"940","2019-01-10","994.64432267386"
"940","2019-01-11","996.047632036165"
"940","2019-01-14","988.9103870129716"
"940","2019-01-15","994.0617187213767"
"940","2019-01-16","994.3920202761085"
"940","2019-01-17","996.6205629183065"
"940","2019-01-18","1011.0568841243116"
"940","2019-01-22","1000.8310326220349"
"940","2019-01-23","1000.7877209887586"
"940","2019-01-24","1004.9302740310692"
"940","2019-01-25","1010.0159232969751"
"940","2019-01-28","1005.930622224314"
"940","2019-01-29","1012.2213257084281"
"940","2019-01-30","1038.0907089248308"
"940","2019-01-31","1042.7121396465552"
