"simulation_id","day","fund_value"
"947","2019-01-02","1000.0000000024229"
"947","2019-01-03","947.9597645022792"
"947","2019-01-04","952.5580695168081"
"947","2019-01-07","964.0541863973751"
"947","2019-01-08","978.534431866178"
"947","2019-01-09","985.702848615123"
"947","2019-01-10","989.3843326900776"
"947","2019-01-11","991.1681320819283"
"947","2019-01-14","990.9592721863213"
"947","2019-01-15","988.968306038999"
"947","2019-01-16","994.7703399906075"
"947","2019-01-17","1008.0793574842303"
"947","2019-01-18","1036.2886487678727"
"947","2019-01-22","1029.6806043738577"
"947","2019-01-23","1025.771777302307"
"947","2019-01-24","1018.8667401531799"
"947","2019-01-25","1043.663649308025"
"947","2019-01-28","1015.8256200249566"
"947","2019-01-29","1025.8211814320236"
"947","2019-01-30","1020.570990680048"
"947","2019-01-31","1024.5934889972875"
