"simulation_id","day","fund_value"
"948","2019-01-02","1000.0000000024229"
"948","2019-01-03","947.9597645022792"
"948","2019-01-04","980.3527999609994"
"948","2019-01-07","994.0720094437904"
"948","2019-01-08","1014.3266081181467"
"948","2019-01-09","1035.9124493888785"
"948","2019-01-10","1038.3020662747172"
"948","2019-01-11","1026.1182883694503"
"948","2019-01-14","1031.254694234498"
"948","2019-01-15","1049.479146584244"
"948","2019-01-16","1041.4520438111815"
"948","2019-01-17","1057.8387028043537"
"948","2019-01-18","1079.568896663971"
"948","2019-01-22","1071.8431527906187"
"948","2019-01-23","1052.4465273714857"
"948","2019-01-24","1077.4359700339974"
"948","2019-01-25","1082.4744898178947"
"948","2019-01-28","1089.2195894534204"
"948","2019-01-29","1079.3347497013372"
"948","2019-01-30","1088.6978190780264"
"948","2019-01-31","1094.6703516216853"
