"simulation_id","day","fund_value"
"949","2019-01-02","1000.0000000024229"
"949","2019-01-03","947.9597645022792"
"949","2019-01-04","966.8551116713996"
"949","2019-01-07","967.6524883923507"
"949","2019-01-08","972.5338278337176"
"949","2019-01-09","970.2717692247647"
"949","2019-01-10","994.3375879456505"
"949","2019-01-11","991.7322802480082"
"949","2019-01-14","979.7973776999813"
"949","2019-01-15","972.2999800210966"
"949","2019-01-16","963.3294609431954"
"949","2019-01-17","970.474755601736"
"949","2019-01-18","976.9087991777304"
"949","2019-01-22","964.4372650347448"
"949","2019-01-23","953.0672884142728"
"949","2019-01-24","948.6333702259803"
"949","2019-01-25","963.7746384530433"
"949","2019-01-28","941.6917853787544"
"949","2019-01-29","943.1694172792788"
"949","2019-01-30","951.8743315242452"
"949","2019-01-31","978.7933278511449"
