"simulation_id","day","fund_value"
"956","2019-01-02","1000.0000000024229"
"956","2019-01-03","947.9597645022792"
"956","2019-01-04","958.1813909990616"
"956","2019-01-07","962.5503479796157"
"956","2019-01-08","954.8250913237734"
"956","2019-01-09","961.1969758798456"
"956","2019-01-10","974.0881268291679"
"956","2019-01-11","966.1320515049244"
"956","2019-01-14","958.9724155027309"
"956","2019-01-15","964.1423512982159"
"956","2019-01-16","961.178977093088"
"956","2019-01-17","977.6382154205708"
"956","2019-01-18","983.2952874025368"
"956","2019-01-22","971.2923682953979"
"956","2019-01-23","972.9204824962575"
"956","2019-01-24","975.7516559414388"
"956","2019-01-25","989.7671071087026"
"956","2019-01-28","977.5929633052189"
"956","2019-01-29","978.1584824602909"
"956","2019-01-30","993.5424425649313"
"956","2019-01-31","999.9586111015938"
