"simulation_id","day","fund_value"
"965","2019-01-02","1000.0000000024229"
"965","2019-01-03","947.9597645022792"
"965","2019-01-04","1007.9412670101192"
"965","2019-01-07","997.1214440223052"
"965","2019-01-08","1016.3962612204435"
"965","2019-01-09","1011.89176872255"
"965","2019-01-10","1021.9723733011575"
"965","2019-01-11","1025.884651102987"
"965","2019-01-14","1021.5343704174935"
"965","2019-01-15","1031.6291365477591"
"965","2019-01-16","1028.3317651947118"
"965","2019-01-17","1048.1859237425804"
"965","2019-01-18","1063.736948096408"
"965","2019-01-22","1048.5023263254598"
"965","2019-01-23","1051.01088797302"
"965","2019-01-24","1057.2624399038295"
"965","2019-01-25","1080.9223889447112"
"965","2019-01-28","1057.5805066639628"
"965","2019-01-29","1057.3344838931998"
"965","2019-01-30","1062.520083019952"
"965","2019-01-31","1072.5432552549253"
