"simulation_id","day","fund_value"
"969","2019-01-02","1000.0000000024229"
"969","2019-01-03","947.9597645022792"
"969","2019-01-04","980.3643357720833"
"969","2019-01-07","997.3382862015955"
"969","2019-01-08","1014.8929906136032"
"969","2019-01-09","1007.7809597359654"
"969","2019-01-10","1005.547524109272"
"969","2019-01-11","1010.7516228539434"
"969","2019-01-14","1012.038834376995"
"969","2019-01-15","1023.0433125627442"
"969","2019-01-16","1006.7501764287896"
"969","2019-01-17","1021.0181413088125"
"969","2019-01-18","1041.1795945596486"
"969","2019-01-22","1052.9486856876736"
"969","2019-01-23","1066.5083179873259"
"969","2019-01-24","1159.531581212554"
"969","2019-01-25","1167.360160617185"
"969","2019-01-28","1162.5131891198032"
"969","2019-01-29","1148.793153147832"
"969","2019-01-30","1148.2302922001506"
"969","2019-01-31","1161.5640247259807"
