"simulation_id","day","fund_value"
"975","2019-01-02","1000.0000000024229"
"975","2019-01-03","947.9597645022792"
"975","2019-01-04","959.6231597315891"
"975","2019-01-07","964.8121287961684"
"975","2019-01-08","993.051664672058"
"975","2019-01-09","986.0926905067449"
"975","2019-01-10","991.7824002272303"
"975","2019-01-11","995.7784844526216"
"975","2019-01-14","974.4421006497282"
"975","2019-01-15","990.3581676498386"
"975","2019-01-16","1001.3304409282864"
"975","2019-01-17","1008.9363332281081"
"975","2019-01-18","1017.9039400107915"
"975","2019-01-22","1016.5387889963202"
"975","2019-01-23","1012.6720102390007"
"975","2019-01-24","1015.1113250999684"
"975","2019-01-25","923.9618639499483"
"975","2019-01-28","905.1962034314566"
"975","2019-01-29","879.1035921091445"
"975","2019-01-30","845.927202611376"
"975","2019-01-31","850.4390828346715"
