"simulation_id","day","fund_value"
"978","2019-01-02","1000.0000000024229"
"978","2019-01-03","947.9597645022792"
"978","2019-01-04","1005.0428759789841"
"978","2019-01-07","1002.8175375200947"
"978","2019-01-08","1005.913648969899"
"978","2019-01-09","987.5039935161656"
"978","2019-01-10","993.8866519329413"
"978","2019-01-11","990.7241801156617"
"978","2019-01-14","978.6620408592252"
"978","2019-01-15","972.8710171528007"
"978","2019-01-16","975.4515012470088"
"978","2019-01-17","998.5106805837337"
"978","2019-01-18","1008.5297756884627"
"978","2019-01-22","1005.5342528193648"
"978","2019-01-23","992.8819214503833"
"978","2019-01-24","995.5174345265954"
"978","2019-01-25","1008.6355266360234"
"978","2019-01-28","1012.9355209594665"
"978","2019-01-29","1018.9540873894666"
"978","2019-01-30","1026.7961485110447"
"978","2019-01-31","1040.6882325398578"
