"simulation_id","day","fund_value"
"984","2019-01-02","1000.0000000024229"
"984","2019-01-03","947.9597645022792"
"984","2019-01-04","973.0976644982615"
"984","2019-01-07","975.145816537657"
"984","2019-01-08","1000.8951436141353"
"984","2019-01-09","1008.3165542907535"
"984","2019-01-10","1025.6856965799734"
"984","2019-01-11","1019.5577535993232"
"984","2019-01-14","1006.2528132987328"
"984","2019-01-15","1011.3648505384111"
"984","2019-01-16","1022.1007330369689"
"984","2019-01-17","1033.1522319206958"
"984","2019-01-18","1047.1747479900453"
"984","2019-01-22","1026.592531416426"
"984","2019-01-23","1025.08868735145"
"984","2019-01-24","1014.2449428195714"
"984","2019-01-25","1024.9074241135186"
"984","2019-01-28","972.6274762794167"
"984","2019-01-29","972.2416528978688"
"984","2019-01-30","989.3866534242361"
"984","2019-01-31","1004.6990950335119"
