"simulation_id","day","fund_value"
"985","2019-01-02","1000.0000000024229"
"985","2019-01-03","947.9597645022792"
"985","2019-01-04","976.1469404787093"
"985","2019-01-07","981.7363338207218"
"985","2019-01-08","981.7977601797165"
"985","2019-01-09","995.6592196852541"
"985","2019-01-10","1009.1720845923012"
"985","2019-01-11","984.3357804663108"
"985","2019-01-14","962.8961301416671"
"985","2019-01-15","970.3098670449109"
"985","2019-01-16","974.6544453921628"
"985","2019-01-17","990.5122647922135"
"985","2019-01-18","1005.9386900214955"
"985","2019-01-22","991.2714315783552"
"985","2019-01-23","995.3023182691852"
"985","2019-01-24","997.5618338911969"
"985","2019-01-25","999.9807215535436"
"985","2019-01-28","1007.6447634988384"
"985","2019-01-29","1040.5106240676969"
"985","2019-01-30","1048.665285840057"
"985","2019-01-31","1055.144920448481"
