"simulation_id","day","fund_value"
"987","2019-01-02","1000.0000000024229"
"987","2019-01-03","947.9597645022792"
"987","2019-01-04","981.7760162466155"
"987","2019-01-07","1002.3520209646592"
"987","2019-01-08","1000.38943278851"
"987","2019-01-09","1009.7330603332615"
"987","2019-01-10","1006.2002120288826"
"987","2019-01-11","1006.3857851743408"
"987","2019-01-14","1009.8024883243124"
"987","2019-01-15","1022.9359294313592"
"987","2019-01-16","1033.9962707058073"
"987","2019-01-17","1033.630539464312"
"987","2019-01-18","1052.8577723751375"
"987","2019-01-22","1028.9281507249818"
"987","2019-01-23","1028.5141721547627"
"987","2019-01-24","1036.4695216592572"
"987","2019-01-25","1046.1964537909382"
"987","2019-01-28","1041.9424699160863"
"987","2019-01-29","1033.2973207007465"
"987","2019-01-30","1074.3348520006202"
"987","2019-01-31","1064.9141731818472"
