"simulation_id","day","fund_value"
"994","2019-01-02","1000.0000000024229"
"994","2019-01-03","947.9597645022792"
"994","2019-01-04","981.5034539732326"
"994","2019-01-07","1006.984610589795"
"994","2019-01-08","1015.5762966245828"
"994","2019-01-09","1031.010109830809"
"994","2019-01-10","1050.1412026748599"
"994","2019-01-11","1047.1755832288134"
"994","2019-01-14","1036.112888184101"
"994","2019-01-15","1041.956028692732"
"994","2019-01-16","1037.4617119743514"
"994","2019-01-17","1058.7313741173368"
"994","2019-01-18","1071.3181717566345"
"994","2019-01-22","1048.0348254100963"
"994","2019-01-23","1054.6678349833578"
"994","2019-01-24","1065.9304680024661"
"994","2019-01-25","1071.8885669584754"
"994","2019-01-28","1042.3881036949278"
"994","2019-01-29","1022.2404080102367"
"994","2019-01-30","1013.7443014431789"
"994","2019-01-31","1029.2887917085773"
