"simulation_id","day","fund_value"
"998","2019-01-02","1000.0000000024229"
"998","2019-01-03","947.9597645022792"
"998","2019-01-04","989.5775986679814"
"998","2019-01-07","996.2318163013595"
"998","2019-01-08","1010.3826132110851"
"998","2019-01-09","1007.5120061356794"
"998","2019-01-10","1016.7010433664326"
"998","2019-01-11","1024.6802355064788"
"998","2019-01-14","1020.2214164164448"
"998","2019-01-15","1016.1862549231455"
"998","2019-01-16","1025.4915528667946"
"998","2019-01-17","1030.3415836681838"
"998","2019-01-18","1050.2321006681168"
"998","2019-01-22","1046.8798726366413"
"998","2019-01-23","1038.4098141467593"
"998","2019-01-24","1055.8883081630556"
"998","2019-01-25","1089.2269214069383"
"998","2019-01-28","1066.573964905492"
"998","2019-01-29","1078.3785827279692"
"998","2019-01-30","1087.953532924624"
"998","2019-01-31","1109.7561045360958"
